<?xml version="1.0" encoding="UTF-8"?>
<gpx xmlns:xsi="http://www.w3.org/2001/XMLSchema-instance" xmlns="http://www.topografix.com/GPX/1/1" xsi:schemaLocation="http://www.topografix.com/GPX/1/1 http://www.topografix.com/GPX/1/1/gpx.xsd http://www.garmin.com/xmlschemas/GpxExtensions/v3 http://www.garmin.com/xmlschemas/GpxExtensionsv3.xsd http://www.garmin.com/xmlschemas/TrackPointExtension/v1 http://www.garmin.com/xmlschemas/TrackPointExtensionv1.xsd" xmlns:gpxtpx="http://www.garmin.com/xmlschemas/TrackPointExtension/v1" xmlns:gpxx="http://www.garmin.com/xmlschemas/GpxExtensions/v3" version="1.1" creator="https://gpx.studio">
	<metadata>
		<name>2021-07</name>
		<desc>Export from GpsPrune</desc>
	</metadata>
	<trk>
		<name>2021-07</name>
		<number>1</number>
		<trkseg>
    <trkpt lat="-36.799611892971335" lon="174.74186182022098"></trkpt>
    <trkpt lat="-36.802216" lon="174.741561"></trkpt>
    <trkpt lat="-36.802723" lon="174.743797"></trkpt>
    <trkpt lat="-36.802739" lon="174.744313"></trkpt>
    <trkpt lat="-36.803692" lon="174.744569"></trkpt>
    <trkpt lat="-36.805755" lon="174.744292"></trkpt>
    <trkpt lat="-36.808087" lon="174.743753"></trkpt>
    <trkpt lat="-36.809602" lon="174.743196"></trkpt>
    <trkpt lat="-36.811029" lon="174.743556"></trkpt>
    <trkpt lat="-36.812212" lon="174.74746"></trkpt>
    <trkpt lat="-36.812196" lon="174.751561"></trkpt>
    <trkpt lat="-36.811824" lon="174.753319"></trkpt>
    <trkpt lat="-36.812021" lon="174.753898"></trkpt>
    <trkpt lat="-36.81253" lon="174.754289"></trkpt>
    <trkpt lat="-36.813018" lon="174.754251"></trkpt>
    <trkpt lat="-36.813444" lon="174.753933"></trkpt>
    <trkpt lat="-36.814361" lon="174.75206"></trkpt>
    <trkpt lat="-36.815353" lon="174.751215"></trkpt>
    <trkpt lat="-36.819403" lon="174.750131"></trkpt>
    <trkpt lat="-36.820754" lon="174.75009"></trkpt>
    <trkpt lat="-36.822769" lon="174.75033"></trkpt>
    <trkpt lat="-36.823818" lon="174.750102"></trkpt>
    <trkpt lat="-36.836162" lon="174.741981"></trkpt>
    <trkpt lat="-36.837133" lon="174.741673"></trkpt>
    <trkpt lat="-36.837666" lon="174.741652"></trkpt>
    <trkpt lat="-36.838179" lon="174.741816"></trkpt>
    <trkpt lat="-36.838632" lon="174.742147"></trkpt>
    <trkpt lat="-36.839447" lon="174.743208"></trkpt>
    <trkpt lat="-36.840513" lon="174.744931"></trkpt>
    <trkpt lat="-36.842152" lon="174.746304"></trkpt>
    <trkpt lat="-36.842483" lon="174.746946"></trkpt>
    <trkpt lat="-36.842739" lon="174.74827"></trkpt>
    <trkpt lat="-36.843165" lon="174.749601"></trkpt>
    <trkpt lat="-36.844632" lon="174.752165"></trkpt>
    <trkpt lat="-36.845364" lon="174.752866"></trkpt>
    <trkpt lat="-36.846156" lon="174.753153"></trkpt>
    <trkpt lat="-36.84848" lon="174.753288"></trkpt>
    <trkpt lat="-36.850077" lon="174.753691"></trkpt>
    <trkpt lat="-36.850949" lon="174.754199"></trkpt>
    <trkpt lat="-36.853409" lon="174.756316"></trkpt>
    <trkpt lat="-36.854728" lon="174.756855"></trkpt>
    <trkpt lat="-36.85578" lon="174.756822"></trkpt>
    <trkpt lat="-36.857376" lon="174.755967"></trkpt>
    <trkpt lat="-36.857901" lon="174.75597"></trkpt>
    <trkpt lat="-36.859785" lon="174.756595"></trkpt>
    <trkpt lat="-36.860317" lon="174.756532"></trkpt>
    <trkpt lat="-36.860919" lon="174.75622"></trkpt>
    <trkpt lat="-36.86141" lon="174.75571"></trkpt>
    <trkpt lat="-36.863036" lon="174.753188"></trkpt>
    <trkpt lat="-36.867489" lon="174.748103"></trkpt>
    <trkpt lat="-36.868292" lon="174.746662"></trkpt>
    <trkpt lat="-36.868752" lon="174.745278"></trkpt>
    <trkpt lat="-36.868959" lon="174.744109"></trkpt>
    <trkpt lat="-36.869014" lon="174.742704"></trkpt>
    <trkpt lat="-36.868221" lon="174.733599"></trkpt>
    <trkpt lat="-36.86831" lon="174.731864"></trkpt>
    <trkpt lat="-36.868848" lon="174.72858"></trkpt>
    <trkpt lat="-36.868941" lon="174.727285"></trkpt>
    <trkpt lat="-36.86869" lon="174.722344"></trkpt>
    <trkpt lat="-36.86875" lon="174.720789"></trkpt>
    <trkpt lat="-36.868973" lon="174.719576"></trkpt>
    <trkpt lat="-36.870452" lon="174.714632"></trkpt>
    <trkpt lat="-36.871413" lon="174.711977"></trkpt>
    <trkpt lat="-36.87162" lon="174.710633"></trkpt>
    <trkpt lat="-36.87183" lon="174.707961"></trkpt>
    <trkpt lat="-36.872027" lon="174.70704"></trkpt>
    <trkpt lat="-36.872482" lon="174.706024"></trkpt>
    <trkpt lat="-36.873049" lon="174.705517"></trkpt>
    <trkpt lat="-36.873872" lon="174.705183"></trkpt>
    <trkpt lat="-36.878239" lon="174.702673"></trkpt>
    <trkpt lat="-36.886152" lon="174.700415"></trkpt>
    <trkpt lat="-36.889778" lon="174.697093"></trkpt>
    <trkpt lat="-36.892769" lon="174.695234"></trkpt>
    <trkpt lat="-36.893125" lon="174.694769"></trkpt>
    <trkpt lat="-36.893337" lon="174.694266"></trkpt>
    <trkpt lat="-36.894125" lon="174.69153"></trkpt>
    <trkpt lat="-36.897333" lon="174.685014"></trkpt>
    <trkpt lat="-36.898328" lon="174.68328"></trkpt>
    <trkpt lat="-36.898804" lon="174.682856"></trkpt>
    <trkpt lat="-36.899322" lon="174.682684"></trkpt>
    <trkpt lat="-36.900903" lon="174.682888"></trkpt>
    <trkpt lat="-36.901925" lon="174.682672"></trkpt>
    <trkpt lat="-36.902692" lon="174.682016"></trkpt>
    <trkpt lat="-36.9039" lon="174.680539"></trkpt>
    <trkpt lat="-36.904669" lon="174.679787"></trkpt>
    <trkpt lat="-36.908684" lon="174.677621"></trkpt>
    <trkpt lat="-36.911907" lon="174.675392"></trkpt>
    <trkpt lat="-36.914978" lon="174.670206"></trkpt>
    <trkpt lat="-36.915776" lon="174.669322"></trkpt>
    <trkpt lat="-36.91733" lon="174.665994"></trkpt>
    <trkpt lat="-36.921072" lon="174.661521"></trkpt>
    <trkpt lat="-36.921488" lon="174.661256"></trkpt>
    <trkpt lat="-36.921891" lon="174.661245"></trkpt>
    <trkpt lat="-36.92179" lon="174.660708"></trkpt>
    <trkpt lat="-36.921905" lon="174.660382"></trkpt>
    <trkpt lat="-36.921693" lon="174.659696"></trkpt>
    <trkpt lat="-36.922194" lon="174.658963"></trkpt>
    <trkpt lat="-36.922302" lon="174.658141"></trkpt>
    <trkpt lat="-36.923053" lon="174.657139"></trkpt>
    <trkpt lat="-36.923247" lon="174.65628"></trkpt>
    <trkpt lat="-36.923505" lon="174.656084"></trkpt>
    <trkpt lat="-36.923953" lon="174.655994"></trkpt>
    <trkpt lat="-36.924413" lon="174.65558"></trkpt>
    <trkpt lat="-36.925222" lon="174.65544"></trkpt>
    <trkpt lat="-36.9265" lon="174.654654"></trkpt>
    <trkpt lat="-36.927007" lon="174.654596"></trkpt>
    <trkpt lat="-36.926934" lon="174.654331"></trkpt>
    <trkpt lat="-36.924091" lon="174.649722"></trkpt>
    <trkpt lat="-36.921717" lon="174.648103"></trkpt>
    <trkpt lat="-36.921638" lon="174.647913"></trkpt>
    <trkpt lat="-36.923373" lon="174.646553"></trkpt>
    <trkpt lat="-36.924484" lon="174.644557"></trkpt>
    <trkpt lat="-36.925721" lon="174.644218"></trkpt>
    <trkpt lat="-36.925969" lon="174.644025"></trkpt>
    <trkpt lat="-36.926522" lon="174.644528"></trkpt>
    <trkpt lat="-36.927308" lon="174.644736"></trkpt>
    <trkpt lat="-36.927719" lon="174.644706"></trkpt>
    <trkpt lat="-36.928179" lon="174.644307"></trkpt>
    <trkpt lat="-36.929199" lon="174.645241"></trkpt>
    <trkpt lat="-36.93031" lon="174.64544"></trkpt>
    <trkpt lat="-36.930794" lon="174.645363"></trkpt>
    <trkpt lat="-36.931174" lon="174.645677"></trkpt>
    <trkpt lat="-36.931347" lon="174.64656"></trkpt>
    <trkpt lat="-36.931273" lon="174.646996"></trkpt>
    <trkpt lat="-36.930158" lon="174.648237"></trkpt>
    <trkpt lat="-36.929955" lon="174.649258"></trkpt>
    <trkpt lat="-36.925034" lon="174.648559"></trkpt>
    <trkpt lat="-36.92458" lon="174.648702"></trkpt>
    <trkpt lat="-36.924091" lon="174.649722"></trkpt>
    <trkpt lat="-36.926878" lon="174.654278"></trkpt>
    <trkpt lat="-36.926896" lon="174.654592"></trkpt>
    <trkpt lat="-36.9265" lon="174.654654"></trkpt>
    <trkpt lat="-36.925222" lon="174.65544"></trkpt>
    <trkpt lat="-36.924413" lon="174.65558"></trkpt>
    <trkpt lat="-36.923953" lon="174.655994"></trkpt>
    <trkpt lat="-36.923505" lon="174.656084"></trkpt>
    <trkpt lat="-36.923247" lon="174.65628"></trkpt>
    <trkpt lat="-36.923053" lon="174.657139"></trkpt>
    <trkpt lat="-36.922302" lon="174.658141"></trkpt>
    <trkpt lat="-36.922194" lon="174.658963"></trkpt>
    <trkpt lat="-36.921693" lon="174.659696"></trkpt>
    <trkpt lat="-36.921905" lon="174.660382"></trkpt>
    <trkpt lat="-36.921687" lon="174.660671"></trkpt>
    <trkpt lat="-36.921751" lon="174.661071"></trkpt>
    <trkpt lat="-36.921072" lon="174.661521"></trkpt>
    <trkpt lat="-36.91733" lon="174.665994"></trkpt>
    <trkpt lat="-36.91677" lon="174.66703"></trkpt>
    <trkpt lat="-36.915776" lon="174.669322"></trkpt>
    <trkpt lat="-36.914978" lon="174.670206"></trkpt>
    <trkpt lat="-36.911907" lon="174.675392"></trkpt>
    <trkpt lat="-36.909896" lon="174.676804"></trkpt>
    <trkpt lat="-36.904362" lon="174.679963"></trkpt>
    <trkpt lat="-36.903501" lon="174.680829"></trkpt>
    <trkpt lat="-36.902477" lon="174.68211"></trkpt>
    <trkpt lat="-36.902014" lon="174.682469"></trkpt>
    <trkpt lat="-36.901294" lon="174.682741"></trkpt>
    <trkpt lat="-36.899322" lon="174.682684"></trkpt>
    <trkpt lat="-36.898804" lon="174.682856"></trkpt>
    <trkpt lat="-36.898328" lon="174.68328"></trkpt>
    <trkpt lat="-36.897333" lon="174.685014"></trkpt>
    <trkpt lat="-36.893887" lon="174.691953"></trkpt>
    <trkpt lat="-36.893195" lon="174.694359"></trkpt>
    <trkpt lat="-36.892721" lon="174.695112"></trkpt>
    <trkpt lat="-36.889778" lon="174.697093"></trkpt>
    <trkpt lat="-36.886152" lon="174.700415"></trkpt>
    <trkpt lat="-36.878239" lon="174.702673"></trkpt>
    <trkpt lat="-36.875181" lon="174.704448"></trkpt>
    <trkpt lat="-36.873554" lon="174.705201"></trkpt>
    <trkpt lat="-36.872958" lon="174.705215"></trkpt>
    <trkpt lat="-36.872103" lon="174.704964"></trkpt>
    <trkpt lat="-36.871511" lon="174.704627"></trkpt>
    <trkpt lat="-36.871065" lon="174.704108"></trkpt>
    <trkpt lat="-36.870836" lon="174.703556"></trkpt>
    <trkpt lat="-36.870686" lon="174.702279"></trkpt>
    <trkpt lat="-36.870731" lon="174.701585"></trkpt>
    <trkpt lat="-36.870912" lon="174.701199"></trkpt>
    <trkpt lat="-36.871265" lon="174.700989"></trkpt>
    <trkpt lat="-36.871557" lon="174.701004"></trkpt>
    <trkpt lat="-36.871744" lon="174.701081"></trkpt>
    <trkpt lat="-36.871991" lon="174.70143"></trkpt>
    <trkpt lat="-36.872243" lon="174.702602"></trkpt>
    <trkpt lat="-36.87222" lon="174.704702"></trkpt>
    <trkpt lat="-36.87157" lon="174.707532"></trkpt>
    <trkpt lat="-36.871233" lon="174.711213"></trkpt>
    <trkpt lat="-36.868808" lon="174.719501"></trkpt>
    <trkpt lat="-36.86854" lon="174.721128"></trkpt>
    <trkpt lat="-36.868495" lon="174.722182"></trkpt>
    <trkpt lat="-36.868752" lon="174.727486"></trkpt>
    <trkpt lat="-36.868128" lon="174.731973"></trkpt>
    <trkpt lat="-36.868062" lon="174.734298"></trkpt>
    <trkpt lat="-36.868787" lon="174.742492"></trkpt>
    <trkpt lat="-36.868791" lon="174.743551"></trkpt>
    <trkpt lat="-36.868633" lon="174.744808"></trkpt>
    <trkpt lat="-36.868035" lon="174.746715"></trkpt>
    <trkpt lat="-36.866935" lon="174.748516"></trkpt>
    <trkpt lat="-36.864819" lon="174.750873"></trkpt>
    <trkpt lat="-36.860084" lon="174.755739"></trkpt>
    <trkpt lat="-36.85946" lon="174.756002"></trkpt>
    <trkpt lat="-36.859046" lon="174.756017"></trkpt>
    <trkpt lat="-36.857337" lon="174.75548"></trkpt>
    <trkpt lat="-36.85675" lon="174.755472"></trkpt>
    <trkpt lat="-36.856043" lon="174.755675"></trkpt>
    <trkpt lat="-36.854887" lon="174.75628"></trkpt>
    <trkpt lat="-36.854245" lon="174.756288"></trkpt>
    <trkpt lat="-36.853227" lon="174.755755"></trkpt>
    <trkpt lat="-36.850807" lon="174.753753"></trkpt>
    <trkpt lat="-36.850048" lon="174.753366"></trkpt>
    <trkpt lat="-36.848729" lon="174.752939"></trkpt>
    <trkpt lat="-36.845366" lon="174.752384"></trkpt>
    <trkpt lat="-36.844534" lon="174.751387"></trkpt>
    <trkpt lat="-36.843388" lon="174.74952"></trkpt>
    <trkpt lat="-36.843012" lon="174.748502"></trkpt>
    <trkpt lat="-36.842667" lon="174.746856"></trkpt>
    <trkpt lat="-36.842297" lon="174.746123"></trkpt>
    <trkpt lat="-36.840654" lon="174.744751"></trkpt>
    <trkpt lat="-36.838893" lon="174.742077"></trkpt>
    <trkpt lat="-36.837888" lon="174.741435"></trkpt>
    <trkpt lat="-36.83701" lon="174.741401"></trkpt>
    <trkpt lat="-36.836424" lon="174.74165"></trkpt>
    <trkpt lat="-36.823771" lon="174.749967"></trkpt>
    <trkpt lat="-36.822768" lon="174.750195"></trkpt>
    <trkpt lat="-36.820337" lon="174.749669"></trkpt>
    <trkpt lat="-36.81919" lon="174.749701"></trkpt>
    <trkpt lat="-36.815844" lon="174.750676"></trkpt>
    <trkpt lat="-36.814764" lon="174.75124"></trkpt>
    <trkpt lat="-36.813773" lon="174.75154"></trkpt>
    <trkpt lat="-36.813339" lon="174.751435"></trkpt>
    <trkpt lat="-36.812715" lon="174.751054"></trkpt>
    <trkpt lat="-36.812358" lon="174.750633"></trkpt>
    <trkpt lat="-36.812236" lon="174.750156"></trkpt>
    <trkpt lat="-36.812212" lon="174.74746"></trkpt>
    <trkpt lat="-36.811029" lon="174.743556"></trkpt>
    <trkpt lat="-36.809602" lon="174.743196"></trkpt>
    <trkpt lat="-36.808087" lon="174.743753"></trkpt>
    <trkpt lat="-36.805755" lon="174.744292"></trkpt>
    <trkpt lat="-36.803692" lon="174.744569"></trkpt>
    <trkpt lat="-36.802901" lon="174.744209"></trkpt>
    <trkpt lat="-36.802723" lon="174.743797"></trkpt>
    <trkpt lat="-36.802216" lon="174.741561"></trkpt>
    <trkpt lat="-36.799645" lon="174.741955"></trkpt>
		</trkseg>
	</trk>
</gpx>

