<?xml version="1.0"?>
<gpx creator="GPS Tracker http://www.geoffg.net/tracker.html/" version="1.0" xmlns="http://www.topografix.com/GPX/1/0" xmlns:xsi="http://www.w3.org/2001/XMLSchema-instance" xsi:schemaLocation="http://www.topografix.com/GPX/1/0 http://www.topografix.com/GPX/1/0/gpx.xsd">
<trk>
<name>Tracker log 2021-12-04 12:52 #02</name>
<trkseg>
<trkpt lat="-36.748657" lon="174.733200"><ele>63.900001</ele><time>2021-12-03T23:51:24Z</time><course>0.000000</course><speed>0.015433</speed></trkpt>
<trkpt lat="-36.748672" lon="174.733154"><ele>52.500000</ele><time>2021-12-03T23:51:54Z</time><course>0.000000</course><speed>0.070479</speed></trkpt>
<trkpt lat="-36.748680" lon="174.733154"><ele>53.400001</ele><time>2021-12-03T23:52:24Z</time><course>0.000000</course><speed>0.033439</speed></trkpt>
<trkpt lat="-36.748703" lon="174.733139"><ele>53.599998</ele><time>2021-12-03T23:52:54Z</time><course>0.000000</course><speed>0.117808</speed></trkpt>
<trkpt lat="-36.748470" lon="174.732833"><ele>53.900001</ele><time>2021-12-03T23:53:24Z</time><course>325.029998</course><speed>3.003327</speed></trkpt>
<trkpt lat="-36.748699" lon="174.731796"><ele>55.200000</ele><time>2021-12-03T23:53:54Z</time><course>238.470001</course><speed>12.785490</speed></trkpt>
<trkpt lat="-36.749668" lon="174.729812"><ele>57.700000</ele><time>2021-12-03T23:54:24Z</time><course>0.000000</course><speed>0.076652</speed></trkpt>
<trkpt lat="-36.749698" lon="174.729782"><ele>54.299999</ele><time>2021-12-03T23:54:54Z</time><course>0.000000</course><speed>0.232529</speed></trkpt>
<trkpt lat="-36.750461" lon="174.727539"><ele>54.900001</ele><time>2021-12-03T23:55:24Z</time><course>248.229995</course><speed>4.375350</speed></trkpt>
<trkpt lat="-36.751266" lon="174.727050"><ele>58.799999</ele><time>2021-12-03T23:55:54Z</time><course>144.279998</course><speed>12.077098</speed></trkpt>
<trkpt lat="-36.754783" lon="174.730484"><ele>75.400001</ele><time>2021-12-03T23:56:24Z</time><course>140.419998</course><speed>15.802191</speed></trkpt>
<trkpt lat="-36.757682" lon="174.733825"><ele>53.599998</ele><time>2021-12-03T23:56:54Z</time><course>135.910003</course><speed>14.462578</speed></trkpt>
<trkpt lat="-36.761528" lon="174.737731"><ele>29.200000</ele><time>2021-12-03T23:57:24Z</time><course>148.710006</course><speed>17.578052</speed></trkpt>
<trkpt lat="-36.766597" lon="174.740310"><ele>24.899999</ele><time>2021-12-03T23:57:54Z</time><course>163.470001</course><speed>21.852058</speed></trkpt>
<trkpt lat="-36.772155" lon="174.743057"><ele>25.299999</ele><time>2021-12-03T23:58:24Z</time><course>157.110000</course><speed>23.935043</speed></trkpt>
<trkpt lat="-36.778583" lon="174.746856"><ele>26.700000</ele><time>2021-12-03T23:58:54Z</time><course>153.669998</course><speed>27.626697</speed></trkpt>
<trkpt lat="-36.785263" lon="174.751052"><ele>18.399999</ele><time>2021-12-03T23:59:24Z</time><course>153.410003</course><speed>27.342208</speed></trkpt>
<trkpt lat="-36.791740" lon="174.755188"><ele>19.299999</ele><time>2021-12-03T23:59:54Z</time><course>150.039993</course><speed>27.265043</speed></trkpt>
<trkpt lat="-36.797657" lon="174.760559"><ele>13.600001</ele><time>2021-12-04T00:00:24Z</time><course>148.160003</course><speed>26.306633</speed></trkpt>
<trkpt lat="-36.804115" lon="174.760498"><ele>8.200000</ele><time>2021-12-04T00:00:54Z</time><course>200.559997</course><speed>22.608806</speed></trkpt>
<trkpt lat="-36.809295" lon="174.756378"><ele>9.100001</ele><time>2021-12-04T00:01:24Z</time><course>217.089996</course><speed>23.070777</speed></trkpt>
<trkpt lat="-36.813507" lon="174.752548"><ele>14.700000</ele><time>2021-12-04T00:01:54Z</time><course>268.239990</course><speed>16.193683</speed></trkpt>
<trkpt lat="-36.812282" lon="174.748901"><ele>17.100000</ele><time>2021-12-04T00:02:24Z</time><course>268.089996</course><speed>13.842158</speed></trkpt>
<trkpt lat="-36.811641" lon="174.745498"><ele>30.899999</ele><time>2021-12-04T00:02:54Z</time><course>288.339996</course><speed>1.608153</speed></trkpt>
<trkpt lat="-36.811237" lon="174.744201"><ele>31.899999</ele><time>2021-12-04T00:03:24Z</time><course>291.200012</course><speed>10.135585</speed></trkpt>
<trkpt lat="-36.810649" lon="174.740432"><ele>49.099998</ele><time>2021-12-04T00:03:54Z</time><course>273.690002</course><speed>10.776069</speed></trkpt>
<trkpt lat="-36.810501" lon="174.737594"><ele>52.900001</ele><time>2021-12-04T00:04:24Z</time><course>273.739990</course><speed>7.835504</speed></trkpt>
<trkpt lat="-36.810318" lon="174.734130"><ele>57.200000</ele><time>2021-12-04T00:04:54Z</time><course>274.309997</course><speed>11.248329</speed></trkpt>
<trkpt lat="-36.810077" lon="174.730056"><ele>66.199996</ele><time>2021-12-04T00:05:24Z</time><course>274.200012</course><speed>13.573618</speed></trkpt>
<trkpt lat="-36.810150" lon="174.725921"><ele>89.599998</ele><time>2021-12-04T00:05:54Z</time><course>264.029998</course><speed>11.197914</speed></trkpt>
<trkpt lat="-36.810756" lon="174.721710"><ele>87.900001</ele><time>2021-12-04T00:06:24Z</time><course>241.089996</course><speed>12.258183</speed></trkpt>
<trkpt lat="-36.812503" lon="174.720642"><ele>97.199996</ele><time>2021-12-04T00:06:54Z</time><course>181.860000</course><speed>11.677890</speed></trkpt>
<trkpt lat="-36.814682" lon="174.721191"><ele>64.099998</ele><time>2021-12-04T00:07:24Z</time><course>0.000000</course><speed>0.037554</speed></trkpt>
</trkseg></trk></gpx>
