<?xml version="1.0"?>
<gpx creator="GPS Tracker http://www.geoffg.net/tracker.html/" version="1.0" xmlns="http://www.topografix.com/GPX/1/0" xmlns:xsi="http://www.w3.org/2001/XMLSchema-instance" xsi:schemaLocation="http://www.topografix.com/GPX/1/0 http://www.topografix.com/GPX/1/0/gpx.xsd">
<trk>
<name>Tracker log 2021-12-18 10:31 #03</name>
<trkseg>
<trkpt lat="-37.669830" lon="175.304031"><ele>30.899999</ele><time>2021-12-17T21:31:16Z</time><course>0.000000</course><speed>0.090542</speed></trkpt>
<trkpt lat="-37.670002" lon="175.304290"><ele>31.899999</ele><time>2021-12-17T21:31:46Z</time><course>141.789993</course><speed>4.229248</speed></trkpt>
<trkpt lat="-37.671470" lon="175.308105"><ele>31.100000</ele><time>2021-12-17T21:32:16Z</time><course>114.980003</course><speed>15.637569</speed></trkpt>
<trkpt lat="-37.673629" lon="175.313034"><ele>26.799999</ele><time>2021-12-17T21:32:46Z</time><course>138.369995</course><speed>18.337373</speed></trkpt>
<trkpt lat="-37.678405" lon="175.316818"><ele>29.299999</ele><time>2021-12-17T21:33:16Z</time><course>154.570007</course><speed>22.217313</speed></trkpt>
<trkpt lat="-37.682758" lon="175.317993"><ele>30.000000</ele><time>2021-12-17T21:33:46Z</time><course>111.599998</course><speed>8.471357</speed></trkpt>
<trkpt lat="-37.684143" lon="175.324295"><ele>29.500000</ele><time>2021-12-17T21:34:16Z</time><course>105.230003</course><speed>23.113475</speed></trkpt>
<trkpt lat="-37.685886" lon="175.332458"><ele>31.799999</ele><time>2021-12-17T21:34:46Z</time><course>105.190002</course><speed>26.120918</speed></trkpt>
<trkpt lat="-37.686763" lon="175.338378"><ele>34.299999</ele><time>2021-12-17T21:35:16Z</time><course>163.539993</course><speed>5.323471</speed></trkpt>
<trkpt lat="-37.691391" lon="175.338287"><ele>32.200000</ele><time>2021-12-17T21:35:46Z</time><course>180.919998</course><speed>22.432350</speed></trkpt>
<trkpt lat="-37.697925" lon="175.338165"><ele>32.500000</ele><time>2021-12-17T21:36:16Z</time><course>180.570007</course><speed>24.586843</speed></trkpt>
<trkpt lat="-37.704616" lon="175.338043"><ele>32.000000</ele><time>2021-12-17T21:36:46Z</time><course>180.800003</course><speed>24.202039</speed></trkpt>
<trkpt lat="-37.711113" lon="175.337936"><ele>34.900001</ele><time>2021-12-17T21:37:16Z</time><course>180.669998</course><speed>23.456096</speed></trkpt>
<trkpt lat="-37.715446" lon="175.338790"><ele>37.799999</ele><time>2021-12-17T21:37:46Z</time><course>142.419998</course><speed>17.183988</speed></trkpt>
<trkpt lat="-37.720130" lon="175.343429"><ele>40.000000</ele><time>2021-12-17T21:38:16Z</time><course>141.970001</course><speed>24.098121</speed></trkpt>
<trkpt lat="-37.725196" lon="175.348449"><ele>42.700000</ele><time>2021-12-17T21:38:46Z</time><course>142.089996</course><speed>24.301841</speed></trkpt>
<trkpt lat="-37.730403" lon="175.353591"><ele>43.900001</ele><time>2021-12-17T21:39:16Z</time><course>142.089996</course><speed>24.801881</speed></trkpt>
<trkpt lat="-37.735557" lon="175.358657"><ele>45.500000</ele><time>2021-12-17T21:39:46Z</time><course>141.740005</course><speed>24.971649</speed></trkpt>
<trkpt lat="-37.740467" lon="175.363540"><ele>46.799999</ele><time>2021-12-17T21:40:16Z</time><course>142.330001</course><speed>20.551542</speed></trkpt>
<trkpt lat="-37.744258" lon="175.367279"><ele>47.700000</ele><time>2021-12-17T21:40:46Z</time><course>141.910003</course><speed>8.481646</speed></trkpt>
<trkpt lat="-37.744789" lon="175.367904"><ele>49.799999</ele><time>2021-12-17T21:41:16Z</time><course>102.839996</course><speed>2.104592</speed></trkpt>
<trkpt lat="-37.747589" lon="175.370849"><ele>48.000000</ele><time>2021-12-17T21:41:46Z</time><course>141.839996</course><speed>19.103895</speed></trkpt>
<trkpt lat="-37.752273" lon="175.375457"><ele>50.299999</ele><time>2021-12-17T21:42:16Z</time><course>142.169998</course><speed>23.254432</speed></trkpt>
<trkpt lat="-37.757225" lon="175.380325"><ele>49.400001</ele><time>2021-12-17T21:42:46Z</time><course>141.940002</course><speed>22.726612</speed></trkpt>
<trkpt lat="-37.762058" lon="175.385116"><ele>51.900001</ele><time>2021-12-17T21:43:16Z</time><course>142.429992</course><speed>22.426692</speed></trkpt>
<trkpt lat="-37.766387" lon="175.388488"><ele>53.299999</ele><time>2021-12-17T21:43:46Z</time><course>211.710006</course><speed>14.152882</speed></trkpt>
<trkpt lat="-37.769180" lon="175.384124"><ele>49.599998</ele><time>2021-12-17T21:44:16Z</time><course>231.410003</course><speed>18.300848</speed></trkpt>
<trkpt lat="-37.772510" lon="175.378784"><ele>41.900001</ele><time>2021-12-17T21:44:46Z</time><course>232.199996</course><speed>19.539114</speed></trkpt>
<trkpt lat="-37.775142" lon="175.374481"><ele>47.700000</ele><time>2021-12-17T21:45:16Z</time><course>229.800003</course><speed>3.893316</speed></trkpt>
<trkpt lat="-37.775974" lon="175.376968"><ele>45.500000</ele><time>2021-12-17T21:45:46Z</time><course>105.019996</course><speed>15.110263</speed></trkpt>
<trkpt lat="-37.777240" lon="175.382186"><ele>41.799999</ele><time>2021-12-17T21:46:16Z</time><course>108.750000</course><speed>17.346553</speed></trkpt>
<trkpt lat="-37.778823" lon="175.386627"><ele>44.500000</ele><time>2021-12-17T21:46:46Z</time><course>192.130004</course><speed>9.638632</speed></trkpt>
<trkpt lat="-37.783424" lon="175.390167"><ele>46.500000</ele><time>2021-12-17T21:47:16Z</time><course>150.190002</course><speed>25.542169</speed></trkpt>
<trkpt lat="-37.789455" lon="175.392013"><ele>47.200000</ele><time>2021-12-17T21:47:46Z</time><course>174.169998</course><speed>23.215335</speed></trkpt>
<trkpt lat="-37.795219" lon="175.395538"><ele>54.700000</ele><time>2021-12-17T21:48:16Z</time><course>142.949996</course><speed>26.556137</speed></trkpt>
<trkpt lat="-37.799358" lon="175.399520"><ele>56.500000</ele><time>2021-12-17T21:48:46Z</time><course>142.520004</course><speed>2.326318</speed></trkpt>
<trkpt lat="-37.801151" lon="175.400924"><ele>58.000000</ele><time>2021-12-17T21:49:16Z</time><course>147.029998</course><speed>20.648773</speed></trkpt>
<trkpt lat="-37.804843" lon="175.405639"><ele>58.599998</ele><time>2021-12-17T21:49:46Z</time><course>110.169998</course><speed>23.063060</speed></trkpt>
<trkpt lat="-37.806934" lon="175.412628"><ele>57.799999</ele><time>2021-12-17T21:50:16Z</time><course>119.379997</course><speed>19.514421</speed></trkpt>
<trkpt lat="-37.811447" lon="175.418701"><ele>58.599998</ele><time>2021-12-17T21:50:46Z</time><course>132.710006</course><speed>25.460886</speed></trkpt>
<trkpt lat="-37.816234" lon="175.424285"><ele>59.400001</ele><time>2021-12-17T21:51:16Z</time><course>143.929992</course><speed>22.233776</speed></trkpt>
<trkpt lat="-37.817821" lon="175.428741"><ele>57.599998</ele><time>2021-12-17T21:51:46Z</time><course>142.630004</course><speed>18.947504</speed></trkpt>
<trkpt lat="-37.822647" lon="175.433486"><ele>58.500000</ele><time>2021-12-17T21:52:16Z</time><course>141.779998</course><speed>23.560527</speed></trkpt>
<trkpt lat="-37.828201" lon="175.437408"><ele>62.599998</ele><time>2021-12-17T21:52:46Z</time><course>154.050003</course><speed>24.329107</speed></trkpt>
<trkpt lat="-37.830738" lon="175.441192"><ele>61.299999</ele><time>2021-12-17T21:53:16Z</time><course>90.349998</course><speed>20.231557</speed></trkpt>
<trkpt lat="-37.830764" lon="175.449005"><ele>60.400001</ele><time>2021-12-17T21:53:46Z</time><course>90.410003</course><speed>23.563100</speed></trkpt>
<trkpt lat="-37.830776" lon="175.453643"><ele>62.700000</ele><time>2021-12-17T21:54:16Z</time><course>103.669998</course><speed>2.429721</speed></trkpt>
<trkpt lat="-37.835018" lon="175.453689"><ele>65.099998</ele><time>2021-12-17T21:54:46Z</time><course>180.440002</course><speed>22.948339</speed></trkpt>
<trkpt lat="-37.841522" lon="175.453643"><ele>65.699996</ele><time>2021-12-17T21:55:16Z</time><course>180.600006</course><speed>24.245767</speed></trkpt>
<trkpt lat="-37.847934" lon="175.453598"><ele>66.199996</ele><time>2021-12-17T21:55:46Z</time><course>180.190002</course><speed>22.654075</speed></trkpt>
<trkpt lat="-37.854133" lon="175.453582"><ele>65.699996</ele><time>2021-12-17T21:56:16Z</time><course>180.089996</course><speed>23.307420</speed></trkpt>
<trkpt lat="-37.859474" lon="175.454376"><ele>69.199996</ele><time>2021-12-17T21:56:46Z</time><course>151.059997</course><speed>19.813827</speed></trkpt>
<trkpt lat="-37.862743" lon="175.455627"><ele>68.599998</ele><time>2021-12-17T21:57:16Z</time><course>146.419998</course><speed>16.019800</speed></trkpt>
<trkpt lat="-37.867202" lon="175.457580"><ele>71.300003</ele><time>2021-12-17T21:57:46Z</time><course>163.220001</course><speed>15.606702</speed></trkpt>
<trkpt lat="-37.868339" lon="175.458023"><ele>70.199996</ele><time>2021-12-17T21:58:16Z</time><course>162.199996</course><speed>10.408756</speed></trkpt>
<trkpt lat="-37.872440" lon="175.459655"><ele>72.199996</ele><time>2021-12-17T21:58:46Z</time><course>162.380004</course><speed>17.192218</speed></trkpt>
<trkpt lat="-37.874973" lon="175.460800"><ele>71.400001</ele><time>2021-12-17T21:59:16Z</time><course>0.000000</course><speed>0.016462</speed></trkpt>
<trkpt lat="-37.877346" lon="175.461593"><ele>70.400001</ele><time>2021-12-17T21:59:46Z</time><course>165.080001</course><speed>13.939388</speed></trkpt>
<trkpt lat="-37.880992" lon="175.463073"><ele>72.400001</ele><time>2021-12-17T22:00:16Z</time><course>162.110000</course><speed>13.288101</speed></trkpt>
<trkpt lat="-37.884376" lon="175.464401"><ele>70.400001</ele><time>2021-12-17T22:00:46Z</time><course>163.839996</course><speed>13.018532</speed></trkpt>
<trkpt lat="-37.886734" lon="175.465316"><ele>72.500000</ele><time>2021-12-17T22:01:16Z</time><course>162.759994</course><speed>2.216227</speed></trkpt>
<trkpt lat="-37.887348" lon="175.465576"><ele>70.400001</ele><time>2021-12-17T22:01:46Z</time><course>157.970001</course><speed>0.533993</speed></trkpt>
<trkpt lat="-37.887840" lon="175.465774"><ele>68.599998</ele><time>2021-12-17T22:02:16Z</time><course>162.460006</course><speed>1.504750</speed></trkpt>
<trkpt lat="-37.887970" lon="175.465850"><ele>70.500000</ele><time>2021-12-17T22:02:46Z</time><course>161.279998</course><speed>1.622043</speed></trkpt>
<trkpt lat="-37.888168" lon="175.465927"><ele>70.199996</ele><time>2021-12-17T22:03:16Z</time><course>0.000000</course><speed>0.406411</speed></trkpt>
<trkpt lat="-37.888568" lon="175.466110"><ele>70.300003</ele><time>2021-12-17T22:03:46Z</time><course>162.610000</course><speed>2.894779</speed></trkpt>
<trkpt lat="-37.889236" lon="175.466552"><ele>70.300003</ele><time>2021-12-17T22:04:16Z</time><course>159.919998</course><speed>6.559167</speed></trkpt>
<trkpt lat="-37.890152" lon="175.466949"><ele>64.900001</ele><time>2021-12-17T22:04:46Z</time><course>0.000000</course><speed>0.041156</speed></trkpt>
<trkpt lat="-37.890167" lon="175.466995"><ele>73.500000</ele><time>2021-12-17T22:05:16Z</time><course>0.000000</course><speed>0.040127</speed></trkpt>
<trkpt lat="-37.890159" lon="175.467010"><ele>72.800003</ele><time>2021-12-17T22:05:46Z</time><course>0.000000</course><speed>0.129126</speed></trkpt>
<trkpt lat="-37.890235" lon="175.467010"><ele>73.199996</ele><time>2021-12-17T22:06:16Z</time><course>190.270004</course><speed>1.725447</speed></trkpt>
<trkpt lat="-37.891258" lon="175.467269"><ele>71.699996</ele><time>2021-12-17T22:06:46Z</time><course>162.889999</course><speed>4.827547</speed></trkpt>
<trkpt lat="-37.891494" lon="175.467285"><ele>73.699996</ele><time>2021-12-17T22:07:16Z</time><course>344.899993</course><speed>6.386828</speed></trkpt>
<trkpt lat="-37.889217" lon="175.466293"><ele>69.199996</ele><time>2021-12-17T22:07:46Z</time><course>326.589996</course><speed>7.277846</speed></trkpt>
<trkpt lat="-37.886116" lon="175.465057"><ele>69.099998</ele><time>2021-12-17T22:08:16Z</time><course>342.839996</course><speed>12.976862</speed></trkpt>
<trkpt lat="-37.885368" lon="175.464736"><ele>67.400001</ele><time>2021-12-17T22:08:46Z</time><course>0.000000</course><speed>0.007202</speed></trkpt>
<trkpt lat="-37.884899" lon="175.464584"><ele>64.000000</ele><time>2021-12-17T22:09:16Z</time><course>342.980011</course><speed>9.165343</speed></trkpt>
<trkpt lat="-37.881217" lon="175.463119"><ele>68.800003</ele><time>2021-12-17T22:09:46Z</time><course>342.470001</course><speed>15.617506</speed></trkpt>
<trkpt lat="-37.876525" lon="175.461242"><ele>65.900001</ele><time>2021-12-17T22:10:16Z</time><course>342.709991</course><speed>18.256090</speed></trkpt>
<trkpt lat="-37.874538" lon="175.460464"><ele>67.900001</ele><time>2021-12-17T22:10:46Z</time><course>342.989990</course><speed>14.380782</speed></trkpt>
<trkpt lat="-37.870052" lon="175.458618"><ele>65.500000</ele><time>2021-12-17T22:11:16Z</time><course>339.040008</course><speed>14.635431</speed></trkpt>
<trkpt lat="-37.869503" lon="175.458358"><ele>64.099998</ele><time>2021-12-17T22:11:46Z</time><course>0.000000</course><speed>0.005659</speed></trkpt>
<trkpt lat="-37.866603" lon="175.457290"><ele>63.500000</ele><time>2021-12-17T22:12:16Z</time><course>343.850006</course><speed>17.803895</speed></trkpt>
<trkpt lat="-37.861942" lon="175.454895"><ele>64.199996</ele><time>2021-12-17T22:12:46Z</time><course>325.660003</course><speed>18.221622</speed></trkpt>
<trkpt lat="-37.860187" lon="175.450973"><ele>63.799999</ele><time>2021-12-17T22:13:16Z</time><course>271.029998</course><speed>14.090634</speed></trkpt>
<trkpt lat="-37.860870" lon="175.449707"><ele>64.400001</ele><time>2021-12-17T22:13:46Z</time><course>176.789993</course><speed>5.386748</speed></trkpt>
</trkseg></trk></gpx>
