<?xml version="1.0"?>
<gpx creator="GPS Tracker http://www.geoffg.net/tracker.html/" version="1.0" xmlns="http://www.topografix.com/GPX/1/0" xmlns:xsi="http://www.w3.org/2001/XMLSchema-instance" xsi:schemaLocation="http://www.topografix.com/GPX/1/0 http://www.topografix.com/GPX/1/0/gpx.xsd">
<trk>
<name>Tracker log 2021-12-19 13:45 #09</name>
<trkseg>
<trkpt lat="-38.080131" lon="176.212814"><ele>313.899993</ele><time>2021-12-19T00:44:59Z</time><course>262.299987</course><speed>1.623072</speed></trkpt>
<trkpt lat="-38.081089" lon="176.212585"><ele>289.899993</ele><time>2021-12-19T00:45:29Z</time><course>185.350006</course><speed>8.596367</speed></trkpt>
<trkpt lat="-38.084129" lon="176.212265"><ele>288.899993</ele><time>2021-12-19T00:45:59Z</time><course>184.589996</course><speed>12.848766</speed></trkpt>
<trkpt lat="-38.087291" lon="176.213211"><ele>287.600006</ele><time>2021-12-19T00:46:29Z</time><course>152.729995</course><speed>11.672746</speed></trkpt>
<trkpt lat="-38.089721" lon="176.214569"><ele>289.600006</ele><time>2021-12-19T00:46:59Z</time><course>156.940002</course><speed>5.368228</speed></trkpt>
<trkpt lat="-38.093566" lon="176.216873"><ele>290.600006</ele><time>2021-12-19T00:47:29Z</time><course>154.550003</course><speed>20.310268</speed></trkpt>
<trkpt lat="-38.098743" lon="176.220092"><ele>294.000000</ele><time>2021-12-19T00:47:59Z</time><course>154.000000</course><speed>20.886444</speed></trkpt>
<trkpt lat="-38.103767" lon="176.221801"><ele>297.700012</ele><time>2021-12-19T00:48:29Z</time><course>184.970001</course><speed>16.822849</speed></trkpt>
<trkpt lat="-38.108325" lon="176.222381"><ele>286.299987</ele><time>2021-12-19T00:48:59Z</time><course>157.259994</course><speed>16.704526</speed></trkpt>
<trkpt lat="-38.109336" lon="176.222946"><ele>285.799987</ele><time>2021-12-19T00:49:29Z</time><course>0.000000</course><speed>0.069450</speed></trkpt>
<trkpt lat="-38.111087" lon="176.223892"><ele>286.100006</ele><time>2021-12-19T00:49:59Z</time><course>156.979995</course><speed>14.272748</speed></trkpt>
<trkpt lat="-38.114349" lon="176.225646"><ele>287.500000</ele><time>2021-12-19T00:50:29Z</time><course>157.110000</course><speed>15.353081</speed></trkpt>
<trkpt lat="-38.118022" lon="176.227615"><ele>289.399993</ele><time>2021-12-19T00:50:59Z</time><course>156.779998</course><speed>14.025300</speed></trkpt>
<trkpt lat="-38.120586" lon="176.229003"><ele>290.799987</ele><time>2021-12-19T00:51:29Z</time><course>157.240005</course><speed>13.329771</speed></trkpt>
<trkpt lat="-38.124057" lon="176.230865"><ele>292.500000</ele><time>2021-12-19T00:51:59Z</time><course>158.729995</course><speed>11.909904</speed></trkpt>
<trkpt lat="-38.127170" lon="176.232360"><ele>290.399993</ele><time>2021-12-19T00:52:29Z</time><course>165.619995</course><speed>13.962538</speed></trkpt>
<trkpt lat="-38.129444" lon="176.233169"><ele>286.799987</ele><time>2021-12-19T00:52:59Z</time><course>144.470001</course><speed>4.928893</speed></trkpt>
<trkpt lat="-38.132659" lon="176.234100"><ele>286.600006</ele><time>2021-12-19T00:53:29Z</time><course>165.940002</course><speed>14.205870</speed></trkpt>
<trkpt lat="-38.136547" lon="176.235275"><ele>287.299987</ele><time>2021-12-19T00:53:59Z</time><course>164.669998</course><speed>14.555177</speed></trkpt>
<trkpt lat="-38.140441" lon="176.236495"><ele>290.600006</ele><time>2021-12-19T00:54:29Z</time><course>165.839996</course><speed>13.936816</speed></trkpt>
<trkpt lat="-38.143905" lon="176.237579"><ele>292.700012</ele><time>2021-12-19T00:54:59Z</time><course>165.759994</course><speed>12.342038</speed></trkpt>
<trkpt lat="-38.144367" lon="176.237731"><ele>290.700012</ele><time>2021-12-19T00:55:29Z</time><course>0.000000</course><speed>0.119351</speed></trkpt>
<trkpt lat="-38.145118" lon="176.237960"><ele>290.399993</ele><time>2021-12-19T00:55:59Z</time><course>166.679992</course><speed>11.656798</speed></trkpt>
<trkpt lat="-38.148971" lon="176.239089"><ele>295.100006</ele><time>2021-12-19T00:56:29Z</time><course>166.809997</course><speed>16.264162</speed></trkpt>
<trkpt lat="-38.153038" lon="176.240310"><ele>302.200012</ele><time>2021-12-19T00:56:59Z</time><course>165.679992</course><speed>11.347617</speed></trkpt>
<trkpt lat="-38.156566" lon="176.241439"><ele>303.500000</ele><time>2021-12-19T00:57:29Z</time><course>165.929992</course><speed>15.811965</speed></trkpt>
<trkpt lat="-38.160270" lon="176.242065"><ele>309.799987</ele><time>2021-12-19T00:57:59Z</time><course>185.979995</course><speed>12.912043</speed></trkpt>
<trkpt lat="-38.163318" lon="176.245101"><ele>312.299987</ele><time>2021-12-19T00:58:29Z</time><course>142.690002</course><speed>13.458897</speed></trkpt>
<trkpt lat="-38.165229" lon="176.246780"><ele>313.299987</ele><time>2021-12-19T00:58:59Z</time><course>226.350006</course><speed>9.075830</speed></trkpt>
<trkpt lat="-38.168972" lon="176.245712"><ele>327.799987</ele><time>2021-12-19T00:59:29Z</time><course>171.020004</course><speed>16.440616</speed></trkpt>
<trkpt lat="-38.173877" lon="176.246246"><ele>332.600006</ele><time>2021-12-19T00:59:59Z</time><course>156.960006</course><speed>18.091981</speed></trkpt>
<trkpt lat="-38.179306" lon="176.249588"><ele>320.200012</ele><time>2021-12-19T01:00:29Z</time><course>158.020004</course><speed>25.268484</speed></trkpt>
<trkpt lat="-38.184734" lon="176.254653"><ele>318.600006</ele><time>2021-12-19T01:00:59Z</time><course>118.730003</course><speed>25.901250</speed></trkpt>
<trkpt lat="-38.190475" lon="176.259262"><ele>332.600006</ele><time>2021-12-19T01:01:29Z</time><course>165.669998</course><speed>26.728992</speed></trkpt>
<trkpt lat="-38.197383" lon="176.259231"><ele>343.399993</ele><time>2021-12-19T01:01:59Z</time><course>186.020004</course><speed>25.743829</speed></trkpt>
<trkpt lat="-38.204235" lon="176.259033"><ele>351.200012</ele><time>2021-12-19T01:02:29Z</time><course>184.110000</course><speed>25.274658</speed></trkpt>
<trkpt lat="-38.210350" lon="176.261413"><ele>363.600006</ele><time>2021-12-19T01:02:59Z</time><course>153.970001</course><speed>21.882410</speed></trkpt>
<trkpt lat="-38.214176" lon="176.266265"><ele>372.299987</ele><time>2021-12-19T01:03:29Z</time><course>102.220001</course><speed>22.624238</speed></trkpt>
<trkpt lat="-38.215656" lon="176.273574"><ele>383.799987</ele><time>2021-12-19T01:03:59Z</time><course>117.779998</course><speed>19.932149</speed></trkpt>
<trkpt lat="-38.218223" lon="176.279556"><ele>385.200012</ele><time>2021-12-19T01:04:29Z</time><course>118.089996</course><speed>20.789215</speed></trkpt>
<trkpt lat="-38.222206" lon="176.285095"><ele>393.100006</ele><time>2021-12-19T01:04:59Z</time><course>115.959999</course><speed>23.634094</speed></trkpt>
<trkpt lat="-38.225814" lon="176.290939"><ele>394.600006</ele><time>2021-12-19T01:05:29Z</time><course>138.940002</course><speed>21.014026</speed></trkpt>
<trkpt lat="-38.228897" lon="176.297058"><ele>398.600006</ele><time>2021-12-19T01:05:59Z</time><course>138.130004</course><speed>21.254789</speed></trkpt>
<trkpt lat="-38.234565" lon="176.299133"><ele>427.200012</ele><time>2021-12-19T01:06:29Z</time><course>153.309997</course><speed>23.349605</speed></trkpt>
<trkpt lat="-38.239643" lon="176.302337"><ele>450.000000</ele><time>2021-12-19T01:06:59Z</time><course>138.520004</course><speed>19.042161</speed></trkpt>
<trkpt lat="-38.242652" lon="176.307342"><ele>466.899993</ele><time>2021-12-19T01:07:29Z</time><course>123.209999</course><speed>17.791032</speed></trkpt>
<trkpt lat="-38.245777" lon="176.312713"><ele>487.100006</ele><time>2021-12-19T01:07:59Z</time><course>132.500000</course><speed>20.519132</speed></trkpt>
<trkpt lat="-38.250366" lon="176.317916"><ele>504.299987</ele><time>2021-12-19T01:08:29Z</time><course>162.479995</course><speed>24.994283</speed></trkpt>
<trkpt lat="-38.257511" lon="176.319503"><ele>483.200012</ele><time>2021-12-19T01:08:59Z</time><course>170.440002</course><speed>25.558630</speed></trkpt>
<trkpt lat="-38.263816" lon="176.321899"><ele>516.200012</ele><time>2021-12-19T01:09:29Z</time><course>138.160003</course><speed>24.691276</speed></trkpt>
<trkpt lat="-38.266826" lon="176.330139"><ele>530.000000</ele><time>2021-12-19T01:09:59Z</time><course>121.680000</course><speed>27.211027</speed></trkpt>
<trkpt lat="-38.272663" lon="176.335540"><ele>513.700012</ele><time>2021-12-19T01:10:29Z</time><course>143.570007</course><speed>26.756256</speed></trkpt>
<trkpt lat="-38.278846" lon="176.339599"><ele>513.700012</ele><time>2021-12-19T01:10:59Z</time><course>152.380004</course><speed>26.251071</speed></trkpt>
<trkpt lat="-38.282753" lon="176.346984"><ele>504.799987</ele><time>2021-12-19T01:11:29Z</time><course>147.369995</course><speed>28.598997</speed></trkpt>
<trkpt lat="-38.289302" lon="176.351669"><ele>478.200012</ele><time>2021-12-19T01:11:59Z</time><course>144.210006</course><speed>29.050680</speed></trkpt>
<trkpt lat="-38.295494" lon="176.357391"><ele>448.299987</ele><time>2021-12-19T01:12:29Z</time><course>130.479995</course><speed>27.251152</speed></trkpt>
<trkpt lat="-38.300319" lon="176.364349"><ele>443.600006</ele><time>2021-12-19T01:12:59Z</time><course>138.550003</course><speed>26.300973</speed></trkpt>
<trkpt lat="-38.305442" lon="176.370788"><ele>423.799987</ele><time>2021-12-19T01:13:29Z</time><course>146.139999</course><speed>26.783521</speed></trkpt>
<trkpt lat="-38.310459" lon="176.377349"><ele>423.399993</ele><time>2021-12-19T01:13:59Z</time><course>153.169998</course><speed>25.316843</speed></trkpt>
<trkpt lat="-38.316688" lon="176.374877"><ele>417.500000</ele><time>2021-12-19T01:14:29Z</time><course>193.309997</course><speed>25.454711</speed></trkpt>
<trkpt lat="-38.323101" lon="176.371719"><ele>407.399993</ele><time>2021-12-19T01:14:59Z</time><course>208.330001</course><speed>23.956649</speed></trkpt>
<trkpt lat="-38.329227" lon="176.369216"><ele>414.700012</ele><time>2021-12-19T01:15:29Z</time><course>194.350006</course><speed>26.224321</speed></trkpt>
<trkpt lat="-38.335521" lon="176.365890"><ele>396.899993</ele><time>2021-12-19T01:15:59Z</time><course>212.830001</course><speed>23.111930</speed></trkpt>
<trkpt lat="-38.341152" lon="176.363342"><ele>384.100006</ele><time>2021-12-19T01:16:29Z</time><course>206.059997</course><speed>21.832508</speed></trkpt>
<trkpt lat="-38.346858" lon="176.361145"><ele>370.600006</ele><time>2021-12-19T01:16:59Z</time><course>177.550003</course><speed>25.109004</speed></trkpt>
<trkpt lat="-38.353694" lon="176.360839"><ele>332.799987</ele><time>2021-12-19T01:17:29Z</time><course>216.889999</course><speed>26.008255</speed></trkpt>
<trkpt lat="-38.359497" lon="176.357742"><ele>330.500000</ele><time>2021-12-19T01:17:59Z</time><course>184.070007</course><speed>25.366228</speed></trkpt>
<trkpt lat="-38.365123" lon="176.353836"><ele>318.100006</ele><time>2021-12-19T01:18:29Z</time><course>231.009994</course><speed>25.885816</speed></trkpt>
<trkpt lat="-38.371356" lon="176.349044"><ele>314.299987</ele><time>2021-12-19T01:18:59Z</time><course>210.240005</course><speed>26.762943</speed></trkpt>
<trkpt lat="-38.377296" lon="176.344543"><ele>311.399993</ele><time>2021-12-19T01:19:29Z</time><course>198.309997</course><speed>26.291198</speed></trkpt>
<trkpt lat="-38.383903" lon="176.342163"><ele>314.500000</ele><time>2021-12-19T01:19:59Z</time><course>181.240005</course><speed>25.044698</speed></trkpt>
<trkpt lat="-38.390239" lon="176.339752"><ele>325.700012</ele><time>2021-12-19T01:20:29Z</time><course>208.029998</course><speed>26.655939</speed></trkpt>
<trkpt lat="-38.396614" lon="176.335083"><ele>312.500000</ele><time>2021-12-19T01:20:59Z</time><course>213.220001</course><speed>27.434808</speed></trkpt>
<trkpt lat="-38.402027" lon="176.330047"><ele>306.299987</ele><time>2021-12-19T01:21:29Z</time><course>217.220001</course><speed>20.449682</speed></trkpt>
<trkpt lat="-38.404819" lon="176.327407"><ele>306.500000</ele><time>2021-12-19T01:21:59Z</time><course>216.389999</course><speed>3.590308</speed></trkpt>
<trkpt lat="-38.404907" lon="176.327346"><ele>307.399993</ele><time>2021-12-19T01:22:29Z</time><course>0.000000</course><speed>0.049387</speed></trkpt>
<trkpt lat="-38.404918" lon="176.327346"><ele>309.100006</ele><time>2021-12-19T01:22:59Z</time><course>0.000000</course><speed>0.038069</speed></trkpt>
<trkpt lat="-38.404933" lon="176.327346"><ele>308.299987</ele><time>2021-12-19T01:23:29Z</time><course>0.000000</course><speed>0.072022</speed></trkpt>
<trkpt lat="-38.404922" lon="176.327346"><ele>308.500000</ele><time>2021-12-19T01:23:59Z</time><course>0.000000</course><speed>0.124496</speed></trkpt>
<trkpt lat="-38.404911" lon="176.327346"><ele>308.700012</ele><time>2021-12-19T01:24:29Z</time><course>0.000000</course><speed>0.019549</speed></trkpt>
<trkpt lat="-38.404911" lon="176.327331"><ele>304.899993</ele><time>2021-12-19T01:24:59Z</time><course>0.000000</course><speed>0.009260</speed></trkpt>
<trkpt lat="-38.404918" lon="176.327331"><ele>302.600006</ele><time>2021-12-19T01:25:29Z</time><course>0.000000</course><speed>0.032924</speed></trkpt>
<trkpt lat="-38.405967" lon="176.326370"><ele>303.700012</ele><time>2021-12-19T01:25:59Z</time><course>214.050003</course><speed>4.212271</speed></trkpt>
<trkpt lat="-38.407218" lon="176.325256"><ele>303.700012</ele><time>2021-12-19T01:26:29Z</time><course>214.820007</course><speed>7.880775</speed></trkpt>
<trkpt lat="-38.409118" lon="176.323593"><ele>303.399993</ele><time>2021-12-19T01:26:59Z</time><course>214.710006</course><speed>8.830440</speed></trkpt>
<trkpt lat="-38.410999" lon="176.321960"><ele>303.500000</ele><time>2021-12-19T01:27:29Z</time><course>214.240005</course><speed>8.040767</speed></trkpt>
<trkpt lat="-38.413291" lon="176.320037"><ele>305.899993</ele><time>2021-12-19T01:27:59Z</time><course>208.410003</course><speed>18.003498</speed></trkpt>
<trkpt lat="-38.419521" lon="176.318710"><ele>307.399993</ele><time>2021-12-19T01:28:29Z</time><course>196.490005</course><speed>25.067337</speed></trkpt>
<trkpt lat="-38.425571" lon="176.316970"><ele>311.500000</ele><time>2021-12-19T01:28:59Z</time><course>177.880004</course><speed>24.600734</speed></trkpt>
<trkpt lat="-38.432258" lon="176.317245"><ele>305.399993</ele><time>2021-12-19T01:29:29Z</time><course>183.300003</course><speed>23.561042</speed></trkpt>
<trkpt lat="-38.438797" lon="176.315414"><ele>306.799987</ele><time>2021-12-19T01:29:59Z</time><course>196.039993</course><speed>26.090564</speed></trkpt>
<trkpt lat="-38.445732" lon="176.314178"><ele>308.000000</ele><time>2021-12-19T01:30:29Z</time><course>161.679992</course><speed>27.038171</speed></trkpt>
<trkpt lat="-38.452510" lon="176.317291"><ele>302.700012</ele><time>2021-12-19T01:30:59Z</time><course>182.679992</course><speed>28.039796</speed></trkpt>
<trkpt lat="-38.459938" lon="176.316085"><ele>298.000000</ele><time>2021-12-19T01:31:29Z</time><course>199.220001</course><speed>28.042882</speed></trkpt>
<trkpt lat="-38.466369" lon="176.311721"><ele>287.100006</ele><time>2021-12-19T01:31:59Z</time><course>226.210006</course><speed>24.598678</speed></trkpt>
<trkpt lat="-38.470775" lon="176.305999"><ele>293.500000</ele><time>2021-12-19T01:32:29Z</time><course>212.639999</course><speed>23.355779</speed></trkpt>
<trkpt lat="-38.476856" lon="176.302566"><ele>292.299987</ele><time>2021-12-19T01:32:59Z</time><course>222.949996</course><speed>25.880672</speed></trkpt>
<trkpt lat="-38.481449" lon="176.296035"><ele>303.899993</ele><time>2021-12-19T01:33:29Z</time><course>246.820007</course><speed>26.334928</speed></trkpt>
<trkpt lat="-38.486099" lon="176.290634"><ele>294.399993</ele><time>2021-12-19T01:33:59Z</time><course>191.720001</course><speed>25.285974</speed></trkpt>
<trkpt lat="-38.492637" lon="176.293411"><ele>294.000000</ele><time>2021-12-19T01:34:29Z</time><course>155.679992</course><speed>26.245929</speed></trkpt>
<trkpt lat="-38.497837" lon="176.296371"><ele>316.500000</ele><time>2021-12-19T01:34:59Z</time><course>156.919998</course><speed>17.881061</speed></trkpt>
<trkpt lat="-38.503116" lon="176.296493"><ele>323.700012</ele><time>2021-12-19T01:35:29Z</time><course>187.139999</course><speed>23.775051</speed></trkpt>
<trkpt lat="-38.509433" lon="176.293502"><ele>339.700012</ele><time>2021-12-19T01:35:59Z</time><course>209.960006</course><speed>25.225271</speed></trkpt>
<trkpt lat="-38.514030" lon="176.286560"><ele>350.500000</ele><time>2021-12-19T01:36:29Z</time><course>229.910003</course><speed>23.469470</speed></trkpt>
<trkpt lat="-38.517997" lon="176.282257"><ele>352.000000</ele><time>2021-12-19T01:36:59Z</time><course>219.000000</course><speed>17.337293</speed></trkpt>
<trkpt lat="-38.522480" lon="176.277694"><ele>352.000000</ele><time>2021-12-19T01:37:29Z</time><course>218.710006</course><speed>25.529306</speed></trkpt>
<trkpt lat="-38.527835" lon="176.271499"><ele>352.100006</ele><time>2021-12-19T01:37:59Z</time><course>219.080001</course><speed>28.105131</speed></trkpt>
<trkpt lat="-38.533557" lon="176.265579"><ele>364.100006</ele><time>2021-12-19T01:38:29Z</time><course>218.970001</course><speed>26.467140</speed></trkpt>
<trkpt lat="-38.539272" lon="176.259628"><ele>364.600006</ele><time>2021-12-19T01:38:59Z</time><course>219.220001</course><speed>27.853567</speed></trkpt>
<trkpt lat="-38.545440" lon="176.254211"><ele>367.100006</ele><time>2021-12-19T01:39:29Z</time><course>204.559997</course><speed>30.075452</speed></trkpt>
<trkpt lat="-38.552249" lon="176.250213"><ele>365.200012</ele><time>2021-12-19T01:39:59Z</time><course>204.910003</course><speed>25.827169</speed></trkpt>
<trkpt lat="-38.558479" lon="176.246536"><ele>365.200012</ele><time>2021-12-19T01:40:29Z</time><course>206.419998</course><speed>24.889337</speed></trkpt>
<trkpt lat="-38.561576" lon="176.238952"><ele>335.500000</ele><time>2021-12-19T01:40:59Z</time><course>238.960006</course><speed>27.161640</speed></trkpt>
<trkpt lat="-38.564765" lon="176.230911"><ele>344.500000</ele><time>2021-12-19T01:41:29Z</time><course>249.529998</course><speed>25.648656</speed></trkpt>
<trkpt lat="-38.569042" lon="176.224044"><ele>331.200012</ele><time>2021-12-19T01:41:59Z</time><course>230.580001</course><speed>26.043750</speed></trkpt>
<trkpt lat="-38.572742" lon="176.216598"><ele>337.600006</ele><time>2021-12-19T01:42:29Z</time><course>257.549987</course><speed>25.386804</speed></trkpt>
<trkpt lat="-38.573043" lon="176.207794"><ele>344.000000</ele><time>2021-12-19T01:42:59Z</time><course>268.410003</course><speed>25.697015</speed></trkpt>
<trkpt lat="-38.573844" lon="176.199020"><ele>353.000000</ele><time>2021-12-19T01:43:29Z</time><course>288.250000</course><speed>26.360649</speed></trkpt>
<trkpt lat="-38.574100" lon="176.190124"><ele>368.200012</ele><time>2021-12-19T01:43:59Z</time><course>268.179992</course><speed>26.729505</speed></trkpt>
<trkpt lat="-38.575851" lon="176.181503"><ele>395.700012</ele><time>2021-12-19T01:44:29Z</time><course>255.940002</course><speed>26.859146</speed></trkpt>
<trkpt lat="-38.576938" lon="176.172470"><ele>410.600006</ele><time>2021-12-19T01:44:59Z</time><course>243.089996</course><speed>26.996503</speed></trkpt>
<trkpt lat="-38.582000" lon="176.165786"><ele>424.200012</ele><time>2021-12-19T01:45:29Z</time><course>224.149993</course><speed>27.442525</speed></trkpt>
<trkpt lat="-38.587005" lon="176.159301"><ele>437.100006</ele><time>2021-12-19T01:45:59Z</time><course>228.419998</course><speed>25.055501</speed></trkpt>
<trkpt lat="-38.591896" lon="176.153732"><ele>454.399993</ele><time>2021-12-19T01:46:29Z</time><course>236.639999</course><speed>23.942245</speed></trkpt>
<trkpt lat="-38.593647" lon="176.146102"><ele>456.600006</ele><time>2021-12-19T01:46:59Z</time><course>235.759994</course><speed>23.771450</speed></trkpt>
<trkpt lat="-38.595489" lon="176.139007"><ele>428.600006</ele><time>2021-12-19T01:47:29Z</time><course>241.740005</course><speed>22.918500</speed></trkpt>
<trkpt lat="-38.596141" lon="176.131408"><ele>440.500000</ele><time>2021-12-19T01:47:59Z</time><course>262.899993</course><speed>23.379957</speed></trkpt>
<trkpt lat="-38.598030" lon="176.124176"><ele>454.500000</ele><time>2021-12-19T01:48:29Z</time><course>223.660003</course><speed>23.384075</speed></trkpt>
<trkpt lat="-38.603790" lon="176.120117"><ele>401.200012</ele><time>2021-12-19T01:48:59Z</time><course>186.750000</course><speed>26.289142</speed></trkpt>
<trkpt lat="-38.610607" lon="176.120712"><ele>385.799987</ele><time>2021-12-19T01:49:29Z</time><course>199.820007</course><speed>25.103347</speed></trkpt>
<trkpt lat="-38.614975" lon="176.114196"><ele>378.700012</ele><time>2021-12-19T01:49:59Z</time><course>237.589996</course><speed>25.136785</speed></trkpt>
<trkpt lat="-38.619895" lon="176.107543"><ele>381.899993</ele><time>2021-12-19T01:50:29Z</time><course>227.190002</course><speed>26.022659</speed></trkpt>
<trkpt lat="-38.623027" lon="176.101013"><ele>372.700012</ele><time>2021-12-19T01:50:59Z</time><course>248.789993</course><speed>17.387193</speed></trkpt>
<trkpt lat="-38.626506" lon="176.099121"><ele>363.700012</ele><time>2021-12-19T01:51:29Z</time><course>191.380004</course><speed>20.307180</speed></trkpt>
<trkpt lat="-38.632869" lon="176.097778"><ele>342.899993</ele><time>2021-12-19T01:51:59Z</time><course>187.429992</course><speed>26.281425</speed></trkpt>
<trkpt lat="-38.639545" lon="176.098236"><ele>371.700012</ele><time>2021-12-19T01:52:29Z</time><course>153.880004</course><speed>25.801446</speed></trkpt>
<trkpt lat="-38.646568" lon="176.099899"><ele>399.299987</ele><time>2021-12-19T01:52:59Z</time><course>176.550003</course><speed>27.309284</speed></trkpt>
<trkpt lat="-38.654060" lon="176.100448"><ele>405.000000</ele><time>2021-12-19T01:53:29Z</time><course>176.860000</course><speed>27.327289</speed></trkpt>
<trkpt lat="-38.661449" lon="176.100891"><ele>412.100006</ele><time>2021-12-19T01:53:59Z</time><course>177.550003</course><speed>27.188905</speed></trkpt>
<trkpt lat="-38.667987" lon="176.103515"><ele>421.000000</ele><time>2021-12-19T01:54:29Z</time><course>135.770004</course><speed>24.684589</speed></trkpt>
<trkpt lat="-38.670505" lon="176.110900"><ele>426.100006</ele><time>2021-12-19T01:54:59Z</time><course>110.199996</course><speed>24.958787</speed></trkpt>
<trkpt lat="-38.675331" lon="176.116561"><ele>436.700012</ele><time>2021-12-19T01:55:29Z</time><course>163.970001</course><speed>25.262823</speed></trkpt>
<trkpt lat="-38.681716" lon="176.115280"><ele>452.799987</ele><time>2021-12-19T01:55:59Z</time><course>200.259994</course><speed>23.866622</speed></trkpt>
<trkpt lat="-38.688079" lon="176.113861"><ele>460.299987</ele><time>2021-12-19T01:56:29Z</time><course>180.919998</course><speed>24.945413</speed></trkpt>
<trkpt lat="-38.694908" lon="176.113571"><ele>464.799987</ele><time>2021-12-19T01:56:59Z</time><course>189.289993</course><speed>25.627050</speed></trkpt>
<trkpt lat="-38.701622" lon="176.111816"><ele>454.600006</ele><time>2021-12-19T01:57:29Z</time><course>179.750000</course><speed>24.309043</speed></trkpt>
<trkpt lat="-38.704486" lon="176.113952"><ele>463.000000</ele><time>2021-12-19T01:57:59Z</time><course>95.940002</course><speed>17.480823</speed></trkpt>
<trkpt lat="-38.707256" lon="176.121475"><ele>487.200012</ele><time>2021-12-19T01:58:29Z</time><course>122.849998</course><speed>27.128200</speed></trkpt>
<trkpt lat="-38.710731" lon="176.129714"><ele>518.599975</ele><time>2021-12-19T01:58:59Z</time><course>105.300003</course><speed>28.176124</speed></trkpt>
<trkpt lat="-38.712055" lon="176.139236"><ele>542.200012</ele><time>2021-12-19T01:59:29Z</time><course>99.639999</course><speed>27.330377</speed></trkpt>
<trkpt lat="-38.713310" lon="176.148605"><ele>558.700012</ele><time>2021-12-19T01:59:59Z</time><course>99.550003</course><speed>27.771257</speed></trkpt>
<trkpt lat="-38.714736" lon="176.158294"><ele>574.200012</ele><time>2021-12-19T02:00:29Z</time><course>107.370002</course><speed>28.476045</speed></trkpt>
<trkpt lat="-38.719207" lon="176.166305"><ele>576.700012</ele><time>2021-12-19T02:00:59Z</time><course>136.169998</course><speed>27.873115</speed></trkpt>
<trkpt lat="-38.724605" lon="176.172927"><ele>594.700012</ele><time>2021-12-19T02:01:29Z</time><course>136.169998</course><speed>27.494483</speed></trkpt>
<trkpt lat="-38.730117" lon="176.179672"><ele>601.799987</ele><time>2021-12-19T02:01:59Z</time><course>136.220001</course><speed>28.623689</speed></trkpt>
<trkpt lat="-38.735443" lon="176.186172"><ele>611.400024</ele><time>2021-12-19T02:02:29Z</time><course>135.970001</course><speed>27.022224</speed></trkpt>
<trkpt lat="-38.740680" lon="176.192596"><ele>624.599975</ele><time>2021-12-19T02:02:59Z</time><course>135.869995</course><speed>26.889497</speed></trkpt>
<trkpt lat="-38.746456" lon="176.198806"><ele>645.400024</ele><time>2021-12-19T02:03:29Z</time><course>144.460006</course><speed>28.110273</speed></trkpt>
<trkpt lat="-38.752540" lon="176.204406"><ele>654.900024</ele><time>2021-12-19T02:03:59Z</time><course>144.199996</course><speed>28.501766</speed></trkpt>
<trkpt lat="-38.758430" lon="176.209884"><ele>676.299987</ele><time>2021-12-19T02:04:29Z</time><course>144.059997</course><speed>27.134887</speed></trkpt>
<trkpt lat="-38.763904" lon="176.214981"><ele>707.000000</ele><time>2021-12-19T02:04:59Z</time><course>144.169998</course><speed>22.449842</speed></trkpt>
<trkpt lat="-38.769310" lon="176.219985"><ele>722.700012</ele><time>2021-12-19T02:05:29Z</time><course>143.860000</course><speed>25.080196</speed></trkpt>
<trkpt lat="-38.774593" lon="176.225372"><ele>725.400024</ele><time>2021-12-19T02:05:59Z</time><course>133.419998</course><speed>25.598241</speed></trkpt>
<trkpt lat="-38.778930" lon="176.231460"><ele>731.200012</ele><time>2021-12-19T02:06:29Z</time><course>131.899993</course><speed>23.402593</speed></trkpt>
<trkpt lat="-38.784019" lon="176.236236"><ele>742.900024</ele><time>2021-12-19T02:06:59Z</time><course>157.449996</course><speed>25.452655</speed></trkpt>
<trkpt lat="-38.790332" lon="176.239578"><ele>743.599975</ele><time>2021-12-19T02:07:29Z</time><course>157.630004</course><speed>25.051900</speed></trkpt>
<trkpt lat="-38.796306" lon="176.243164"><ele>751.599975</ele><time>2021-12-19T02:07:59Z</time><course>140.979995</course><speed>24.650121</speed></trkpt>
<trkpt lat="-38.801261" lon="176.248413"><ele>751.000000</ele><time>2021-12-19T02:08:29Z</time><course>140.589996</course><speed>24.965475</speed></trkpt>
<trkpt lat="-38.806667" lon="176.253982"><ele>751.400024</ele><time>2021-12-19T02:08:59Z</time><course>148.050003</course><speed>27.956455</speed></trkpt>
<trkpt lat="-38.813156" lon="176.259048"><ele>750.099975</ele><time>2021-12-19T02:09:29Z</time><course>148.779998</course><speed>27.608177</speed></trkpt>
<trkpt lat="-38.819549" lon="176.264022"><ele>754.200012</ele><time>2021-12-19T02:09:59Z</time><course>148.669998</course><speed>27.409601</speed></trkpt>
<trkpt lat="-38.825683" lon="176.268798"><ele>752.200012</ele><time>2021-12-19T02:10:29Z</time><course>148.509994</course><speed>26.732593</speed></trkpt>
<trkpt lat="-38.831935" lon="176.273681"><ele>755.000000</ele><time>2021-12-19T02:10:59Z</time><course>148.539993</course><speed>27.517120</speed></trkpt>
<trkpt lat="-38.838039" lon="176.278564"><ele>753.000000</ele><time>2021-12-19T02:11:29Z</time><course>143.279998</course><speed>26.258274</speed></trkpt>
<trkpt lat="-38.842468" lon="176.284667"><ele>746.799987</ele><time>2021-12-19T02:11:59Z</time><course>129.039993</course><speed>21.411178</speed></trkpt>
<trkpt lat="-38.845550" lon="176.289474"><ele>749.599975</ele><time>2021-12-19T02:12:29Z</time><course>129.509994</course><speed>15.909195</speed></trkpt>
<trkpt lat="-38.847522" lon="176.292526"><ele>756.700012</ele><time>2021-12-19T02:12:59Z</time><course>129.550003</course><speed>6.456278</speed></trkpt>
<trkpt lat="-38.849071" lon="176.294937"><ele>752.900024</ele><time>2021-12-19T02:13:29Z</time><course>129.789993</course><speed>10.174169</speed></trkpt>
<trkpt lat="-38.850875" lon="176.297729"><ele>748.099975</ele><time>2021-12-19T02:13:59Z</time><course>130.020004</course><speed>14.841724</speed></trkpt>
<trkpt lat="-38.854518" lon="176.303360"><ele>739.599975</ele><time>2021-12-19T02:14:29Z</time><course>129.339996</course><speed>25.552455</speed></trkpt>
<trkpt lat="-38.857811" lon="176.310852"><ele>737.000000</ele><time>2021-12-19T02:14:59Z</time><course>105.019996</course><speed>24.742206</speed></trkpt>
<trkpt lat="-38.859680" lon="176.319381"><ele>731.000000</ele><time>2021-12-19T02:15:29Z</time><course>105.550003</course><speed>26.824163</speed></trkpt>
<trkpt lat="-38.861656" lon="176.328384"><ele>721.700012</ele><time>2021-12-19T02:15:59Z</time><course>105.760002</course><speed>27.095788</speed></trkpt>
<trkpt lat="-38.864501" lon="176.336288"><ele>716.299987</ele><time>2021-12-19T02:16:29Z</time><course>119.569999</course><speed>23.837297</speed></trkpt>
<trkpt lat="-38.867702" lon="176.343490"><ele>710.299987</ele><time>2021-12-19T02:16:59Z</time><course>119.599998</course><speed>23.683994</speed></trkpt>
<trkpt lat="-38.870983" lon="176.350860"><ele>709.200012</ele><time>2021-12-19T02:17:29Z</time><course>119.339996</course><speed>25.303466</speed></trkpt>
<trkpt lat="-38.874244" lon="176.358200"><ele>707.400024</ele><time>2021-12-19T02:17:59Z</time><course>119.750000</course><speed>24.310073</speed></trkpt>
<trkpt lat="-38.877426" lon="176.365356"><ele>705.299987</ele><time>2021-12-19T02:18:29Z</time><course>119.540000</course><speed>23.455581</speed></trkpt>
<trkpt lat="-38.878448" lon="176.369613"><ele>705.099975</ele><time>2021-12-19T02:18:59Z</time><course>72.370002</course><speed>3.237399</speed></trkpt>
</trkseg></trk></gpx>
