<?xml version="1.0"?>
<gpx creator="GPS Tracker http://www.geoffg.net/tracker.html/" version="1.0" xmlns="http://www.topografix.com/GPX/1/0" xmlns:xsi="http://www.w3.org/2001/XMLSchema-instance" xsi:schemaLocation="http://www.topografix.com/GPX/1/0 http://www.topografix.com/GPX/1/0/gpx.xsd">
<trk>
<name>Tracker log 2021-12-19 08:23 #02</name>
<trkseg>
<trkpt lat="-37.695556" lon="176.072158"><ele>39.200000</ele><time>2021-12-18T19:22:39Z</time><course>351.709991</course><speed>0.917769</speed></trkpt>
<trkpt lat="-37.695449" lon="176.072280"><ele>26.100000</ele><time>2021-12-18T19:23:10Z</time><course>62.979999</course><speed>1.726990</speed></trkpt>
<trkpt lat="-37.694950" lon="176.072982"><ele>26.899999</ele><time>2021-12-18T19:23:40Z</time><course>168.679992</course><speed>5.000401</speed></trkpt>
<trkpt lat="-37.695667" lon="176.075271"><ele>33.599998</ele><time>2021-12-18T19:24:10Z</time><course>111.839996</course><speed>14.140021</speed></trkpt>
<trkpt lat="-37.699787" lon="176.078277"><ele>29.799999</ele><time>2021-12-18T19:24:40Z</time><course>139.610000</course><speed>18.089410</speed></trkpt>
<trkpt lat="-37.702152" lon="176.084152"><ele>39.299999</ele><time>2021-12-18T19:25:10Z</time><course>104.910003</course><speed>19.892538</speed></trkpt>
<trkpt lat="-37.700187" lon="176.090957"><ele>9.500000</ele><time>2021-12-18T19:25:40Z</time><course>71.069999</course><speed>23.317195</speed></trkpt>
<trkpt lat="-37.697414" lon="176.097305"><ele>15.700000</ele><time>2021-12-18T19:26:10Z</time><course>56.810001</course><speed>21.420953</speed></trkpt>
<trkpt lat="-37.695209" lon="176.102279"><ele>36.900001</ele><time>2021-12-18T19:26:40Z</time><course>82.110000</course><speed>13.331315</speed></trkpt>
<trkpt lat="-37.695682" lon="176.106399"><ele>36.400001</ele><time>2021-12-18T19:27:10Z</time><course>67.110000</course><speed>6.362134</speed></trkpt>
<trkpt lat="-37.696327" lon="176.106948"><ele>37.299999</ele><time>2021-12-18T19:27:40Z</time><course>61.169998</course><speed>1.554137</speed></trkpt>
<trkpt lat="-37.696189" lon="176.107040"><ele>35.400001</ele><time>2021-12-18T19:28:10Z</time><course>0.000000</course><speed>1.178078</speed></trkpt>
<trkpt lat="-37.696170" lon="176.107238"><ele>34.900001</ele><time>2021-12-18T19:28:40Z</time><course>0.000000</course><speed>0.024693</speed></trkpt>
<trkpt lat="-37.696155" lon="176.107238"><ele>37.299999</ele><time>2021-12-18T19:29:10Z</time><course>0.000000</course><speed>0.025208</speed></trkpt>
<trkpt lat="-37.696151" lon="176.107223"><ele>35.200000</ele><time>2021-12-18T19:29:40Z</time><course>0.000000</course><speed>0.040127</speed></trkpt>
<trkpt lat="-37.696224" lon="176.107101"><ele>37.599998</ele><time>2021-12-18T19:30:10Z</time><course>0.000000</course><speed>0.026751</speed></trkpt>
<trkpt lat="-37.696231" lon="176.107101"><ele>36.599998</ele><time>2021-12-18T19:30:40Z</time><course>0.000000</course><speed>0.012347</speed></trkpt>
<trkpt lat="-37.696224" lon="176.107101"><ele>35.700000</ele><time>2021-12-18T19:31:10Z</time><course>0.000000</course><speed>0.026751</speed></trkpt>
</trkseg></trk></gpx>
