<?xml version="1.0"?>
<gpx creator="GPS Tracker http://www.geoffg.net/tracker.html/" version="1.0" xmlns="http://www.topografix.com/GPX/1/0" xmlns:xsi="http://www.w3.org/2001/XMLSchema-instance" xsi:schemaLocation="http://www.topografix.com/GPX/1/0 http://www.topografix.com/GPX/1/0/gpx.xsd">
<trk>
<name>Tracker log 2021-12-21 09:40 #01</name>
<trkseg>
<trkpt lat="-39.618690" lon="176.960235"><ele>-34.400001</ele><time>2021-12-20T20:38:58Z</time><course>0.000000</course><speed>0.128097</speed></trkpt>
<trkpt lat="-39.618896" lon="176.959762"><ele>0.600000</ele><time>2021-12-20T20:39:28Z</time><course>271.760009</course><speed>3.623747</speed></trkpt>
<trkpt lat="-39.617309" lon="176.958511"><ele>0.400000</ele><time>2021-12-20T20:39:58Z</time><course>330.390014</course><speed>10.043500</speed></trkpt>
<trkpt lat="-39.615398" lon="176.957031"><ele>1.300000</ele><time>2021-12-20T20:40:28Z</time><course>325.480011</course><speed>9.108240</speed></trkpt>
<trkpt lat="-39.616237" lon="176.954376"><ele>0.000000</ele><time>2021-12-20T20:40:58Z</time><course>240.470001</course><speed>13.264437</speed></trkpt>
<trkpt lat="-39.618568" lon="176.949249"><ele>-0.700000</ele><time>2021-12-20T20:41:28Z</time><course>239.039993</course><speed>17.067209</speed></trkpt>
<trkpt lat="-39.616870" lon="176.945922"><ele>-0.300000</ele><time>2021-12-20T20:41:58Z</time><course>329.649993</course><speed>17.890321</speed></trkpt>
<trkpt lat="-39.612155" lon="176.942398"><ele>0.600000</ele><time>2021-12-20T20:42:28Z</time><course>329.720001</course><speed>20.857122</speed></trkpt>
<trkpt lat="-39.608989" lon="176.938995"><ele>-0.900000</ele><time>2021-12-20T20:42:58Z</time><course>252.809997</course><speed>13.884857</speed></trkpt>
<trkpt lat="-39.607444" lon="176.934951"><ele>-1.000000</ele><time>2021-12-20T20:43:28Z</time><course>320.799987</course><speed>18.112560</speed></trkpt>
<trkpt lat="-39.605590" lon="176.929031"><ele>7.400000</ele><time>2021-12-20T20:43:58Z</time><course>285.500000</course><speed>21.147268</speed></trkpt>
<trkpt lat="-39.602058" lon="176.924301"><ele>-1.600000</ele><time>2021-12-20T20:44:28Z</time><course>325.250000</course><speed>10.507014</speed></trkpt>
<trkpt lat="-39.604522" lon="176.921173"><ele>-0.500000</ele><time>2021-12-20T20:44:58Z</time><course>217.139999</course><speed>19.301443</speed></trkpt>
<trkpt lat="-39.609123" lon="176.916549"><ele>-0.500000</ele><time>2021-12-20T20:45:28Z</time><course>217.619995</course><speed>22.916957</speed></trkpt>
<trkpt lat="-39.614032" lon="176.911636"><ele>1.500000</ele><time>2021-12-20T20:45:58Z</time><course>217.800003</course><speed>23.609914</speed></trkpt>
<trkpt lat="-39.619106" lon="176.906539"><ele>3.300000</ele><time>2021-12-20T20:46:28Z</time><course>217.259994</course><speed>23.888229</speed></trkpt>
<trkpt lat="-39.621021" lon="176.903427"><ele>-0.100000</ele><time>2021-12-20T20:46:58Z</time><course>338.040008</course><speed>8.876225</speed></trkpt>
<trkpt lat="-39.617637" lon="176.898910"><ele>-0.200000</ele><time>2021-12-20T20:47:28Z</time><course>273.089996</course><speed>20.260879</speed></trkpt>
<trkpt lat="-39.619461" lon="176.893875"><ele>2.200000</ele><time>2021-12-20T20:47:58Z</time><course>227.679992</course><speed>0.853463</speed></trkpt>
<trkpt lat="-39.618625" lon="176.890808"><ele>4.300000</ele><time>2021-12-20T20:48:28Z</time><course>294.130004</course><speed>21.615411</speed></trkpt>
<trkpt lat="-39.613967" lon="176.888153"><ele>2.000000</ele><time>2021-12-20T20:48:58Z</time><course>357.989990</course><speed>22.713752</speed></trkpt>
<trkpt lat="-39.611213" lon="176.881607"><ele>1.400000</ele><time>2021-12-20T20:49:28Z</time><course>292.299987</course><speed>21.572198</speed></trkpt>
<trkpt lat="-39.607860" lon="176.877471"><ele>-0.800000</ele><time>2021-12-20T20:49:58Z</time><course>318.149993</course><speed>12.451615</speed></trkpt>
<trkpt lat="-39.605941" lon="176.874771"><ele>3.400000</ele><time>2021-12-20T20:50:28Z</time><course>311.010009</course><speed>17.749362</speed></trkpt>
<trkpt lat="-39.603317" lon="176.871551"><ele>6.100000</ele><time>2021-12-20T20:50:58Z</time><course>319.670013</course><speed>6.963521</speed></trkpt>
<trkpt lat="-39.605419" lon="176.868087"><ele>2.500000</ele><time>2021-12-20T20:51:28Z</time><course>225.410003</course><speed>20.060762</speed></trkpt>
<trkpt lat="-39.609195" lon="176.863220"><ele>1.100000</ele><time>2021-12-20T20:51:58Z</time><course>224.410003</course><speed>18.731437</speed></trkpt>
<trkpt lat="-39.612659" lon="176.857955"><ele>3.700000</ele><time>2021-12-20T20:52:28Z</time><course>230.339996</course><speed>20.372516</speed></trkpt>
<trkpt lat="-39.615982" lon="176.852752"><ele>1.500000</ele><time>2021-12-20T20:52:58Z</time><course>230.960006</course><speed>17.715410</speed></trkpt>
<trkpt lat="-39.617668" lon="176.850189"><ele>2.300000</ele><time>2021-12-20T20:53:28Z</time><course>217.679992</course><speed>1.439930</speed></trkpt>
<trkpt lat="-39.617958" lon="176.849899"><ele>7.800000</ele><time>2021-12-20T20:53:58Z</time><course>199.139999</course><speed>1.721846</speed></trkpt>
<trkpt lat="-39.619545" lon="176.847259"><ele>11.000000</ele><time>2021-12-20T20:54:28Z</time><course>228.029998</course><speed>14.790793</speed></trkpt>
<trkpt lat="-39.620208" lon="176.845504"><ele>6.100000</ele><time>2021-12-20T20:54:58Z</time><course>300.450012</course><speed>2.638586</speed></trkpt>
</trkseg></trk></gpx>
