<?xml version="1.0"?>
<gpx creator="GPS Tracker http://www.geoffg.net/tracker.html/" version="1.0" xmlns="http://www.topografix.com/GPX/1/0" xmlns:xsi="http://www.w3.org/2001/XMLSchema-instance" xsi:schemaLocation="http://www.topografix.com/GPX/1/0 http://www.topografix.com/GPX/1/0/gpx.xsd">
<trk>
<name>Tracker log 2021-12-21 15:00 #09</name>
<trkseg>
<trkpt lat="-40.301277" lon="176.666076"><ele>-10.900000</ele><time>2021-12-21T01:58:49Z</time><course>0.000000</course><speed>0.050930</speed></trkpt>
<trkpt lat="-40.301490" lon="176.666000"><ele>-0.600000</ele><time>2021-12-21T01:59:19Z</time><course>185.639999</course><speed>2.416346</speed></trkpt>
<trkpt lat="-40.301116" lon="176.665802"><ele>-2.700000</ele><time>2021-12-21T01:59:49Z</time><course>0.940000</course><speed>2.839733</speed></trkpt>
<trkpt lat="-40.301021" lon="176.665588"><ele>-14.300001</ele><time>2021-12-21T02:00:19Z</time><course>187.360000</course><speed>5.845119</speed></trkpt>
<trkpt lat="-40.302719" lon="176.664047"><ele>-1.200000</ele><time>2021-12-21T02:00:49Z</time><course>233.850006</course><speed>7.630755</speed></trkpt>
<trkpt lat="-40.302791" lon="176.662368"><ele>-0.400000</ele><time>2021-12-21T02:01:19Z</time><course>318.690002</course><speed>8.548009</speed></trkpt>
<trkpt lat="-40.300582" lon="176.659545"><ele>-3.200000</ele><time>2021-12-21T02:01:49Z</time><course>295.950012</course><speed>13.240258</speed></trkpt>
<trkpt lat="-40.299575" lon="176.654785"><ele>-1.900000</ele><time>2021-12-21T02:02:19Z</time><course>264.040008</course><speed>14.863330</speed></trkpt>
<trkpt lat="-40.298477" lon="176.650283"><ele>-2.500000</ele><time>2021-12-21T02:02:49Z</time><course>301.089996</course><speed>16.659769</speed></trkpt>
<trkpt lat="-40.295944" lon="176.644958"><ele>0.200000</ele><time>2021-12-21T02:03:19Z</time><course>302.269989</course><speed>15.754348</speed></trkpt>
<trkpt lat="-40.297790" lon="176.641876"><ele>1.100000</ele><time>2021-12-21T02:03:49Z</time><course>212.619995</course><speed>19.731517</speed></trkpt>
<trkpt lat="-40.302574" lon="176.637893"><ele>1.100000</ele><time>2021-12-21T02:04:19Z</time><course>212.259994</course><speed>20.933774</speed></trkpt>
<trkpt lat="-40.306343" lon="176.634231"><ele>0.000000</ele><time>2021-12-21T02:04:49Z</time><course>285.670013</course><speed>12.828188</speed></trkpt>
<trkpt lat="-40.304950" lon="176.628219"><ele>0.400000</ele><time>2021-12-21T02:05:19Z</time><course>286.489990</course><speed>18.209791</speed></trkpt>
<trkpt lat="-40.303485" lon="176.621658"><ele>1.900000</ele><time>2021-12-21T02:05:49Z</time><course>286.880004</course><speed>19.359573</speed></trkpt>
<trkpt lat="-40.302284" lon="176.616363"><ele>4.700000</ele><time>2021-12-21T02:06:19Z</time><course>286.529998</course><speed>14.140536</speed></trkpt>
<trkpt lat="-40.301425" lon="176.612564"><ele>7.700000</ele><time>2021-12-21T02:06:49Z</time><course>284.339996</course><speed>8.040253</speed></trkpt>
<trkpt lat="-40.303154" lon="176.611602"><ele>6.500000</ele><time>2021-12-21T02:07:19Z</time><course>195.970001</course><speed>7.554617</speed></trkpt>
<trkpt lat="-40.305278" lon="176.610443"><ele>9.500000</ele><time>2021-12-21T02:07:49Z</time><course>219.589996</course><speed>11.696410</speed></trkpt>
<trkpt lat="-40.308097" lon="176.607147"><ele>9.300001</ele><time>2021-12-21T02:08:19Z</time><course>222.820007</course><speed>14.816000</speed></trkpt>
<trkpt lat="-40.309570" lon="176.607330"><ele>28.100000</ele><time>2021-12-21T02:08:49Z</time><course>108.879997</course><speed>12.549359</speed></trkpt>
<trkpt lat="-40.312515" lon="176.607086"><ele>54.299999</ele><time>2021-12-21T02:09:19Z</time><course>190.059997</course><speed>15.829457</speed></trkpt>
<trkpt lat="-40.315021" lon="176.604034"><ele>54.299999</ele><time>2021-12-21T02:09:49Z</time><course>224.470001</course><speed>13.577219</speed></trkpt>
<trkpt lat="-40.317123" lon="176.599441"><ele>27.200000</ele><time>2021-12-21T02:10:19Z</time><course>199.020004</course><speed>14.581929</speed></trkpt>
<trkpt lat="-40.322067" lon="176.599212"><ele>9.900000</ele><time>2021-12-21T02:10:49Z</time><course>169.429992</course><speed>20.582408</speed></trkpt>
<trkpt lat="-40.327217" lon="176.598236"><ele>15.100001</ele><time>2021-12-21T02:11:19Z</time><course>197.369995</course><speed>19.269033</speed></trkpt>
<trkpt lat="-40.330932" lon="176.594070"><ele>24.100000</ele><time>2021-12-21T02:11:49Z</time><course>207.080001</course><speed>20.487751</speed></trkpt>
<trkpt lat="-40.335464" lon="176.589584"><ele>24.799999</ele><time>2021-12-21T02:12:19Z</time><course>217.449996</course><speed>20.836029</speed></trkpt>
<trkpt lat="-40.338821" lon="176.586883"><ele>24.500000</ele><time>2021-12-21T02:12:49Z</time><course>0.000000</course><speed>0.153819</speed></trkpt>
<trkpt lat="-40.338844" lon="176.586868"><ele>20.399999</ele><time>2021-12-21T02:13:19Z</time><course>0.000000</course><speed>0.030352</speed></trkpt>
<trkpt lat="-40.338836" lon="176.586868"><ele>21.799999</ele><time>2021-12-21T02:13:49Z</time><course>0.000000</course><speed>0.092600</speed></trkpt>
<trkpt lat="-40.339103" lon="176.586837"><ele>24.000000</ele><time>2021-12-21T02:14:19Z</time><course>202.919998</course><speed>5.530278</speed></trkpt>
<trkpt lat="-40.342971" lon="176.584472"><ele>24.899999</ele><time>2021-12-21T02:14:49Z</time><course>205.080001</course><speed>20.890562</speed></trkpt>
<trkpt lat="-40.348033" lon="176.583892"><ele>22.000000</ele><time>2021-12-21T02:15:19Z</time><course>188.429992</course><speed>21.077819</speed></trkpt>
<trkpt lat="-40.352985" lon="176.581024"><ele>26.299999</ele><time>2021-12-21T02:15:49Z</time><course>181.729995</course><speed>15.470889</speed></trkpt>
<trkpt lat="-40.355968" lon="176.576919"><ele>35.500000</ele><time>2021-12-21T02:16:19Z</time><course>186.509994</course><speed>16.078447</speed></trkpt>
<trkpt lat="-40.360733" lon="176.577987"><ele>27.600000</ele><time>2021-12-21T02:16:49Z</time><course>181.779998</course><speed>16.991586</speed></trkpt>
<trkpt lat="-40.363731" lon="176.574264"><ele>33.799999</ele><time>2021-12-21T02:17:19Z</time><course>169.919998</course><speed>15.943149</speed></trkpt>
<trkpt lat="-40.367244" lon="176.574249"><ele>38.299999</ele><time>2021-12-21T02:17:49Z</time><course>243.050003</course><speed>17.527122</speed></trkpt>
<trkpt lat="-40.369277" lon="176.568222"><ele>40.299999</ele><time>2021-12-21T02:18:19Z</time><course>251.199996</course><speed>20.544855</speed></trkpt>
<trkpt lat="-40.370929" lon="176.561477"><ele>40.799999</ele><time>2021-12-21T02:18:49Z</time><course>245.240005</course><speed>19.090005</speed></trkpt>
<trkpt lat="-40.373794" lon="176.558654"><ele>45.400001</ele><time>2021-12-21T02:19:19Z</time><course>267.690002</course><speed>13.074607</speed></trkpt>
<trkpt lat="-40.376533" lon="176.556030"><ele>43.299999</ele><time>2021-12-21T02:19:49Z</time><course>192.270004</course><speed>16.512638</speed></trkpt>
<trkpt lat="-40.380722" lon="176.554626"><ele>46.900001</ele><time>2021-12-21T02:20:19Z</time><course>203.710006</course><speed>18.165035</speed></trkpt>
<trkpt lat="-40.384655" lon="176.552871"><ele>61.099998</ele><time>2021-12-21T02:20:49Z</time><course>175.320007</course><speed>12.543186</speed></trkpt>
<trkpt lat="-40.387260" lon="176.551376"><ele>86.099998</ele><time>2021-12-21T02:21:19Z</time><course>240.869995</course><speed>14.471323</speed></trkpt>
<trkpt lat="-40.390419" lon="176.546295"><ele>88.699996</ele><time>2021-12-21T02:21:49Z</time><course>229.779998</course><speed>18.834840</speed></trkpt>
<trkpt lat="-40.393852" lon="176.541976"><ele>108.099998</ele><time>2021-12-21T02:22:19Z</time><course>233.460006</course><speed>16.135036</speed></trkpt>
<trkpt lat="-40.396133" lon="176.539276"><ele>80.900001</ele><time>2021-12-21T02:22:49Z</time><course>263.640014</course><speed>10.344964</speed></trkpt>
<trkpt lat="-40.398498" lon="176.537323"><ele>64.800003</ele><time>2021-12-21T02:23:19Z</time><course>228.289993</course><speed>10.145360</speed></trkpt>
<trkpt lat="-40.401569" lon="176.535598"><ele>96.000000</ele><time>2021-12-21T02:23:49Z</time><course>170.880004</course><speed>12.053435</speed></trkpt>
<trkpt lat="-40.404991" lon="176.532516"><ele>112.099998</ele><time>2021-12-21T02:24:19Z</time><course>229.949996</course><speed>17.704607</speed></trkpt>
<trkpt lat="-40.407104" lon="176.528976"><ele>120.500000</ele><time>2021-12-21T02:24:49Z</time><course>204.289993</course><speed>15.911254</speed></trkpt>
<trkpt lat="-40.410919" lon="176.524948"><ele>116.199996</ele><time>2021-12-21T02:25:19Z</time><course>171.050003</course><speed>14.298985</speed></trkpt>
<trkpt lat="-40.414848" lon="176.523788"><ele>110.599998</ele><time>2021-12-21T02:25:49Z</time><course>202.750000</course><speed>15.796018</speed></trkpt>
<trkpt lat="-40.419101" lon="176.524032"><ele>85.500000</ele><time>2021-12-21T02:26:19Z</time><course>222.789993</course><speed>13.982602</speed></trkpt>
<trkpt lat="-40.421035" lon="176.520675"><ele>115.699996</ele><time>2021-12-21T02:26:49Z</time><course>269.130004</course><speed>13.295303</speed></trkpt>
<trkpt lat="-40.423957" lon="176.517379"><ele>63.099998</ele><time>2021-12-21T02:27:19Z</time><course>190.960006</course><speed>19.041133</speed></trkpt>
<trkpt lat="-40.428520" lon="176.515686"><ele>48.900001</ele><time>2021-12-21T02:27:49Z</time><course>210.759994</course><speed>11.499378</speed></trkpt>
<trkpt lat="-40.431777" lon="176.515670"><ele>31.600000</ele><time>2021-12-21T02:28:19Z</time><course>217.589996</course><speed>12.365702</speed></trkpt>
<trkpt lat="-40.434947" lon="176.513244"><ele>21.299999</ele><time>2021-12-21T02:28:49Z</time><course>214.250000</course><speed>18.143428</speed></trkpt>
<trkpt lat="-40.438411" lon="176.510040"><ele>29.000000</ele><time>2021-12-21T02:29:19Z</time><course>210.410003</course><speed>14.899341</speed></trkpt>
<trkpt lat="-40.440460" lon="176.506561"><ele>30.799999</ele><time>2021-12-21T02:29:49Z</time><course>250.500000</course><speed>10.562574</speed></trkpt>
<trkpt lat="-40.441173" lon="176.502471"><ele>40.000000</ele><time>2021-12-21T02:30:19Z</time><course>243.050003</course><speed>12.865742</speed></trkpt>
<trkpt lat="-40.441658" lon="176.498535"><ele>44.700000</ele><time>2021-12-21T02:30:49Z</time><course>291.950012</course><speed>7.567478</speed></trkpt>
<trkpt lat="-40.439937" lon="176.496597"><ele>52.900001</ele><time>2021-12-21T02:31:19Z</time><course>326.010009</course><speed>9.061940</speed></trkpt>
<trkpt lat="-40.438991" lon="176.493133"><ele>54.200000</ele><time>2021-12-21T02:31:49Z</time><course>266.250000</course><speed>12.534440</speed></trkpt>
<trkpt lat="-40.440475" lon="176.489456"><ele>55.099998</ele><time>2021-12-21T02:32:19Z</time><course>228.630004</course><speed>13.485649</speed></trkpt>
<trkpt lat="-40.442832" lon="176.485595"><ele>60.799999</ele><time>2021-12-21T02:32:49Z</time><course>266.760009</course><speed>15.620079</speed></trkpt>
<trkpt lat="-40.443019" lon="176.481399"><ele>67.599998</ele><time>2021-12-21T02:33:19Z</time><course>0.000000</course><speed>0.120380</speed></trkpt>
<trkpt lat="-40.442996" lon="176.481369"><ele>74.400001</ele><time>2021-12-21T02:33:49Z</time><course>0.000000</course><speed>0.086427</speed></trkpt>
<trkpt lat="-40.443012" lon="176.481201"><ele>72.300003</ele><time>2021-12-21T02:34:19Z</time><course>268.369995</course><speed>3.661301</speed></trkpt>
<trkpt lat="-40.443508" lon="176.478118"><ele>69.099998</ele><time>2021-12-21T02:34:49Z</time><course>270.850006</course><speed>7.892092</speed></trkpt>
<trkpt lat="-40.443191" lon="176.474029"><ele>74.599998</ele><time>2021-12-21T02:35:19Z</time><course>247.750000</course><speed>12.207768</speed></trkpt>
<trkpt lat="-40.441444" lon="176.470794"><ele>80.800003</ele><time>2021-12-21T02:35:49Z</time><course>305.250000</course><speed>8.830440</speed></trkpt>
<trkpt lat="-40.439311" lon="176.470092"><ele>78.800003</ele><time>2021-12-21T02:36:19Z</time><course>340.049987</course><speed>8.427116</speed></trkpt>
<trkpt lat="-40.437828" lon="176.469390"><ele>86.199996</ele><time>2021-12-21T02:36:49Z</time><course>29.719999</course><speed>6.083306</speed></trkpt>
<trkpt lat="-40.436439" lon="176.468154"><ele>82.300003</ele><time>2021-12-21T02:37:19Z</time><course>317.489990</course><speed>12.976862</speed></trkpt>
<trkpt lat="-40.433277" lon="176.465927"><ele>113.199996</ele><time>2021-12-21T02:37:49Z</time><course>4.540000</course><speed>13.076149</speed></trkpt>
<trkpt lat="-40.432247" lon="176.462356"><ele>154.199996</ele><time>2021-12-21T02:38:19Z</time><course>248.770004</course><speed>12.582284</speed></trkpt>
<trkpt lat="-40.433223" lon="176.460235"><ele>188.600006</ele><time>2021-12-21T02:38:49Z</time><course>199.130004</course><speed>11.557510</speed></trkpt>
<trkpt lat="-40.435123" lon="176.457305"><ele>194.300003</ele><time>2021-12-21T02:39:19Z</time><course>210.559997</course><speed>10.467402</speed></trkpt>
<trkpt lat="-40.436542" lon="176.453186"><ele>196.699996</ele><time>2021-12-21T02:39:49Z</time><course>270.529998</course><speed>15.364398</speed></trkpt>
<trkpt lat="-40.437953" lon="176.448699"><ele>169.000000</ele><time>2021-12-21T02:40:19Z</time><course>228.070007</course><speed>14.314418</speed></trkpt>
<trkpt lat="-40.437973" lon="176.444641"><ele>198.800003</ele><time>2021-12-21T02:40:49Z</time><course>256.369995</course><speed>13.301477</speed></trkpt>
<trkpt lat="-40.438407" lon="176.439102"><ele>220.000000</ele><time>2021-12-21T02:41:19Z</time><course>276.350006</course><speed>16.400489</speed></trkpt>
<trkpt lat="-40.438323" lon="176.433792"><ele>241.899993</ele><time>2021-12-21T02:41:49Z</time><course>329.760009</course><speed>13.819007</speed></trkpt>
<trkpt lat="-40.438220" lon="176.430877"><ele>273.399993</ele><time>2021-12-21T02:42:19Z</time><course>243.990005</course><speed>16.714302</speed></trkpt>
<trkpt lat="-40.439102" lon="176.426132"><ele>269.200012</ele><time>2021-12-21T02:42:49Z</time><course>322.630004</course><speed>14.181691</speed></trkpt>
<trkpt lat="-40.436523" lon="176.422729"><ele>247.000000</ele><time>2021-12-21T02:43:19Z</time><course>293.500000</course><speed>14.332938</speed></trkpt>
<trkpt lat="-40.435203" lon="176.418289"><ele>269.500000</ele><time>2021-12-21T02:43:49Z</time><course>269.390014</course><speed>13.403851</speed></trkpt>
<trkpt lat="-40.435337" lon="176.413833"><ele>273.000000</ele><time>2021-12-21T02:44:19Z</time><course>244.050003</course><speed>15.340734</speed></trkpt>
<trkpt lat="-40.437431" lon="176.409118"><ele>243.600006</ele><time>2021-12-21T02:44:49Z</time><course>227.000000</course><speed>14.671957</speed></trkpt>
<trkpt lat="-40.437957" lon="176.403808"><ele>197.000000</ele><time>2021-12-21T02:45:19Z</time><course>269.049987</course><speed>16.016199</speed></trkpt>
<trkpt lat="-40.437675" lon="176.399185"><ele>196.800003</ele><time>2021-12-21T02:45:49Z</time><course>305.589996</course><speed>13.330286</speed></trkpt>
<trkpt lat="-40.435916" lon="176.394500"><ele>199.100006</ele><time>2021-12-21T02:46:19Z</time><course>298.570007</course><speed>14.913231</speed></trkpt>
<trkpt lat="-40.436145" lon="176.389831"><ele>192.899993</ele><time>2021-12-21T02:46:49Z</time><course>287.660003</course><speed>15.054703</speed></trkpt>
<trkpt lat="-40.435775" lon="176.384765"><ele>183.899993</ele><time>2021-12-21T02:47:19Z</time><course>298.820007</course><speed>15.387549</speed></trkpt>
<trkpt lat="-40.433586" lon="176.380142"><ele>179.600006</ele><time>2021-12-21T02:47:49Z</time><course>275.929992</course><speed>14.593247</speed></trkpt>
<trkpt lat="-40.434131" lon="176.375427"><ele>175.899993</ele><time>2021-12-21T02:48:19Z</time><course>274.779998</course><speed>14.135906</speed></trkpt>
<trkpt lat="-40.432689" lon="176.370559"><ele>171.699996</ele><time>2021-12-21T02:48:49Z</time><course>282.980011</course><speed>15.977102</speed></trkpt>
<trkpt lat="-40.432720" lon="176.364624"><ele>171.600006</ele><time>2021-12-21T02:49:19Z</time><course>262.640014</course><speed>14.945127</speed></trkpt>
<trkpt lat="-40.434337" lon="176.360458"><ele>167.899993</ele><time>2021-12-21T02:49:49Z</time><course>274.720001</course><speed>13.710975</speed></trkpt>
<trkpt lat="-40.434127" lon="176.355682"><ele>176.300003</ele><time>2021-12-21T02:50:19Z</time><course>293.920013</course><speed>13.349835</speed></trkpt>
<trkpt lat="-40.432930" lon="176.351425"><ele>192.899993</ele><time>2021-12-21T02:50:49Z</time><course>281.980011</course><speed>13.057116</speed></trkpt>
<trkpt lat="-40.435340" lon="176.348571"><ele>201.300003</ele><time>2021-12-21T02:51:19Z</time><course>233.199996</course><speed>13.553040</speed></trkpt>
<trkpt lat="-40.433216" lon="176.347656"><ele>219.300003</ele><time>2021-12-21T02:51:49Z</time><course>39.720001</course><speed>10.415443</speed></trkpt>
<trkpt lat="-40.430625" lon="176.346328"><ele>198.600006</ele><time>2021-12-21T02:52:19Z</time><course>303.359985</course><speed>13.469185</speed></trkpt>
<trkpt lat="-40.429195" lon="176.341903"><ele>166.399993</ele><time>2021-12-21T02:52:49Z</time><course>247.720001</course><speed>16.076904</speed></trkpt>
<trkpt lat="-40.427783" lon="176.336715"><ele>155.199996</ele><time>2021-12-21T02:53:19Z</time><course>295.820007</course><speed>17.547187</speed></trkpt>
<trkpt lat="-40.424915" lon="176.331802"><ele>154.899993</ele><time>2021-12-21T02:53:49Z</time><course>345.489990</course><speed>16.932939</speed></trkpt>
<trkpt lat="-40.419857" lon="176.331161"><ele>163.199996</ele><time>2021-12-21T02:54:19Z</time><course>322.929992</course><speed>16.507493</speed></trkpt>
<trkpt lat="-40.416126" lon="176.329177"><ele>159.100006</ele><time>2021-12-21T02:54:49Z</time><course>305.079986</course><speed>13.108560</speed></trkpt>
<trkpt lat="-40.414630" lon="176.325241"><ele>123.699996</ele><time>2021-12-21T02:55:19Z</time><course>275.570007</course><speed>14.117900</speed></trkpt>
<trkpt lat="-40.410964" lon="176.323410"><ele>82.400001</ele><time>2021-12-21T02:55:49Z</time><course>305.369995</course><speed>16.253358</speed></trkpt>
<trkpt lat="-40.407852" lon="176.319747"><ele>88.699996</ele><time>2021-12-21T02:56:19Z</time><course>331.779998</course><speed>13.735669</speed></trkpt>
<trkpt lat="-40.404617" lon="176.317199"><ele>120.000000</ele><time>2021-12-21T02:56:49Z</time><course>353.700012</course><speed>16.490003</speed></trkpt>
<trkpt lat="-40.402217" lon="176.313491"><ele>131.000000</ele><time>2021-12-21T02:57:19Z</time><course>300.059997</course><speed>13.582878</speed></trkpt>
<trkpt lat="-40.399963" lon="176.309570"><ele>138.199996</ele><time>2021-12-21T02:57:49Z</time><course>325.549987</course><speed>16.096967</speed></trkpt>
<trkpt lat="-40.396862" lon="176.305023"><ele>141.699996</ele><time>2021-12-21T02:58:19Z</time><course>315.950012</course><speed>20.137929</speed></trkpt>
<trkpt lat="-40.393287" lon="176.300231"><ele>169.600006</ele><time>2021-12-21T02:58:49Z</time><course>291.290008</course><speed>17.719526</speed></trkpt>
<trkpt lat="-40.390934" lon="176.295379"><ele>161.000000</ele><time>2021-12-21T02:59:19Z</time><course>332.019989</course><speed>15.850549</speed></trkpt>
<trkpt lat="-40.385986" lon="176.295776"><ele>153.899993</ele><time>2021-12-21T02:59:49Z</time><course>336.760009</course><speed>19.510305</speed></trkpt>
<trkpt lat="-40.383636" lon="176.290817"><ele>189.800003</ele><time>2021-12-21T03:00:19Z</time><course>279.609985</course><speed>14.294869</speed></trkpt>
<trkpt lat="-40.380432" lon="176.287094"><ele>189.899993</ele><time>2021-12-21T03:00:49Z</time><course>329.890014</course><speed>19.720714</speed></trkpt>
<trkpt lat="-40.375732" lon="176.283584"><ele>184.100006</ele><time>2021-12-21T03:01:19Z</time><course>330.869995</course><speed>20.125581</speed></trkpt>
<trkpt lat="-40.371429" lon="176.281280"><ele>160.500000</ele><time>2021-12-21T03:01:49Z</time><course>24.149999</course><speed>15.073223</speed></trkpt>
<trkpt lat="-40.368572" lon="176.284210"><ele>174.600006</ele><time>2021-12-21T03:02:19Z</time><course>13.850001</course><speed>13.415168</speed></trkpt>
<trkpt lat="-40.364929" lon="176.283645"><ele>212.699996</ele><time>2021-12-21T03:02:49Z</time><course>308.079986</course><speed>15.177656</speed></trkpt>
<trkpt lat="-40.361270" lon="176.283187"><ele>183.600006</ele><time>2021-12-21T03:03:19Z</time><course>29.059999</course><speed>19.234050</speed></trkpt>
<trkpt lat="-40.356967" lon="176.286529"><ele>166.800003</ele><time>2021-12-21T03:03:49Z</time><course>334.779998</course><speed>14.276864</speed></trkpt>
<trkpt lat="-40.352851" lon="176.284042"><ele>154.699996</ele><time>2021-12-21T03:04:19Z</time><course>352.769989</course><speed>20.155420</speed></trkpt>
<trkpt lat="-40.348545" lon="176.281280"><ele>161.300003</ele><time>2021-12-21T03:04:49Z</time><course>345.940002</course><speed>18.188697</speed></trkpt>
<trkpt lat="-40.344566" lon="176.277801"><ele>165.199996</ele><time>2021-12-21T03:05:19Z</time><course>5.430000</course><speed>19.462978</speed></trkpt>
<trkpt lat="-40.340374" lon="176.279479"><ele>168.800003</ele><time>2021-12-21T03:05:49Z</time><course>292.529998</course><speed>15.702903</speed></trkpt>
<trkpt lat="-40.336849" lon="176.275436"><ele>181.899993</ele><time>2021-12-21T03:06:19Z</time><course>359.890014</course><speed>20.538166</speed></trkpt>
<trkpt lat="-40.331733" lon="176.274703"><ele>212.899993</ele><time>2021-12-21T03:06:49Z</time><course>330.829986</course><speed>16.691665</speed></trkpt>
<trkpt lat="-40.329471" lon="176.269790"><ele>252.600006</ele><time>2021-12-21T03:07:19Z</time><course>301.470001</course><speed>16.971008</speed></trkpt>
<trkpt lat="-40.327724" lon="176.264633"><ele>294.299987</ele><time>2021-12-21T03:07:49Z</time><course>294.579986</course><speed>16.319208</speed></trkpt>
<trkpt lat="-40.325305" lon="176.259658"><ele>317.399993</ele><time>2021-12-21T03:08:19Z</time><course>323.029998</course><speed>17.745761</speed></trkpt>
<trkpt lat="-40.322135" lon="176.255889"><ele>311.700012</ele><time>2021-12-21T03:08:49Z</time><course>270.029998</course><speed>15.898392</speed></trkpt>
<trkpt lat="-40.321949" lon="176.250564"><ele>296.399993</ele><time>2021-12-21T03:09:19Z</time><course>250.059997</course><speed>16.417980</speed></trkpt>
<trkpt lat="-40.320690" lon="176.245285"><ele>311.299987</ele><time>2021-12-21T03:09:49Z</time><course>317.100006</course><speed>16.891784</speed></trkpt>
<trkpt lat="-40.316692" lon="176.245727"><ele>324.200012</ele><time>2021-12-21T03:10:19Z</time><course>32.369998</course><speed>16.789924</speed></trkpt>
<trkpt lat="-40.313304" lon="176.249710"><ele>320.399993</ele><time>2021-12-21T03:10:49Z</time><course>37.439998</course><speed>17.349639</speed></trkpt>
<trkpt lat="-40.309726" lon="176.248016"><ele>321.299987</ele><time>2021-12-21T03:11:19Z</time><course>348.410003</course><speed>17.416002</speed></trkpt>
<trkpt lat="-40.305961" lon="176.245178"><ele>321.000000</ele><time>2021-12-21T03:11:49Z</time><course>312.230010</course><speed>16.499261</speed></trkpt>
<trkpt lat="-40.302135" lon="176.242828"><ele>347.200012</ele><time>2021-12-21T03:12:19Z</time><course>302.489990</course><speed>17.211769</speed></trkpt>
<trkpt lat="-40.297695" lon="176.242553"><ele>337.799987</ele><time>2021-12-21T03:12:49Z</time><course>349.959991</course><speed>16.053752</speed></trkpt>
<trkpt lat="-40.294879" lon="176.238967"><ele>330.500000</ele><time>2021-12-21T03:13:19Z</time><course>12.870000</course><speed>17.602232</speed></trkpt>
<trkpt lat="-40.292442" lon="176.236114"><ele>303.200012</ele><time>2021-12-21T03:13:49Z</time><course>287.100006</course><speed>18.805517</speed></trkpt>
<trkpt lat="-40.289581" lon="176.230560"><ele>263.600006</ele><time>2021-12-21T03:14:19Z</time><course>325.980011</course><speed>19.052965</speed></trkpt>
<trkpt lat="-40.285877" lon="176.224426"><ele>221.300003</ele><time>2021-12-21T03:14:49Z</time><course>303.709991</course><speed>23.606828</speed></trkpt>
<trkpt lat="-40.282112" lon="176.218933"><ele>220.500000</ele><time>2021-12-21T03:15:19Z</time><course>337.720001</course><speed>18.223680</speed></trkpt>
<trkpt lat="-40.276645" lon="176.219192"><ele>214.699996</ele><time>2021-12-21T03:15:49Z</time><course>19.370000</course><speed>21.341730</speed></trkpt>
<trkpt lat="-40.273582" lon="176.216629"><ele>186.199996</ele><time>2021-12-21T03:16:19Z</time><course>249.740005</course><speed>18.474729</speed></trkpt>
<trkpt lat="-40.270679" lon="176.212127"><ele>208.300003</ele><time>2021-12-21T03:16:49Z</time><course>355.309997</course><speed>17.640815</speed></trkpt>
<trkpt lat="-40.265666" lon="176.210906"><ele>216.100006</ele><time>2021-12-21T03:17:19Z</time><course>327.940002</course><speed>19.724315</speed></trkpt>
<trkpt lat="-40.262374" lon="176.205780"><ele>213.199996</ele><time>2021-12-21T03:17:49Z</time><course>348.839996</course><speed>16.497205</speed></trkpt>
<trkpt lat="-40.257499" lon="176.204177"><ele>218.300003</ele><time>2021-12-21T03:18:19Z</time><course>328.940002</course><speed>20.344221</speed></trkpt>
<trkpt lat="-40.257545" lon="176.197708"><ele>212.399993</ele><time>2021-12-21T03:18:49Z</time><course>204.800003</course><speed>21.968835</speed></trkpt>
<trkpt lat="-40.260665" lon="176.193038"><ele>216.800003</ele><time>2021-12-21T03:19:19Z</time><course>293.149993</course><speed>19.317903</speed></trkpt>
<trkpt lat="-40.258708" lon="176.188278"><ele>236.399993</ele><time>2021-12-21T03:19:49Z</time><course>308.149993</course><speed>9.860358</speed></trkpt>
<trkpt lat="-40.257690" lon="176.184570"><ele>235.000000</ele><time>2021-12-21T03:20:19Z</time><course>286.459991</course><speed>12.389367</speed></trkpt>
<trkpt lat="-40.258270" lon="176.180786"><ele>219.500000</ele><time>2021-12-21T03:20:49Z</time><course>239.949996</course><speed>10.610418</speed></trkpt>
<trkpt lat="-40.258293" lon="176.176879"><ele>212.399993</ele><time>2021-12-21T03:21:19Z</time><course>293.940002</course><speed>12.690317</speed></trkpt>
<trkpt lat="-40.257091" lon="176.173233"><ele>208.800003</ele><time>2021-12-21T03:21:49Z</time><course>286.079986</course><speed>10.324901</speed></trkpt>
<trkpt lat="-40.256271" lon="176.169464"><ele>208.300003</ele><time>2021-12-21T03:22:19Z</time><course>284.880004</course><speed>11.260676</speed></trkpt>
<trkpt lat="-40.255607" lon="176.163772"><ele>199.100006</ele><time>2021-12-21T03:22:49Z</time><course>278.489990</course><speed>23.014188</speed></trkpt>
<trkpt lat="-40.254707" lon="176.155395"><ele>191.899993</ele><time>2021-12-21T03:23:19Z</time><course>277.809997</course><speed>22.373704</speed></trkpt>
<trkpt lat="-40.255317" lon="176.147171"><ele>185.300003</ele><time>2021-12-21T03:23:49Z</time><course>287.089996</course><speed>22.952968</speed></trkpt>
<trkpt lat="-40.251010" lon="176.141204"><ele>184.800003</ele><time>2021-12-21T03:24:19Z</time><course>320.709991</course><speed>24.038448</speed></trkpt>
<trkpt lat="-40.247299" lon="176.135269"><ele>203.000000</ele><time>2021-12-21T03:24:49Z</time><course>280.339996</course><speed>21.190998</speed></trkpt>
<trkpt lat="-40.244373" lon="176.127334"><ele>157.800003</ele><time>2021-12-21T03:25:19Z</time><course>292.750000</course><speed>24.624399</speed></trkpt>
<trkpt lat="-40.242328" lon="176.119262"><ele>157.500000</ele><time>2021-12-21T03:25:49Z</time><course>281.079986</course><speed>22.689573</speed></trkpt>
<trkpt lat="-40.237995" lon="176.112915"><ele>154.399993</ele><time>2021-12-21T03:26:19Z</time><course>318.679992</course><speed>26.037576</speed></trkpt>
<trkpt lat="-40.233165" lon="176.107604"><ele>184.199996</ele><time>2021-12-21T03:26:49Z</time><course>323.250000</course><speed>24.023529</speed></trkpt>
<trkpt lat="-40.227916" lon="176.102630"><ele>185.600006</ele><time>2021-12-21T03:27:19Z</time><course>339.839996</course><speed>22.408170</speed></trkpt>
<trkpt lat="-40.223503" lon="176.101425"><ele>164.199996</ele><time>2021-12-21T03:27:49Z</time><course>302.619995</course><speed>10.224070</speed></trkpt>
<trkpt lat="-40.224143" lon="176.099670"><ele>166.699996</ele><time>2021-12-21T03:28:19Z</time><course>200.199996</course><speed>14.478011</speed></trkpt>
<trkpt lat="-40.225696" lon="176.095230"><ele>179.600006</ele><time>2021-12-21T03:28:49Z</time><course>315.010009</course><speed>12.700091</speed></trkpt>
<trkpt lat="-40.222675" lon="176.091369"><ele>191.199996</ele><time>2021-12-21T03:29:19Z</time><course>315.019989</course><speed>16.869148</speed></trkpt>
<trkpt lat="-40.219367" lon="176.087127"><ele>197.199996</ele><time>2021-12-21T03:29:49Z</time><course>314.980011</course><speed>14.448688</speed></trkpt>
<trkpt lat="-40.220378" lon="176.084136"><ele>197.100006</ele><time>2021-12-21T03:30:19Z</time><course>224.800003</course><speed>14.800568</speed></trkpt>
<trkpt lat="-40.224422" lon="176.078903"><ele>194.399993</ele><time>2021-12-21T03:30:49Z</time><course>226.210006</course><speed>25.301921</speed></trkpt>
<trkpt lat="-40.229415" lon="176.072158"><ele>188.300003</ele><time>2021-12-21T03:31:19Z</time><course>240.000000</course><speed>24.205640</speed></trkpt>
<trkpt lat="-40.229881" lon="176.064300"><ele>186.800003</ele><time>2021-12-21T03:31:49Z</time><course>232.490005</course><speed>24.163457</speed></trkpt>
<trkpt lat="-40.231914" lon="176.059326"><ele>187.000000</ele><time>2021-12-21T03:32:19Z</time><course>242.399993</course><speed>15.291348</speed></trkpt>
<trkpt lat="-40.234428" lon="176.051879"><ele>186.000000</ele><time>2021-12-21T03:32:49Z</time><course>248.949996</course><speed>26.009283</speed></trkpt>
<trkpt lat="-40.238658" lon="176.044464"><ele>178.600006</ele><time>2021-12-21T03:33:19Z</time><course>227.610000</course><speed>25.840030</speed></trkpt>
<trkpt lat="-40.243965" lon="176.038543"><ele>175.000000</ele><time>2021-12-21T03:33:49Z</time><course>210.839996</course><speed>25.825626</speed></trkpt>
<trkpt lat="-40.250293" lon="176.034072"><ele>167.600006</ele><time>2021-12-21T03:34:19Z</time><course>213.139999</course><speed>27.695117</speed></trkpt>
<trkpt lat="-40.256664" lon="176.029602"><ele>165.300003</ele><time>2021-12-21T03:34:49Z</time><course>220.210006</course><speed>24.759698</speed></trkpt>
<trkpt lat="-40.262401" lon="176.026626"><ele>161.000000</ele><time>2021-12-21T03:35:19Z</time><course>208.100006</course><speed>25.893018</speed></trkpt>
<trkpt lat="-40.268707" lon="176.022048"><ele>155.600006</ele><time>2021-12-21T03:35:49Z</time><course>219.550003</course><speed>26.338012</speed></trkpt>
<trkpt lat="-40.272453" lon="176.014648"><ele>152.899993</ele><time>2021-12-21T03:36:19Z</time><course>238.559997</course><speed>25.192859</speed></trkpt>
<trkpt lat="-40.277065" lon="176.007919"><ele>158.600006</ele><time>2021-12-21T03:36:49Z</time><course>227.059997</course><speed>26.200656</speed></trkpt>
<trkpt lat="-40.281066" lon="176.000534"><ele>157.699996</ele><time>2021-12-21T03:37:19Z</time><course>256.089996</course><speed>27.581424</speed></trkpt>
<trkpt lat="-40.281772" lon="175.991455"><ele>160.500000</ele><time>2021-12-21T03:37:49Z</time><course>269.690002</course><speed>26.062784</speed></trkpt>
<trkpt lat="-40.282478" lon="175.982666"><ele>166.000000</ele><time>2021-12-21T03:38:19Z</time><course>258.739990</course><speed>24.104808</speed></trkpt>
<trkpt lat="-40.282131" lon="175.973922"><ele>168.800003</ele><time>2021-12-21T03:38:49Z</time><course>275.950012</course><speed>24.939752</speed></trkpt>
<trkpt lat="-40.285949" lon="175.966873"><ele>171.199996</ele><time>2021-12-21T03:39:19Z</time><course>215.970001</course><speed>26.948658</speed></trkpt>
<trkpt lat="-40.290546" lon="175.959548"><ele>138.300003</ele><time>2021-12-21T03:39:49Z</time><course>240.169998</course><speed>26.598836</speed></trkpt>
<trkpt lat="-40.293457" lon="175.951370"><ele>133.100006</ele><time>2021-12-21T03:40:19Z</time><course>215.619995</course><speed>26.475885</speed></trkpt>
<trkpt lat="-40.299278" lon="175.946548"><ele>131.100006</ele><time>2021-12-21T03:40:49Z</time><course>249.369995</course><speed>24.653722</speed></trkpt>
<trkpt lat="-40.303634" lon="175.939758"><ele>122.500000</ele><time>2021-12-21T03:41:19Z</time><course>211.460006</course><speed>24.702079</speed></trkpt>
<trkpt lat="-40.310554" lon="175.937164"><ele>119.400001</ele><time>2021-12-21T03:41:49Z</time><course>205.710006</course><speed>27.017080</speed></trkpt>
<trkpt lat="-40.316356" lon="175.932037"><ele>120.599998</ele><time>2021-12-21T03:42:19Z</time><course>223.869995</course><speed>24.994798</speed></trkpt>
<trkpt lat="-40.318763" lon="175.924026"><ele>117.500000</ele><time>2021-12-21T03:42:49Z</time><course>247.389999</course><speed>25.957325</speed></trkpt>
<trkpt lat="-40.323272" lon="175.917037"><ele>115.099998</ele><time>2021-12-21T03:43:19Z</time><course>218.919998</course><speed>26.035007</speed></trkpt>
<trkpt lat="-40.328395" lon="175.910614"><ele>105.699996</ele><time>2021-12-21T03:43:49Z</time><course>231.869995</course><speed>26.275251</speed></trkpt>
<trkpt lat="-40.333808" lon="175.904663"><ele>97.699996</ele><time>2021-12-21T03:44:19Z</time><course>224.050003</course><speed>26.622501</speed></trkpt>
<trkpt lat="-40.337173" lon="175.896804"><ele>94.500000</ele><time>2021-12-21T03:44:49Z</time><course>258.230010</course><speed>25.416128</speed></trkpt>
<trkpt lat="-40.339790" lon="175.888183"><ele>87.900001</ele><time>2021-12-21T03:45:19Z</time><course>234.080001</course><speed>26.469711</speed></trkpt>
<trkpt lat="-40.340682" lon="175.880310"><ele>89.099998</ele><time>2021-12-21T03:45:49Z</time><course>287.910003</course><speed>18.796257</speed></trkpt>
<trkpt lat="-40.339180" lon="175.874938"><ele>85.300003</ele><time>2021-12-21T03:46:19Z</time><course>286.589996</course><speed>13.964080</speed></trkpt>
<trkpt lat="-40.338123" lon="175.870498"><ele>85.800003</ele><time>2021-12-21T03:46:49Z</time><course>290.049987</course><speed>11.935112</speed></trkpt>
</trkseg></trk></gpx>
