<?xml version="1.0"?>
<gpx creator="GPS Tracker http://www.geoffg.net/tracker.html/" version="1.0" xmlns="http://www.topografix.com/GPX/1/0" xmlns:xsi="http://www.w3.org/2001/XMLSchema-instance" xsi:schemaLocation="http://www.topografix.com/GPX/1/0 http://www.topografix.com/GPX/1/0/gpx.xsd">
<trk>
<name>Tracker log 2021-12-22 11:39 #05</name>
<trkseg>
<trkpt lat="-40.917251" lon="175.005279"><ele>4.800000</ele><time>2021-12-21T22:39:10Z</time><course>222.720001</course><speed>2.643730</speed></trkpt>
<trkpt lat="-40.917778" lon="175.004776"><ele>6.400000</ele><time>2021-12-21T22:39:40Z</time><course>219.740005</course><speed>2.283619</speed></trkpt>
<trkpt lat="-40.918277" lon="175.004165"><ele>4.200000</ele><time>2021-12-21T22:40:10Z</time><course>224.059997</course><speed>3.751844</speed></trkpt>
<trkpt lat="-40.919067" lon="175.003158"><ele>1.400000</ele><time>2021-12-21T22:40:40Z</time><course>222.130004</course><speed>4.066684</speed></trkpt>
<trkpt lat="-40.920047" lon="175.002609"><ele>0.400000</ele><time>2021-12-21T22:41:10Z</time><course>213.869995</course><speed>4.222045</speed></trkpt>
<trkpt lat="-40.920959" lon="175.002731"><ele>0.500000</ele><time>2021-12-21T22:41:40Z</time><course>133.550003</course><speed>5.897591</speed></trkpt>
<trkpt lat="-40.921936" lon="175.002426"><ele>2.600000</ele><time>2021-12-21T22:42:10Z</time><course>212.729995</course><speed>13.748529</speed></trkpt>
<trkpt lat="-40.925266" lon="174.999725"><ele>3.900000</ele><time>2021-12-21T22:42:40Z</time><course>207.350006</course><speed>14.238280</speed></trkpt>
<trkpt lat="-40.926345" lon="174.998046"><ele>5.200000</ele><time>2021-12-21T22:43:10Z</time><course>301.160003</course><speed>8.630320</speed></trkpt>
<trkpt lat="-40.926914" lon="174.998077"><ele>5.400000</ele><time>2021-12-21T22:43:40Z</time><course>90.500000</course><speed>2.113852</speed></trkpt>
</trkseg></trk></gpx>
