<?xml version="1.0"?>
<gpx creator="GPS Tracker http://www.geoffg.net/tracker.html/" version="1.0" xmlns="http://www.topografix.com/GPX/1/0" xmlns:xsi="http://www.w3.org/2001/XMLSchema-instance" xsi:schemaLocation="http://www.topografix.com/GPX/1/0 http://www.topografix.com/GPX/1/0/gpx.xsd">
<trk>
<name>Tracker log 2021-12-25 20:22 #05</name>
<trkseg>
<trkpt lat="-43.489307" lon="172.542816"><ele>24.899999</ele><time>2021-12-25T07:21:15Z</time><course>104.889999</course><speed>8.759447</speed></trkpt>
<trkpt lat="-43.490211" lon="172.545730"><ele>31.200000</ele><time>2021-12-25T07:21:46Z</time><course>132.509994</course><speed>13.975914</speed></trkpt>
<trkpt lat="-43.492465" lon="172.549407"><ele>28.299999</ele><time>2021-12-25T07:22:16Z</time><course>115.669998</course><speed>7.096247</speed></trkpt>
<trkpt lat="-43.488857" lon="172.551849"><ele>29.500000</ele><time>2021-12-25T07:22:46Z</time><course>22.239999</course><speed>21.463138</speed></trkpt>
<trkpt lat="-43.483360" lon="172.554443"><ele>27.200000</ele><time>2021-12-25T07:23:16Z</time><course>16.030000</course><speed>22.666938</speed></trkpt>
<trkpt lat="-43.479061" lon="172.555923"><ele>30.399999</ele><time>2021-12-25T07:23:46Z</time><course>354.040008</course><speed>3.153545</speed></trkpt>
<trkpt lat="-43.475898" lon="172.557540"><ele>30.299999</ele><time>2021-12-25T07:24:16Z</time><course>32.599998</course><speed>20.844261</speed></trkpt>
<trkpt lat="-43.472927" lon="172.564468"><ele>27.799999</ele><time>2021-12-25T07:24:46Z</time><course>72.680000</course><speed>22.707578</speed></trkpt>
<trkpt lat="-43.471427" lon="172.570419"><ele>26.299999</ele><time>2021-12-25T07:25:16Z</time><course>80.709999</course><speed>13.072548</speed></trkpt>
<trkpt lat="-43.468414" lon="172.576675"><ele>23.200000</ele><time>2021-12-25T07:25:46Z</time><course>49.610000</course><speed>24.072399</speed></trkpt>
<trkpt lat="-43.463768" lon="172.583282"><ele>20.000000</ele><time>2021-12-25T07:26:16Z</time><course>39.799999</course><speed>23.907262</speed></trkpt>
<trkpt lat="-43.459117" lon="172.589202"><ele>20.500000</ele><time>2021-12-25T07:26:46Z</time><course>57.700000</course><speed>23.390760</speed></trkpt>
<trkpt lat="-43.457744" lon="172.596633"><ele>15.600001</ele><time>2021-12-25T07:27:16Z</time><course>75.279998</course><speed>10.580065</speed></trkpt>
<trkpt lat="-43.455825" lon="172.601837"><ele>16.600000</ele><time>2021-12-25T07:27:46Z</time><course>41.000000</course><speed>22.649446</speed></trkpt>
<trkpt lat="-43.451400" lon="172.608520"><ele>16.600000</ele><time>2021-12-25T07:28:16Z</time><course>52.970001</course><speed>25.341018</speed></trkpt>
<trkpt lat="-43.445789" lon="172.614944"><ele>10.400000</ele><time>2021-12-25T07:28:46Z</time><course>33.529998</course><speed>28.430772</speed></trkpt>
<trkpt lat="-43.440086" lon="172.621063"><ele>11.100001</ele><time>2021-12-25T07:29:16Z</time><course>50.360000</course><speed>26.221235</speed></trkpt>
<trkpt lat="-43.437301" lon="172.629791"><ele>8.800001</ele><time>2021-12-25T07:29:46Z</time><course>79.930000</course><speed>26.112686</speed></trkpt>
<trkpt lat="-43.434341" lon="172.638015"><ele>15.400000</ele><time>2021-12-25T07:30:16Z</time><course>44.419998</course><speed>25.202119</speed></trkpt>
<trkpt lat="-43.429595" lon="172.645019"><ele>7.200000</ele><time>2021-12-25T07:30:46Z</time><course>43.740001</course><speed>25.867811</speed></trkpt>
<trkpt lat="-43.423038" lon="172.648376"><ele>7.500000</ele><time>2021-12-25T07:31:16Z</time><course>5.360000</course><speed>26.668287</speed></trkpt>
<trkpt lat="-43.415821" lon="172.646759"><ele>11.600001</ele><time>2021-12-25T07:31:46Z</time><course>347.859985</course><speed>27.872602</speed></trkpt>
<trkpt lat="-43.408382" lon="172.644561"><ele>6.600000</ele><time>2021-12-25T07:32:16Z</time><course>348.230010</course><speed>28.329942</speed></trkpt>
<trkpt lat="-43.401206" lon="172.642456"><ele>4.100000</ele><time>2021-12-25T07:32:46Z</time><course>347.940002</course><speed>26.932712</speed></trkpt>
<trkpt lat="-43.394069" lon="172.640335"><ele>3.900000</ele><time>2021-12-25T07:33:16Z</time><course>347.670013</course><speed>26.529901</speed></trkpt>
<trkpt lat="-43.387031" lon="172.640686"><ele>6.700000</ele><time>2021-12-25T07:33:46Z</time><course>18.290000</course><speed>26.929111</speed></trkpt>
<trkpt lat="-43.380432" lon="172.643753"><ele>10.300001</ele><time>2021-12-25T07:34:16Z</time><course>18.680000</course><speed>23.542007</speed></trkpt>
<trkpt lat="-43.374847" lon="172.645965"><ele>10.700000</ele><time>2021-12-25T07:34:46Z</time><course>5.190000</course><speed>15.388064</speed></trkpt>
<trkpt lat="-43.371410" lon="172.641494"><ele>6.000000</ele><time>2021-12-25T07:35:16Z</time><course>328.100006</course><speed>24.032274</speed></trkpt>
<trkpt lat="-43.365539" lon="172.636428"><ele>5.500000</ele><time>2021-12-25T07:35:46Z</time><course>326.230010</course><speed>26.894641</speed></trkpt>
<trkpt lat="-43.359470" lon="172.630722"><ele>10.100001</ele><time>2021-12-25T07:36:16Z</time><course>325.420013</course><speed>27.250638</speed></trkpt>
<trkpt lat="-43.353401" lon="172.624954"><ele>11.000000</ele><time>2021-12-25T07:36:46Z</time><course>326.130004</course><speed>27.836076</speed></trkpt>
<trkpt lat="-43.347225" lon="172.619216"><ele>13.700000</ele><time>2021-12-25T07:37:16Z</time><course>325.959991</course><speed>27.007820</speed></trkpt>
<trkpt lat="-43.341224" lon="172.613647"><ele>16.100000</ele><time>2021-12-25T07:37:46Z</time><course>325.920013</course><speed>26.503150</speed></trkpt>
<trkpt lat="-43.335319" lon="172.608139"><ele>18.799999</ele><time>2021-12-25T07:38:16Z</time><course>326.070007</course><speed>26.269077</speed></trkpt>
<trkpt lat="-43.330970" lon="172.604080"><ele>20.500000</ele><time>2021-12-25T07:38:46Z</time><course>278.089996</course><speed>11.296687</speed></trkpt>
<trkpt lat="-43.327899" lon="172.601013"><ele>21.500000</ele><time>2021-12-25T07:39:16Z</time><course>326.070007</course><speed>14.670414</speed></trkpt>
<trkpt lat="-43.324447" lon="172.598541"><ele>24.100000</ele><time>2021-12-25T07:39:46Z</time><course>349.640014</course><speed>14.496017</speed></trkpt>
<trkpt lat="-43.320484" lon="172.597564"><ele>22.700000</ele><time>2021-12-25T07:40:16Z</time><course>349.970001</course><speed>14.814972</speed></trkpt>
<trkpt lat="-43.317493" lon="172.597000"><ele>22.600000</ele><time>2021-12-25T07:40:46Z</time><course>12.470001</course><speed>11.962892</speed></trkpt>
<trkpt lat="-43.313812" lon="172.596450"><ele>23.500000</ele><time>2021-12-25T07:41:16Z</time><course>349.760009</course><speed>14.121501</speed></trkpt>
<trkpt lat="-43.312080" lon="172.594421"><ele>26.500000</ele><time>2021-12-25T07:41:46Z</time><course>296.089996</course><speed>12.610578</speed></trkpt>
<trkpt lat="-43.311519" lon="172.590988"><ele>28.299999</ele><time>2021-12-25T07:42:16Z</time><course>260.640014</course><speed>10.322843</speed></trkpt>
<trkpt lat="-43.311512" lon="172.587478"><ele>32.000000</ele><time>2021-12-25T07:42:46Z</time><course>351.329986</course><speed>10.505471</speed></trkpt>
<trkpt lat="-43.308506" lon="172.586715"><ele>31.500000</ele><time>2021-12-25T07:43:16Z</time><course>330.529998</course><speed>3.842900</speed></trkpt>
<trkpt lat="-43.308792" lon="172.585006"><ele>32.700000</ele><time>2021-12-25T07:43:46Z</time><course>263.250000</course><speed>5.417615</speed></trkpt>
<trkpt lat="-43.308887" lon="172.584182"><ele>29.700000</ele><time>2021-12-25T07:44:16Z</time><course>0.000000</course><speed>0.799447</speed></trkpt>
<trkpt lat="-43.308925" lon="172.584075"><ele>29.100000</ele><time>2021-12-25T07:44:46Z</time><course>0.000000</course><speed>0.080253</speed></trkpt>
<trkpt lat="-43.308898" lon="172.584304"><ele>34.400001</ele><time>2021-12-25T07:45:16Z</time><course>0.000000</course><speed>0.611674</speed></trkpt>
<trkpt lat="-43.308849" lon="172.584182"><ele>31.100000</ele><time>2021-12-25T07:45:46Z</time><course>0.000000</course><speed>0.030867</speed></trkpt>
</trkseg></trk></gpx>
