<?xml version="1.0"?>
<gpx creator="GPS Tracker http://www.geoffg.net/tracker.html/" version="1.0" xmlns="http://www.topografix.com/GPX/1/0" xmlns:xsi="http://www.w3.org/2001/XMLSchema-instance" xsi:schemaLocation="http://www.topografix.com/GPX/1/0 http://www.topografix.com/GPX/1/0/gpx.xsd">
<trk>
<name>Tracker log 2022-01-05 14:24 #07</name>
<trkseg>
<trkpt lat="-40.759159" lon="172.703292"><ele>21.299999</ele><time>2022-01-05T01:22:23Z</time><course>0.000000</course><speed>0.781956</speed></trkpt>
<trkpt lat="-40.759021" lon="172.703216"><ele>30.600000</ele><time>2022-01-05T01:22:53Z</time><course>1.350000</course><speed>2.266642</speed></trkpt>
<trkpt lat="-40.758735" lon="172.703399"><ele>29.700000</ele><time>2022-01-05T01:23:23Z</time><course>160.630004</course><speed>4.955644</speed></trkpt>
<trkpt lat="-40.762500" lon="172.705627"><ele>29.100000</ele><time>2022-01-05T01:23:53Z</time><course>155.229995</course><speed>19.386840</speed></trkpt>
<trkpt lat="-40.767116" lon="172.709335"><ele>33.799999</ele><time>2022-01-05T01:24:23Z</time><course>133.500000</course><speed>21.718301</speed></trkpt>
<trkpt lat="-40.771003" lon="172.714477"><ele>42.000000</ele><time>2022-01-05T01:24:53Z</time><course>152.279998</course><speed>20.053560</speed></trkpt>
<trkpt lat="-40.774719" lon="172.718734"><ele>51.000000</ele><time>2022-01-05T01:25:23Z</time><course>161.740005</course><speed>20.233615</speed></trkpt>
<trkpt lat="-40.779651" lon="172.721954"><ele>72.099998</ele><time>2022-01-05T01:25:53Z</time><course>149.029998</course><speed>22.851621</speed></trkpt>
<trkpt lat="-40.784801" lon="172.725982"><ele>88.199996</ele><time>2022-01-05T01:26:23Z</time><course>150.169998</course><speed>21.121032</speed></trkpt>
<trkpt lat="-40.790164" lon="172.726623"><ele>82.500000</ele><time>2022-01-05T01:26:53Z</time><course>175.610000</course><speed>23.125307</speed></trkpt>
<trkpt lat="-40.792892" lon="172.733306"><ele>64.900001</ele><time>2022-01-05T01:27:23Z</time><course>99.959999</course><speed>23.629976</speed></trkpt>
<trkpt lat="-40.796962" lon="172.739410"><ele>57.900001</ele><time>2022-01-05T01:27:53Z</time><course>135.869995</course><speed>23.284271</speed></trkpt>
<trkpt lat="-40.801307" lon="172.745040"><ele>49.799999</ele><time>2022-01-05T01:28:23Z</time><course>135.660003</course><speed>22.667451</speed></trkpt>
<trkpt lat="-40.805706" lon="172.750671"><ele>43.799999</ele><time>2022-01-05T01:28:53Z</time><course>135.960006</course><speed>22.664878</speed></trkpt>
<trkpt lat="-40.810256" lon="172.755981"><ele>36.799999</ele><time>2022-01-05T01:29:23Z</time><course>140.300003</course><speed>22.942165</speed></trkpt>
<trkpt lat="-40.813896" lon="172.761505"><ele>44.799999</ele><time>2022-01-05T01:29:53Z</time><course>102.400001</course><speed>22.126771</speed></trkpt>
<trkpt lat="-40.816608" lon="172.767334"><ele>29.600000</ele><time>2022-01-05T01:30:23Z</time><course>81.220001</course><speed>21.481657</speed></trkpt>
<trkpt lat="-40.818088" lon="172.774063"><ele>40.599998</ele><time>2022-01-05T01:30:53Z</time><course>117.489997</course><speed>20.484664</speed></trkpt>
<trkpt lat="-40.818733" lon="172.781555"><ele>39.400001</ele><time>2022-01-05T01:31:23Z</time><course>106.169998</course><speed>23.511140</speed></trkpt>
<trkpt lat="-40.821872" lon="172.787414"><ele>60.299999</ele><time>2022-01-05T01:31:53Z</time><course>142.270004</course><speed>18.745842</speed></trkpt>
<trkpt lat="-40.826278" lon="172.791168"><ele>28.100000</ele><time>2022-01-05T01:32:23Z</time><course>142.860000</course><speed>19.652807</speed></trkpt>
<trkpt lat="-40.831298" lon="172.793319"><ele>20.700000</ele><time>2022-01-05T01:32:53Z</time><course>159.990005</course><speed>19.017467</speed></trkpt>
<trkpt lat="-40.833953" lon="172.797821"><ele>13.900000</ele><time>2022-01-05T01:33:23Z</time><course>103.040000</course><speed>14.875677</speed></trkpt>
<trkpt lat="-40.837318" lon="172.801010"><ele>15.900000</ele><time>2022-01-05T01:33:53Z</time><course>173.429992</course><speed>19.760326</speed></trkpt>
<trkpt lat="-40.842456" lon="172.801773"><ele>16.100000</ele><time>2022-01-05T01:34:23Z</time><course>173.570007</course><speed>16.704011</speed></trkpt>
<trkpt lat="-40.845626" lon="172.804428"><ele>16.399999</ele><time>2022-01-05T01:34:53Z</time><course>135.580001</course><speed>14.187865</speed></trkpt>
<trkpt lat="-40.848026" lon="172.807495"><ele>15.400000</ele><time>2022-01-05T01:35:23Z</time><course>135.770004</course><speed>11.504523</speed></trkpt>
<trkpt lat="-40.851142" lon="172.807418"><ele>14.600001</ele><time>2022-01-05T01:35:53Z</time><course>186.690002</course><speed>11.931511</speed></trkpt>
<trkpt lat="-40.854099" lon="172.806930"><ele>18.200000</ele><time>2022-01-05T01:36:23Z</time><course>187.300003</course><speed>10.021894</speed></trkpt>
<trkpt lat="-40.856159" lon="172.806655"><ele>18.000000</ele><time>2022-01-05T01:36:53Z</time><course>0.000000</course><speed>0.039098</speed></trkpt>
<trkpt lat="-40.856151" lon="172.806655"><ele>24.799999</ele><time>2022-01-05T01:37:23Z</time><course>0.000000</course><speed>0.008231</speed></trkpt>
</trkseg></trk></gpx>
