<?xml version="1.0"?>
<gpx creator="GPS Tracker http://www.geoffg.net/tracker.html/" version="1.0" xmlns="http://www.topografix.com/GPX/1/0" xmlns:xsi="http://www.w3.org/2001/XMLSchema-instance" xsi:schemaLocation="http://www.topografix.com/GPX/1/0 http://www.topografix.com/GPX/1/0/gpx.xsd">
<trk>
<name>Tracker log 2022-01-05 09:16 #02</name>
<trkseg>
<trkpt lat="-41.023517" lon="172.908126"><ele>602.799987</ele><time>2022-01-04T20:15:35Z</time><course>105.980003</course><speed>2.042345</speed></trkpt>
<trkpt lat="-41.023204" lon="172.907394"><ele>611.599975</ele><time>2022-01-04T20:16:05Z</time><course>279.839996</course><speed>9.172031</speed></trkpt>
<trkpt lat="-41.023479" lon="172.903350"><ele>638.099975</ele><time>2022-01-04T20:16:35Z</time><course>275.399993</course><speed>13.937845</speed></trkpt>
<trkpt lat="-41.021221" lon="172.901977"><ele>662.299987</ele><time>2022-01-04T20:17:05Z</time><course>345.799987</course><speed>10.046072</speed></trkpt>
<trkpt lat="-41.019527" lon="172.900054"><ele>668.400024</ele><time>2022-01-04T20:17:35Z</time><course>321.179992</course><speed>2.958570</speed></trkpt>
<trkpt lat="-41.019508" lon="172.900314"><ele>671.500000</ele><time>2022-01-04T20:18:05Z</time><course>0.000000</course><speed>0.050416</speed></trkpt>
<trkpt lat="-41.019500" lon="172.899963"><ele>673.299987</ele><time>2022-01-04T20:18:35Z</time><course>253.449996</course><speed>4.406731</speed></trkpt>
<trkpt lat="-41.020328" lon="172.896240"><ele>674.200012</ele><time>2022-01-04T20:19:05Z</time><course>244.839996</course><speed>13.739270</speed></trkpt>
<trkpt lat="-41.020481" lon="172.891677"><ele>670.700012</ele><time>2022-01-04T20:19:35Z</time><course>218.080001</course><speed>10.100604</speed></trkpt>
<trkpt lat="-41.019073" lon="172.888824"><ele>663.900024</ele><time>2022-01-04T20:20:05Z</time><course>275.179992</course><speed>14.948728</speed></trkpt>
<trkpt lat="-41.019989" lon="172.884643"><ele>671.200012</ele><time>2022-01-04T20:20:35Z</time><course>218.779998</course><speed>9.870647</speed></trkpt>
<trkpt lat="-41.021263" lon="172.880935"><ele>693.900024</ele><time>2022-01-04T20:21:05Z</time><course>246.169998</course><speed>13.093127</speed></trkpt>
<trkpt lat="-41.024047" lon="172.879440"><ele>713.900024</ele><time>2022-01-04T20:21:35Z</time><course>180.949996</course><speed>14.821661</speed></trkpt>
<trkpt lat="-41.027805" lon="172.877716"><ele>735.200012</ele><time>2022-01-04T20:22:05Z</time><course>213.369995</course><speed>15.533137</speed></trkpt>
<trkpt lat="-41.031188" lon="172.875717"><ele>764.200012</ele><time>2022-01-04T20:22:35Z</time><course>238.929992</course><speed>13.119878</speed></trkpt>
<trkpt lat="-41.030956" lon="172.872177"><ele>780.700012</ele><time>2022-01-04T20:23:05Z</time><course>309.149993</course><speed>13.401794</speed></trkpt>
<trkpt lat="-41.030261" lon="172.867584"><ele>802.400024</ele><time>2022-01-04T20:23:35Z</time><course>261.350006</course><speed>12.911527</speed></trkpt>
<trkpt lat="-41.031562" lon="172.863967"><ele>808.400024</ele><time>2022-01-04T20:24:05Z</time><course>232.029998</course><speed>14.902428</speed></trkpt>
<trkpt lat="-41.032985" lon="172.859680"><ele>799.900024</ele><time>2022-01-04T20:24:35Z</time><course>271.690002</course><speed>10.805392</speed></trkpt>
<trkpt lat="-41.034122" lon="172.856658"><ele>779.799987</ele><time>2022-01-04T20:25:05Z</time><course>203.720001</course><speed>11.840969</speed></trkpt>
<trkpt lat="-41.034492" lon="172.855667"><ele>755.000000</ele><time>2022-01-04T20:25:35Z</time><course>62.650001</course><speed>11.562654</speed></trkpt>
<trkpt lat="-41.032474" lon="172.857696"><ele>728.500000</ele><time>2022-01-04T20:26:05Z</time><course>14.780000</course><speed>9.537801</speed></trkpt>
<trkpt lat="-41.030029" lon="172.858383"><ele>705.400024</ele><time>2022-01-04T20:26:35Z</time><course>350.010009</course><speed>13.166692</speed></trkpt>
<trkpt lat="-41.027763" lon="172.856994"><ele>677.000000</ele><time>2022-01-04T20:27:05Z</time><course>277.609985</course><speed>9.329965</speed></trkpt>
<trkpt lat="-41.025760" lon="172.854797"><ele>659.900024</ele><time>2022-01-04T20:27:35Z</time><course>323.529998</course><speed>11.818333</speed></trkpt>
<trkpt lat="-41.023269" lon="172.852188"><ele>630.900024</ele><time>2022-01-04T20:28:05Z</time><course>356.299987</course><speed>11.161387</speed></trkpt>
<trkpt lat="-41.021072" lon="172.851043"><ele>614.900024</ele><time>2022-01-04T20:28:35Z</time><course>357.609985</course><speed>13.012873</speed></trkpt>
<trkpt lat="-41.019016" lon="172.848892"><ele>589.500000</ele><time>2022-01-04T20:29:05Z</time><course>295.470001</course><speed>9.655094</speed></trkpt>
<trkpt lat="-41.019302" lon="172.848587"><ele>571.500000</ele><time>2022-01-04T20:29:35Z</time><course>137.820007</course><speed>9.916432</speed></trkpt>
<trkpt lat="-41.021823" lon="172.849380"><ele>544.700012</ele><time>2022-01-04T20:30:05Z</time><course>200.509994</course><speed>12.847737</speed></trkpt>
<trkpt lat="-41.024398" lon="172.848388"><ele>528.000000</ele><time>2022-01-04T20:30:35Z</time><course>193.509994</course><speed>12.286993</speed></trkpt>
<trkpt lat="-41.026439" lon="172.850097"><ele>500.500000</ele><time>2022-01-04T20:31:05Z</time><course>180.029998</course><speed>7.948167</speed></trkpt>
<trkpt lat="-41.029151" lon="172.850387"><ele>476.299987</ele><time>2022-01-04T20:31:35Z</time><course>144.289993</course><speed>8.724464</speed></trkpt>
<trkpt lat="-41.030311" lon="172.850265"><ele>459.399993</ele><time>2022-01-04T20:32:05Z</time><course>237.360000</course><speed>11.952089</speed></trkpt>
<trkpt lat="-41.032382" lon="172.846954"><ele>436.799987</ele><time>2022-01-04T20:32:35Z</time><course>216.029998</course><speed>12.354384</speed></trkpt>
<trkpt lat="-41.034461" lon="172.843978"><ele>402.000000</ele><time>2022-01-04T20:33:05Z</time><course>193.080001</course><speed>10.852206</speed></trkpt>
<trkpt lat="-41.037612" lon="172.843872"><ele>370.100006</ele><time>2022-01-04T20:33:35Z</time><course>159.029998</course><speed>12.854424</speed></trkpt>
<trkpt lat="-41.040790" lon="172.845459"><ele>346.600006</ele><time>2022-01-04T20:34:05Z</time><course>183.809997</course><speed>11.441246</speed></trkpt>
<trkpt lat="-41.043712" lon="172.846008"><ele>327.000000</ele><time>2022-01-04T20:34:35Z</time><course>190.789993</course><speed>5.780813</speed></trkpt>
<trkpt lat="-41.040836" lon="172.844467"><ele>304.799987</ele><time>2022-01-04T20:35:05Z</time><course>337.320007</course><speed>13.975400</speed></trkpt>
<trkpt lat="-41.038368" lon="172.841491"><ele>275.100006</ele><time>2022-01-04T20:35:35Z</time><course>0.000000</course><speed>0.060704</speed></trkpt>
<trkpt lat="-41.038356" lon="172.841461"><ele>280.700012</ele><time>2022-01-04T20:36:05Z</time><course>0.000000</course><speed>0.017491</speed></trkpt>
<trkpt lat="-41.038341" lon="172.841461"><ele>278.799987</ele><time>2022-01-04T20:36:35Z</time><course>0.000000</course><speed>0.016977</speed></trkpt>
<trkpt lat="-41.038280" lon="172.841415"><ele>278.799987</ele><time>2022-01-04T20:37:05Z</time><course>334.940002</course><speed>4.361975</speed></trkpt>
<trkpt lat="-41.035381" lon="172.839843"><ele>254.000000</ele><time>2022-01-04T20:37:35Z</time><course>328.850006</course><speed>12.478365</speed></trkpt>
<trkpt lat="-41.032295" lon="172.838912"><ele>227.500000</ele><time>2022-01-04T20:38:05Z</time><course>276.149993</course><speed>7.543814</speed></trkpt>
<trkpt lat="-41.035224" lon="172.835907"><ele>193.399993</ele><time>2022-01-04T20:38:35Z</time><course>220.240005</course><speed>16.612440</speed></trkpt>
<trkpt lat="-41.036190" lon="172.830429"><ele>154.500000</ele><time>2022-01-04T20:39:05Z</time><course>285.640014</course><speed>18.262264</speed></trkpt>
<trkpt lat="-41.034187" lon="172.824417"><ele>120.099998</ele><time>2022-01-04T20:39:35Z</time><course>298.119995</course><speed>16.479200</speed></trkpt>
<trkpt lat="-41.030536" lon="172.822326"><ele>106.500000</ele><time>2022-01-04T20:40:05Z</time><course>355.100006</course><speed>18.001955</speed></trkpt>
<trkpt lat="-41.025791" lon="172.821884"><ele>99.199996</ele><time>2022-01-04T20:40:35Z</time><course>359.100006</course><speed>17.850709</speed></trkpt>
<trkpt lat="-41.021038" lon="172.821655"><ele>88.800003</ele><time>2022-01-04T20:41:05Z</time><course>19.649999</course><speed>21.154470</speed></trkpt>
<trkpt lat="-41.015937" lon="172.823272"><ele>85.199996</ele><time>2022-01-04T20:41:35Z</time><course>32.060001</course><speed>19.485612</speed></trkpt>
<trkpt lat="-41.011371" lon="172.824539"><ele>82.300003</ele><time>2022-01-04T20:42:05Z</time><course>319.260009</course><speed>18.083751</speed></trkpt>
<trkpt lat="-41.006317" lon="172.825225"><ele>74.000000</ele><time>2022-01-04T20:42:35Z</time><course>11.250000</course><speed>20.314382</speed></trkpt>
<trkpt lat="-41.001194" lon="172.825149"><ele>74.099998</ele><time>2022-01-04T20:43:05Z</time><course>1.450000</course><speed>17.009077</speed></trkpt>
<trkpt lat="-40.997081" lon="172.823501"><ele>75.699996</ele><time>2022-01-04T20:43:35Z</time><course>311.510009</course><speed>19.666698</speed></trkpt>
<trkpt lat="-40.991832" lon="172.821731"><ele>69.300003</ele><time>2022-01-04T20:44:05Z</time><course>350.119995</course><speed>20.716165</speed></trkpt>
<trkpt lat="-40.987091" lon="172.818695"><ele>69.199996</ele><time>2022-01-04T20:44:35Z</time><course>314.769989</course><speed>20.130727</speed></trkpt>
<trkpt lat="-40.981929" lon="172.818161"><ele>65.300003</ele><time>2022-01-04T20:45:05Z</time><course>350.410003</course><speed>19.789135</speed></trkpt>
<trkpt lat="-40.977157" lon="172.815002"><ele>63.500000</ele><time>2022-01-04T20:45:35Z</time><course>347.500000</course><speed>19.383752</speed></trkpt>
<trkpt lat="-40.971546" lon="172.815841"><ele>63.000000</ele><time>2022-01-04T20:46:05Z</time><course>6.850000</course><speed>21.401405</speed></trkpt>
<trkpt lat="-40.966526" lon="172.816497"><ele>62.400001</ele><time>2022-01-04T20:46:35Z</time><course>38.139999</course><speed>20.385890</speed></trkpt>
<trkpt lat="-40.962825" lon="172.820739"><ele>60.099998</ele><time>2022-01-04T20:47:05Z</time><course>63.689998</course><speed>13.338003</speed></trkpt>
<trkpt lat="-40.959178" lon="172.820465"><ele>62.599998</ele><time>2022-01-04T20:47:35Z</time><course>339.019989</course><speed>20.487751</speed></trkpt>
<trkpt lat="-40.953861" lon="172.818115"><ele>62.200000</ele><time>2022-01-04T20:48:05Z</time><course>339.200012</course><speed>21.002195</speed></trkpt>
<trkpt lat="-40.950996" lon="172.814437"><ele>51.200000</ele><time>2022-01-04T20:48:35Z</time><course>301.809997</course><speed>15.897364</speed></trkpt>
<trkpt lat="-40.948360" lon="172.809768"><ele>50.099998</ele><time>2022-01-04T20:49:05Z</time><course>339.410003</course><speed>19.325105</speed></trkpt>
<trkpt lat="-40.943161" lon="172.807052"><ele>48.500000</ele><time>2022-01-04T20:49:35Z</time><course>0.930000</course><speed>21.170932</speed></trkpt>
<trkpt lat="-40.937572" lon="172.807159"><ele>47.900001</ele><time>2022-01-04T20:50:05Z</time><course>348.750000</course><speed>18.748928</speed></trkpt>
<trkpt lat="-40.934650" lon="172.803146"><ele>50.400001</ele><time>2022-01-04T20:50:35Z</time><course>314.910003</course><speed>18.764360</speed></trkpt>
<trkpt lat="-40.929706" lon="172.801864"><ele>49.700000</ele><time>2022-01-04T20:51:05Z</time><course>344.989990</course><speed>21.329381</speed></trkpt>
<trkpt lat="-40.924972" lon="172.804290"><ele>47.400001</ele><time>2022-01-04T20:51:35Z</time><course>43.700000</course><speed>20.582408</speed></trkpt>
<trkpt lat="-40.919918" lon="172.804214"><ele>48.299999</ele><time>2022-01-04T20:52:05Z</time><course>4.890000</course><speed>21.637535</speed></trkpt>
<trkpt lat="-40.914295" lon="172.805648"><ele>45.500000</ele><time>2022-01-04T20:52:35Z</time><course>13.320000</course><speed>20.814937</speed></trkpt>
<trkpt lat="-40.908439" lon="172.807571"><ele>44.799999</ele><time>2022-01-04T20:53:05Z</time><course>14.620000</course><speed>23.080551</speed></trkpt>
<trkpt lat="-40.902404" lon="172.809631"><ele>40.000000</ele><time>2022-01-04T20:53:35Z</time><course>13.230000</course><speed>23.049684</speed></trkpt>
<trkpt lat="-40.896354" lon="172.810089"><ele>31.000000</ele><time>2022-01-04T20:54:05Z</time><course>330.859985</course><speed>23.231798</speed></trkpt>
<trkpt lat="-40.891792" lon="172.804473"><ele>24.000000</ele><time>2022-01-04T20:54:35Z</time><course>335.730011</course><speed>22.729700</speed></trkpt>
<trkpt lat="-40.885990" lon="172.806381"><ele>23.200000</ele><time>2022-01-04T20:55:05Z</time><course>23.760000</course><speed>22.788347</speed></trkpt>
<trkpt lat="-40.882072" lon="172.812210"><ele>23.200000</ele><time>2022-01-04T20:55:35Z</time><course>61.700000</course><speed>21.462623</speed></trkpt>
<trkpt lat="-40.878124" lon="172.816116"><ele>34.299999</ele><time>2022-01-04T20:56:05Z</time><course>26.350000</course><speed>19.607021</speed></trkpt>
<trkpt lat="-40.872928" lon="172.816253"><ele>28.000000</ele><time>2022-01-04T20:56:35Z</time><course>336.570007</course><speed>21.103027</speed></trkpt>
<trkpt lat="-40.867900" lon="172.812759"><ele>15.100001</ele><time>2022-01-04T20:57:05Z</time><course>331.369995</course><speed>20.636425</speed></trkpt>
<trkpt lat="-40.863994" lon="172.808319"><ele>11.500000</ele><time>2022-01-04T20:57:35Z</time><course>311.519989</course><speed>16.757514</speed></trkpt>
<trkpt lat="-40.861785" lon="172.806625"><ele>9.700000</ele><time>2022-01-04T20:58:05Z</time><course>54.599998</course><speed>1.951288</speed></trkpt>
</trkseg></trk></gpx>
