<?xml version="1.0"?>
<gpx creator="GPS Tracker http://www.geoffg.net/tracker.html/" version="1.0" xmlns="http://www.topografix.com/GPX/1/0" xmlns:xsi="http://www.w3.org/2001/XMLSchema-instance" xsi:schemaLocation="http://www.topografix.com/GPX/1/0 http://www.topografix.com/GPX/1/0/gpx.xsd">
<trk>
<name>Tracker log 2022-01-06 11:35 #05</name>
<trkseg>
<trkpt lat="-41.163490" lon="172.993698"><ele>17.000000</ele><time>2022-01-05T22:34:02Z</time><course>0.000000</course><speed>0.002572</speed></trkpt>
<trkpt lat="-41.163501" lon="172.993652"><ele>11.700000</ele><time>2022-01-05T22:34:32Z</time><course>0.000000</course><speed>0.062762</speed></trkpt>
<trkpt lat="-41.163509" lon="172.993652"><ele>14.000000</ele><time>2022-01-05T22:35:02Z</time><course>0.000000</course><speed>0.076138</speed></trkpt>
<trkpt lat="-41.163471" lon="172.993652"><ele>10.800001</ele><time>2022-01-05T22:35:32Z</time><course>0.840000</course><speed>1.624616</speed></trkpt>
<trkpt lat="-41.163322" lon="172.993759"><ele>6.600000</ele><time>2022-01-05T22:36:02Z</time><course>0.000000</course><speed>0.603958</speed></trkpt>
<trkpt lat="-41.163867" lon="172.993408"><ele>7.300000</ele><time>2022-01-05T22:36:32Z</time><course>174.539993</course><speed>11.345044</speed></trkpt>
<trkpt lat="-41.168582" lon="172.994476"><ele>16.500000</ele><time>2022-01-05T22:37:02Z</time><course>152.160003</course><speed>19.332824</speed></trkpt>
<trkpt lat="-41.173625" lon="172.994751"><ele>15.000000</ele><time>2022-01-05T22:37:32Z</time><course>180.649993</course><speed>16.138122</speed></trkpt>
<trkpt lat="-41.178115" lon="172.993255"><ele>15.100001</ele><time>2022-01-05T22:38:02Z</time><course>191.020004</course><speed>19.436740</speed></trkpt>
<trkpt lat="-41.183734" lon="172.992675"><ele>16.799999</ele><time>2022-01-05T22:38:32Z</time><course>175.369995</course><speed>22.946281</speed></trkpt>
<trkpt lat="-41.189598" lon="172.993103"><ele>20.299999</ele><time>2022-01-05T22:39:02Z</time><course>174.199996</course><speed>22.158151</speed></trkpt>
<trkpt lat="-41.195228" lon="172.996109"><ele>27.500000</ele><time>2022-01-05T22:39:32Z</time><course>140.050003</course><speed>23.658786</speed></trkpt>
<trkpt lat="-41.200519" lon="172.999847"><ele>30.100000</ele><time>2022-01-05T22:40:02Z</time><course>151.869995</course><speed>22.187477</speed></trkpt>
<trkpt lat="-41.205574" lon="173.004196"><ele>34.200000</ele><time>2022-01-05T22:40:32Z</time><course>153.339996</course><speed>22.360843</speed></trkpt>
<trkpt lat="-41.210525" lon="173.008056"><ele>33.099998</ele><time>2022-01-05T22:41:02Z</time><course>128.830001</course><speed>19.736663</speed></trkpt>
<trkpt lat="-41.215759" lon="173.009689"><ele>29.399999</ele><time>2022-01-05T22:41:32Z</time><course>166.860000</course><speed>22.359300</speed></trkpt>
<trkpt lat="-41.221061" lon="173.012603"><ele>35.700000</ele><time>2022-01-05T22:42:02Z</time><course>174.149993</course><speed>18.762304</speed></trkpt>
<trkpt lat="-41.226631" lon="173.011413"><ele>40.799999</ele><time>2022-01-05T22:42:32Z</time><course>196.089996</course><speed>20.577264</speed></trkpt>
<trkpt lat="-41.232143" lon="173.008666"><ele>42.799999</ele><time>2022-01-05T22:43:02Z</time><course>199.419998</course><speed>15.660718</speed></trkpt>
<trkpt lat="-41.234973" lon="173.009979"><ele>53.700000</ele><time>2022-01-05T22:43:32Z</time><course>139.130004</course><speed>16.100568</speed></trkpt>
<trkpt lat="-41.238716" lon="173.014083"><ele>57.799999</ele><time>2022-01-05T22:44:02Z</time><course>140.889999</course><speed>17.458702</speed></trkpt>
<trkpt lat="-41.240543" lon="173.019302"><ele>46.599998</ele><time>2022-01-05T22:44:32Z</time><course>94.940002</course><speed>20.352966</speed></trkpt>
<trkpt lat="-41.240905" lon="173.025604"><ele>48.099998</ele><time>2022-01-05T22:45:02Z</time><course>93.940002</course><speed>17.898036</speed></trkpt>
<trkpt lat="-41.241268" lon="173.032394"><ele>51.299999</ele><time>2022-01-05T22:45:32Z</time><course>93.639999</course><speed>19.857555</speed></trkpt>
<trkpt lat="-41.241756" lon="173.039321"><ele>57.900001</ele><time>2022-01-05T22:46:02Z</time><course>110.930000</course><speed>18.151659</speed></trkpt>
<trkpt lat="-41.243743" lon="173.045791"><ele>70.099998</ele><time>2022-01-05T22:46:32Z</time><course>111.169998</course><speed>17.924274</speed></trkpt>
<trkpt lat="-41.244220" lon="173.052871"><ele>75.599998</ele><time>2022-01-05T22:47:02Z</time><course>91.910003</course><speed>19.788620</speed></trkpt>
<trkpt lat="-41.245170" lon="173.056274"><ele>77.400001</ele><time>2022-01-05T22:47:32Z</time><course>151.479995</course><speed>13.755217</speed></trkpt>
<trkpt lat="-41.248935" lon="173.062927"><ele>38.299999</ele><time>2022-01-05T22:48:02Z</time><course>106.919998</course><speed>27.260414</speed></trkpt>
<trkpt lat="-41.253067" lon="173.070953"><ele>7.500000</ele><time>2022-01-05T22:48:32Z</time><course>148.389999</course><speed>28.135997</speed></trkpt>
<trkpt lat="-41.259899" lon="173.071807"><ele>21.899999</ele><time>2022-01-05T22:49:02Z</time><course>214.589996</course><speed>27.715696</speed></trkpt>
<trkpt lat="-41.266872" lon="173.071731"><ele>17.799999</ele><time>2022-01-05T22:49:32Z</time><course>176.350006</course><speed>27.180158</speed></trkpt>
<trkpt lat="-41.273784" lon="173.071212"><ele>39.299999</ele><time>2022-01-05T22:50:02Z</time><course>213.270004</course><speed>27.132829</speed></trkpt>
<trkpt lat="-41.280628" lon="173.070938"><ele>9.600001</ele><time>2022-01-05T22:50:32Z</time><course>143.100006</course><speed>24.681503</speed></trkpt>
<trkpt lat="-41.284423" lon="173.077758"><ele>36.000000</ele><time>2022-01-05T22:51:02Z</time><course>127.339996</course><speed>24.278692</speed></trkpt>
<trkpt lat="-41.287448" lon="173.085083"><ele>10.400000</ele><time>2022-01-05T22:51:32Z</time><course>120.309997</course><speed>23.091354</speed></trkpt>
<trkpt lat="-41.291172" lon="173.090835"><ele>24.700000</ele><time>2022-01-05T22:52:02Z</time><course>118.470001</course><speed>21.898359</speed></trkpt>
<trkpt lat="-41.295017" lon="173.095611"><ele>28.100000</ele><time>2022-01-05T22:52:32Z</time><course>86.690002</course><speed>21.261991</speed></trkpt>
<trkpt lat="-41.297451" lon="173.102752"><ele>33.099998</ele><time>2022-01-05T22:53:02Z</time><course>120.319999</course><speed>21.915849</speed></trkpt>
<trkpt lat="-41.300605" lon="173.109924"><ele>13.200000</ele><time>2022-01-05T22:53:32Z</time><course>120.730003</course><speed>22.862426</speed></trkpt>
<trkpt lat="-41.303588" lon="173.116561"><ele>4.200000</ele><time>2022-01-05T22:54:02Z</time><course>121.069999</course><speed>20.077224</speed></trkpt>
<trkpt lat="-41.306392" lon="173.122894"><ele>10.600001</ele><time>2022-01-05T22:54:32Z</time><course>120.639999</course><speed>21.289770</speed></trkpt>
<trkpt lat="-41.310123" lon="173.128723"><ele>17.500000</ele><time>2022-01-05T22:55:02Z</time><course>138.229995</course><speed>21.730649</speed></trkpt>
<trkpt lat="-41.314445" lon="173.133636"><ele>12.600001</ele><time>2022-01-05T22:55:32Z</time><course>140.199996</course><speed>19.135789</speed></trkpt>
<trkpt lat="-41.318313" lon="173.137908"><ele>11.100001</ele><time>2022-01-05T22:56:02Z</time><course>140.500000</course><speed>18.570930</speed></trkpt>
<trkpt lat="-41.322528" lon="173.142517"><ele>7.300000</ele><time>2022-01-05T22:56:32Z</time><course>140.479995</course><speed>21.323209</speed></trkpt>
<trkpt lat="-41.327018" lon="173.147460"><ele>5.400000</ele><time>2022-01-05T22:57:02Z</time><course>139.910003</course><speed>21.840225</speed></trkpt>
<trkpt lat="-41.331504" lon="173.152435"><ele>7.500000</ele><time>2022-01-05T22:57:32Z</time><course>140.250000</course><speed>20.805164</speed></trkpt>
<trkpt lat="-41.335311" lon="173.156784"><ele>7.900000</ele><time>2022-01-05T22:58:02Z</time><course>137.279998</course><speed>11.845085</speed></trkpt>
<trkpt lat="-41.334064" lon="173.159606"><ele>7.900000</ele><time>2022-01-05T22:58:32Z</time><course>50.250000</course><speed>10.801791</speed></trkpt>
<trkpt lat="-41.333614" lon="173.160324"><ele>9.900000</ele><time>2022-01-05T22:59:02Z</time><course>158.029998</course><speed>2.215712</speed></trkpt>
<trkpt lat="-41.335205" lon="173.157867"><ele>12.200000</ele><time>2022-01-05T22:59:32Z</time><course>202.910003</course><speed>3.090268</speed></trkpt>
<trkpt lat="-41.335670" lon="173.158355"><ele>11.600001</ele><time>2022-01-05T23:00:02Z</time><course>137.679992</course><speed>2.952397</speed></trkpt>
<trkpt lat="-41.336215" lon="173.158645"><ele>13.900000</ele><time>2022-01-05T23:00:32Z</time><course>142.850006</course><speed>0.616819</speed></trkpt>
</trkseg></trk></gpx>
