<?xml version="1.0"?>
<gpx creator="GPS Tracker http://www.geoffg.net/tracker.html/" version="1.0" xmlns="http://www.topografix.com/GPX/1/0" xmlns:xsi="http://www.w3.org/2001/XMLSchema-instance" xsi:schemaLocation="http://www.topografix.com/GPX/1/0 http://www.topografix.com/GPX/1/0/gpx.xsd">
<trk>
<name>Tracker log 2022-01-07 16:14 #07</name>
<trkseg>
<trkpt lat="-41.084770" lon="175.455535"><ele>65.099998</ele><time>2022-01-07T03:13:11Z</time><course>41.880001</course><speed>8.881370</speed></trkpt>
<trkpt lat="-41.082118" lon="175.458465"><ele>61.799999</ele><time>2022-01-07T03:13:42Z</time><course>40.150001</course><speed>13.664160</speed></trkpt>
<trkpt lat="-41.079719" lon="175.461151"><ele>58.900001</ele><time>2022-01-07T03:14:12Z</time><course>41.040000</course><speed>8.216193</speed></trkpt>
<trkpt lat="-41.078155" lon="175.462875"><ele>60.299999</ele><time>2022-01-07T03:14:42Z</time><course>40.310001</course><speed>12.381135</speed></trkpt>
<trkpt lat="-41.077114" lon="175.463958"><ele>53.900001</ele><time>2022-01-07T03:15:12Z</time><course>0.000000</course><speed>0.081282</speed></trkpt>
<trkpt lat="-41.077129" lon="175.463958"><ele>55.500000</ele><time>2022-01-07T03:15:42Z</time><course>0.000000</course><speed>0.098259</speed></trkpt>
<trkpt lat="-41.077125" lon="175.463958"><ele>56.799999</ele><time>2022-01-07T03:16:12Z</time><course>0.000000</course><speed>0.016462</speed></trkpt>
<trkpt lat="-41.077018" lon="175.464080"><ele>58.900001</ele><time>2022-01-07T03:16:41Z</time><course>44.869998</course><speed>5.617733</speed></trkpt>
<trkpt lat="-41.074211" lon="175.467269"><ele>57.099998</ele><time>2022-01-07T03:17:12Z</time><course>40.419998</course><speed>15.408127</speed></trkpt>
<trkpt lat="-41.070190" lon="175.471710"><ele>55.599998</ele><time>2022-01-07T03:17:41Z</time><course>39.790000</course><speed>21.985813</speed></trkpt>
<trkpt lat="-41.066841" lon="175.478729"><ele>53.599998</ele><time>2022-01-07T03:18:11Z</time><course>72.550003</course><speed>25.909996</speed></trkpt>
<trkpt lat="-41.064685" lon="175.487365"><ele>52.799999</ele><time>2022-01-07T03:18:41Z</time><course>63.020000</course><speed>25.750518</speed></trkpt>
<trkpt lat="-41.059585" lon="175.494079"><ele>53.000000</ele><time>2022-01-07T03:19:11Z</time><course>34.979999</course><speed>26.806673</speed></trkpt>
<trkpt lat="-41.052761" lon="175.497146"><ele>50.700000</ele><time>2022-01-07T03:19:41Z</time><course>15.200000</course><speed>25.965555</speed></trkpt>
<trkpt lat="-41.047775" lon="175.502670"><ele>59.200000</ele><time>2022-01-07T03:20:11Z</time><course>46.130001</course><speed>25.704732</speed></trkpt>
<trkpt lat="-41.043712" lon="175.507827"><ele>66.099998</ele><time>2022-01-07T03:20:41Z</time><course>42.250000</course><speed>13.758303</speed></trkpt>
<trkpt lat="-41.041122" lon="175.510849"><ele>67.900001</ele><time>2022-01-07T03:21:11Z</time><course>40.700000</course><speed>12.873459</speed></trkpt>
<trkpt lat="-41.038284" lon="175.514007"><ele>69.599998</ele><time>2022-01-07T03:21:41Z</time><course>39.900001</course><speed>14.172945</speed></trkpt>
<trkpt lat="-41.035305" lon="175.517227"><ele>72.900001</ele><time>2022-01-07T03:22:11Z</time><course>38.310001</course><speed>14.332938</speed></trkpt>
<trkpt lat="-41.032894" lon="175.519729"><ele>72.400001</ele><time>2022-01-07T03:22:41Z</time><course>38.569999</course><speed>8.931785</speed></trkpt>
<trkpt lat="-41.030151" lon="175.522506"><ele>76.699996</ele><time>2022-01-07T03:23:11Z</time><course>36.759998</course><speed>12.894036</speed></trkpt>
<trkpt lat="-41.027565" lon="175.525009"><ele>76.400001</ele><time>2022-01-07T03:23:41Z</time><course>36.259998</course><speed>5.126954</speed></trkpt>
<trkpt lat="-41.025287" lon="175.527160"><ele>76.500000</ele><time>2022-01-07T03:24:11Z</time><course>35.349998</course><speed>10.951495</speed></trkpt>
<trkpt lat="-41.023174" lon="175.529083"><ele>86.199996</ele><time>2022-01-07T03:24:41Z</time><course>28.159999</course><speed>6.448047</speed></trkpt>
<trkpt lat="-41.020751" lon="175.531356"><ele>82.300003</ele><time>2022-01-07T03:25:11Z</time><course>34.470001</course><speed>12.326604</speed></trkpt>
<trkpt lat="-41.017795" lon="175.534072"><ele>89.400001</ele><time>2022-01-07T03:25:41Z</time><course>34.970001</course><speed>14.059253</speed></trkpt>
<trkpt lat="-41.014350" lon="175.537765"><ele>93.000000</ele><time>2022-01-07T03:26:11Z</time><course>59.529998</course><speed>19.906429</speed></trkpt>
<trkpt lat="-41.011444" lon="175.544265"><ele>88.400001</ele><time>2022-01-07T03:26:41Z</time><course>59.259998</course><speed>21.837139</speed></trkpt>
<trkpt lat="-41.008464" lon="175.550872"><ele>87.699996</ele><time>2022-01-07T03:27:11Z</time><course>58.680000</course><speed>21.659141</speed></trkpt>
<trkpt lat="-41.003757" lon="175.556198"><ele>90.599998</ele><time>2022-01-07T03:27:41Z</time><course>11.710001</course><speed>25.360055</speed></trkpt>
<trkpt lat="-40.997707" lon="175.559875"><ele>97.099998</ele><time>2022-01-07T03:28:11Z</time><course>49.240001</course><speed>26.614271</speed></trkpt>
<trkpt lat="-40.992958" lon="175.567077"><ele>100.900001</ele><time>2022-01-07T03:28:41Z</time><course>49.069999</course><speed>26.988269</speed></trkpt>
<trkpt lat="-40.988224" lon="175.574279"><ele>99.000000</ele><time>2022-01-07T03:29:11Z</time><course>49.009998</course><speed>26.647193</speed></trkpt>
<trkpt lat="-40.983474" lon="175.581527"><ele>111.699996</ele><time>2022-01-07T03:29:41Z</time><course>49.279998</course><speed>26.804615</speed></trkpt>
<trkpt lat="-40.978778" lon="175.588623"><ele>114.699996</ele><time>2022-01-07T03:30:11Z</time><course>49.189998</course><speed>26.571058</speed></trkpt>
<trkpt lat="-40.974098" lon="175.595809"><ele>119.900001</ele><time>2022-01-07T03:30:41Z</time><course>50.080001</course><speed>25.923885</speed></trkpt>
<trkpt lat="-40.969409" lon="175.602569"><ele>123.400001</ele><time>2022-01-07T03:31:11Z</time><course>46.880001</course><speed>25.096658</speed></trkpt>
<trkpt lat="-40.964836" lon="175.608871"><ele>125.900001</ele><time>2022-01-07T03:31:41Z</time><course>50.889999</course><speed>23.034765</speed></trkpt>
<trkpt lat="-40.962513" lon="175.614883"><ele>118.400001</ele><time>2022-01-07T03:32:11Z</time><course>86.910003</course><speed>18.042594</speed></trkpt>
<trkpt lat="-40.962257" lon="175.621353"><ele>113.599998</ele><time>2022-01-07T03:32:41Z</time><course>86.629997</course><speed>15.625222</speed></trkpt>
<trkpt lat="-40.962032" lon="175.626709"><ele>111.099998</ele><time>2022-01-07T03:33:11Z</time><course>87.230003</course><speed>14.900370</speed></trkpt>
<trkpt lat="-40.961788" lon="175.632186"><ele>106.599998</ele><time>2022-01-07T03:33:41Z</time><course>79.970001</course><speed>15.450826</speed></trkpt>
<trkpt lat="-40.960662" lon="175.637359"><ele>104.400001</ele><time>2022-01-07T03:34:11Z</time><course>73.330001</course><speed>14.884937</speed></trkpt>
<trkpt lat="-40.959487" lon="175.642547"><ele>104.199996</ele><time>2022-01-07T03:34:41Z</time><course>72.379997</course><speed>14.562895</speed></trkpt>
<trkpt lat="-40.957942" lon="175.646469"><ele>104.699996</ele><time>2022-01-07T03:35:11Z</time><course>46.909999</course><speed>13.090554</speed></trkpt>
<trkpt lat="-40.955749" lon="175.649978"><ele>108.500000</ele><time>2022-01-07T03:35:41Z</time><course>50.529998</course><speed>13.305078</speed></trkpt>
<trkpt lat="-40.953479" lon="175.653488"><ele>106.199996</ele><time>2022-01-07T03:36:11Z</time><course>50.319999</course><speed>13.190872</speed></trkpt>
<trkpt lat="-40.951576" lon="175.656585"><ele>103.400001</ele><time>2022-01-07T03:36:41Z</time><course>51.549999</course><speed>9.794508</speed></trkpt>
<trkpt lat="-40.949993" lon="175.659103"><ele>101.400001</ele><time>2022-01-07T03:37:11Z</time><course>50.259998</course><speed>10.130956</speed></trkpt>
<trkpt lat="-40.948745" lon="175.661056"><ele>104.400001</ele><time>2022-01-07T03:37:41Z</time><course>54.090000</course><speed>8.812949</speed></trkpt>
<trkpt lat="-40.946655" lon="175.664428"><ele>107.199996</ele><time>2022-01-07T03:38:11Z</time><course>50.349998</course><speed>13.739270</speed></trkpt>
<trkpt lat="-40.945972" lon="175.667907"><ele>108.300003</ele><time>2022-01-07T03:38:41Z</time><course>50.599998</course><speed>11.339386</speed></trkpt>
<trkpt lat="-40.942916" lon="175.669677"><ele>117.699996</ele><time>2022-01-07T03:39:11Z</time><course>8.340001</course><speed>14.119958</speed></trkpt>
<trkpt lat="-40.939067" lon="175.670410"><ele>129.500000</ele><time>2022-01-07T03:39:41Z</time><course>8.160000</course><speed>14.298985</speed></trkpt>
<trkpt lat="-40.936267" lon="175.670913"><ele>136.600006</ele><time>2022-01-07T03:40:11Z</time><course>0.000000</course><speed>0.032410</speed></trkpt>
<trkpt lat="-40.935688" lon="175.671051"><ele>133.699996</ele><time>2022-01-07T03:40:41Z</time><course>6.970000</course><speed>11.527157</speed></trkpt>
<trkpt lat="-40.930274" lon="175.672088"><ele>136.000000</ele><time>2022-01-07T03:41:11Z</time><course>8.800001</course><speed>23.992147</speed></trkpt>
<trkpt lat="-40.924179" lon="175.670730"><ele>136.800003</ele><time>2022-01-07T03:41:41Z</time><course>347.209991</course><speed>21.512525</speed></trkpt>
<trkpt lat="-40.918472" lon="175.669021"><ele>136.000000</ele><time>2022-01-07T03:42:11Z</time><course>347.369995</course><speed>21.441532</speed></trkpt>
<trkpt lat="-40.913406" lon="175.667480"><ele>139.100006</ele><time>2022-01-07T03:42:41Z</time><course>347.019989</course><speed>21.393686</speed></trkpt>
<trkpt lat="-40.906925" lon="175.665512"><ele>144.199996</ele><time>2022-01-07T03:43:11Z</time><course>346.790008</course><speed>27.162668</speed></trkpt>
<trkpt lat="-40.899524" lon="175.663269"><ele>145.500000</ele><time>2022-01-07T03:43:41Z</time><course>347.000000</course><speed>28.167892</speed></trkpt>
<trkpt lat="-40.893753" lon="175.661529"><ele>147.100006</ele><time>2022-01-07T03:44:11Z</time><course>347.510009</course><speed>13.152802</speed></trkpt>
<trkpt lat="-40.889099" lon="175.660171"><ele>147.500000</ele><time>2022-01-07T03:44:41Z</time><course>347.609985</course><speed>22.231718</speed></trkpt>
<trkpt lat="-40.882354" lon="175.658203"><ele>156.100006</ele><time>2022-01-07T03:45:11Z</time><course>348.480011</course><speed>26.398717</speed></trkpt>
<trkpt lat="-40.876449" lon="175.653472"><ele>170.899993</ele><time>2022-01-07T03:45:41Z</time><course>326.130004</course><speed>27.107622</speed></trkpt>
<trkpt lat="-40.870098" lon="175.647949"><ele>173.000000</ele><time>2022-01-07T03:46:11Z</time><course>328.609985</course><speed>28.445177</speed></trkpt>
<trkpt lat="-40.863426" lon="175.643371"><ele>171.500000</ele><time>2022-01-07T03:46:41Z</time><course>336.450012</course><speed>28.302677</speed></trkpt>
<trkpt lat="-40.856613" lon="175.639434"><ele>178.000000</ele><time>2022-01-07T03:47:11Z</time><course>336.010009</course><speed>28.201332</speed></trkpt>
<trkpt lat="-40.849647" lon="175.635437"><ele>183.500000</ele><time>2022-01-07T03:47:41Z</time><course>336.750000</course><speed>27.340150</speed></trkpt>
<trkpt lat="-40.842792" lon="175.631576"><ele>197.000000</ele><time>2022-01-07T03:48:11Z</time><course>344.779998</course><speed>26.447589</speed></trkpt>
<trkpt lat="-40.835571" lon="175.628952"><ele>205.899993</ele><time>2022-01-07T03:48:41Z</time><course>344.380004</course><speed>28.737382</speed></trkpt>
<trkpt lat="-40.828037" lon="175.626174"><ele>212.800003</ele><time>2022-01-07T03:49:11Z</time><course>344.100006</course><speed>28.854677</speed></trkpt>
<trkpt lat="-40.820571" lon="175.624130"><ele>223.100006</ele><time>2022-01-07T03:49:41Z</time><course>352.549987</course><speed>28.531604</speed></trkpt>
<trkpt lat="-40.813118" lon="175.622833"><ele>233.899993</ele><time>2022-01-07T03:50:11Z</time><course>350.660003</course><speed>22.325860</speed></trkpt>
<trkpt lat="-40.806846" lon="175.619918"><ele>244.699996</ele><time>2022-01-07T03:50:41Z</time><course>353.109985</course><speed>27.340665</speed></trkpt>
<trkpt lat="-40.799484" lon="175.618469"><ele>255.600006</ele><time>2022-01-07T03:51:11Z</time><course>347.609985</course><speed>27.648817</speed></trkpt>
<trkpt lat="-40.792266" lon="175.617218"><ele>259.899993</ele><time>2022-01-07T03:51:41Z</time><course>341.149993</course><speed>26.500064</speed></trkpt>
<trkpt lat="-40.785625" lon="175.616210"><ele>265.399993</ele><time>2022-01-07T03:52:11Z</time><course>359.579986</course><speed>23.758073</speed></trkpt>
<trkpt lat="-40.779125" lon="175.615020"><ele>269.500000</ele><time>2022-01-07T03:52:41Z</time><course>337.089996</course><speed>26.971809</speed></trkpt>
<trkpt lat="-40.772468" lon="175.611496"><ele>275.500000</ele><time>2022-01-07T03:53:11Z</time><course>325.980011</course><speed>25.570978</speed></trkpt>
<trkpt lat="-40.767383" lon="175.608474"><ele>280.600006</ele><time>2022-01-07T03:53:41Z</time><course>345.829986</course><speed>15.084027</speed></trkpt>
<trkpt lat="-40.761909" lon="175.607147"><ele>286.000000</ele><time>2022-01-07T03:54:11Z</time><course>353.239990</course><speed>24.481384</speed></trkpt>
<trkpt lat="-40.755668" lon="175.606628"><ele>316.500000</ele><time>2022-01-07T03:54:41Z</time><course>337.769989</course><speed>22.717353</speed></trkpt>
<trkpt lat="-40.749916" lon="175.604736"><ele>329.899993</ele><time>2022-01-07T03:55:11Z</time><course>18.959999</course><speed>22.911811</speed></trkpt>
<trkpt lat="-40.744819" lon="175.608490"><ele>356.500000</ele><time>2022-01-07T03:55:41Z</time><course>36.750000</course><speed>24.264287</speed></trkpt>
<trkpt lat="-40.739646" lon="175.614471"><ele>342.600006</ele><time>2022-01-07T03:56:11Z</time><course>45.439998</course><speed>25.983560</speed></trkpt>
<trkpt lat="-40.734756" lon="175.620788"><ele>317.299987</ele><time>2022-01-07T03:56:41Z</time><course>38.470001</course><speed>25.170223</speed></trkpt>
<trkpt lat="-40.729358" lon="175.627151"><ele>307.700012</ele><time>2022-01-07T03:57:11Z</time><course>59.819999</course><speed>28.396307</speed></trkpt>
<trkpt lat="-40.724773" lon="175.633575"><ele>306.500000</ele><time>2022-01-07T03:57:41Z</time><course>14.920001</course><speed>24.591474</speed></trkpt>
<trkpt lat="-40.720275" lon="175.639846"><ele>296.500000</ele><time>2022-01-07T03:58:11Z</time><course>36.060001</course><speed>25.085855</speed></trkpt>
<trkpt lat="-40.714115" lon="175.642730"><ele>287.799987</ele><time>2022-01-07T03:58:41Z</time><course>16.379999</course><speed>22.107736</speed></trkpt>
<trkpt lat="-40.709106" lon="175.647125"><ele>287.000000</ele><time>2022-01-07T03:59:11Z</time><course>60.060001</course><speed>23.748298</speed></trkpt>
<trkpt lat="-40.706226" lon="175.654953"><ele>277.299987</ele><time>2022-01-07T03:59:41Z</time><course>55.919998</course><speed>24.017869</speed></trkpt>
<trkpt lat="-40.701305" lon="175.660675"><ele>272.299987</ele><time>2022-01-07T04:00:11Z</time><course>32.450000</course><speed>27.184787</speed></trkpt>
<trkpt lat="-40.697219" lon="175.667114"><ele>283.399993</ele><time>2022-01-07T04:00:41Z</time><course>62.130001</course><speed>22.777029</speed></trkpt>
<trkpt lat="-40.693641" lon="175.673675"><ele>280.799987</ele><time>2022-01-07T04:01:11Z</time><course>37.529998</course><speed>25.422302</speed></trkpt>
<trkpt lat="-40.687797" lon="175.678802"><ele>265.600006</ele><time>2022-01-07T04:01:41Z</time><course>33.610000</course><speed>24.614624</speed></trkpt>
<trkpt lat="-40.682373" lon="175.684433"><ele>251.500000</ele><time>2022-01-07T04:02:11Z</time><course>50.680000</course><speed>26.374540</speed></trkpt>
<trkpt lat="-40.678379" lon="175.691680"><ele>238.199996</ele><time>2022-01-07T04:02:41Z</time><course>46.049999</course><speed>24.912487</speed></trkpt>
<trkpt lat="-40.673893" lon="175.697738"><ele>228.600006</ele><time>2022-01-07T04:03:11Z</time><course>46.250000</course><speed>24.604335</speed></trkpt>
<trkpt lat="-40.668060" lon="175.701965"><ele>234.699996</ele><time>2022-01-07T04:03:41Z</time><course>18.870000</course><speed>24.210271</speed></trkpt>
<trkpt lat="-40.662197" lon="175.704696"><ele>229.600006</ele><time>2022-01-07T04:04:11Z</time><course>20.379999</course><speed>21.466224</speed></trkpt>
<trkpt lat="-40.656456" lon="175.707183"><ele>210.600006</ele><time>2022-01-07T04:04:41Z</time><course>14.190000</course><speed>17.101676</speed></trkpt>
<trkpt lat="-40.652473" lon="175.705642"><ele>214.000000</ele><time>2022-01-07T04:05:11Z</time><course>350.769989</course><speed>16.343900</speed></trkpt>
<trkpt lat="-40.647636" lon="175.704360"><ele>217.000000</ele><time>2022-01-07T04:05:41Z</time><course>17.319999</course><speed>16.678804</speed></trkpt>
<trkpt lat="-40.644809" lon="175.703231"><ele>219.600006</ele><time>2022-01-07T04:06:11Z</time><course>359.730011</course><speed>11.741681</speed></trkpt>
<trkpt lat="-40.641361" lon="175.706085"><ele>215.100006</ele><time>2022-01-07T04:06:41Z</time><course>42.790000</course><speed>18.859533</speed></trkpt>
<trkpt lat="-40.637237" lon="175.710372"><ele>211.899993</ele><time>2022-01-07T04:07:11Z</time><course>25.469999</course><speed>21.192539</speed></trkpt>
<trkpt lat="-40.631691" lon="175.714035"><ele>198.699996</ele><time>2022-01-07T04:07:41Z</time><course>3.780000</course><speed>25.039556</speed></trkpt>
<trkpt lat="-40.624794" lon="175.713501"><ele>199.500000</ele><time>2022-01-07T04:08:11Z</time><course>354.959991</course><speed>26.584432</speed></trkpt>
<trkpt lat="-40.617694" lon="175.712966"><ele>197.300003</ele><time>2022-01-07T04:08:41Z</time><course>6.490000</course><speed>26.813360</speed></trkpt>
<trkpt lat="-40.610416" lon="175.714279"><ele>199.800003</ele><time>2022-01-07T04:09:11Z</time><course>344.359985</course><speed>28.075292</speed></trkpt>
<trkpt lat="-40.603832" lon="175.711837"><ele>192.600006</ele><time>2022-01-07T04:09:41Z</time><course>21.930000</course><speed>26.310749</speed></trkpt>
<trkpt lat="-40.597278" lon="175.715896"><ele>186.399993</ele><time>2022-01-07T04:10:11Z</time><course>25.340000</course><speed>27.385423</speed></trkpt>
<trkpt lat="-40.590713" lon="175.719909"><ele>186.899993</ele><time>2022-01-07T04:10:41Z</time><course>24.700000</course><speed>26.313835</speed></trkpt>
<trkpt lat="-40.583965" lon="175.724014"><ele>181.800003</ele><time>2022-01-07T04:11:11Z</time><course>24.709999</course><speed>28.507940</speed></trkpt>
<trkpt lat="-40.578014" lon="175.729568"><ele>183.399993</ele><time>2022-01-07T04:11:41Z</time><course>37.610000</course><speed>25.801961</speed></trkpt>
<trkpt lat="-40.572303" lon="175.734512"><ele>177.100006</ele><time>2022-01-07T04:12:11Z</time><course>23.239999</course><speed>25.946006</speed></trkpt>
<trkpt lat="-40.565296" lon="175.738098"><ele>172.500000</ele><time>2022-01-07T04:12:41Z</time><course>21.709999</course><speed>28.468328</speed></trkpt>
<trkpt lat="-40.558441" lon="175.742111"><ele>169.500000</ele><time>2022-01-07T04:13:11Z</time><course>31.510000</course><speed>27.183246</speed></trkpt>
<trkpt lat="-40.552055" lon="175.747268"><ele>165.300003</ele><time>2022-01-07T04:13:41Z</time><course>31.739999</course><speed>27.903469</speed></trkpt>
<trkpt lat="-40.545757" lon="175.752548"><ele>162.899993</ele><time>2022-01-07T04:14:11Z</time><course>33.259998</course><speed>27.911186</speed></trkpt>
<trkpt lat="-40.539527" lon="175.757858"><ele>159.500000</ele><time>2022-01-07T04:14:41Z</time><course>32.950000</course><speed>27.521751</speed></trkpt>
<trkpt lat="-40.533313" lon="175.763183"><ele>156.000000</ele><time>2022-01-07T04:15:11Z</time><course>35.000000</course><speed>28.095355</speed></trkpt>
<trkpt lat="-40.527149" lon="175.768661"><ele>151.300003</ele><time>2022-01-07T04:15:41Z</time><course>32.970001</course><speed>26.571058</speed></trkpt>
<trkpt lat="-40.520832" lon="175.773590"><ele>146.600006</ele><time>2022-01-07T04:16:11Z</time><course>28.920000</course><speed>27.843791</speed></trkpt>
<trkpt lat="-40.514762" lon="175.779663"><ele>144.399993</ele><time>2022-01-07T04:16:41Z</time><course>38.040000</course><speed>28.676164</speed></trkpt>
<trkpt lat="-40.508838" lon="175.785781"><ele>141.800003</ele><time>2022-01-07T04:17:11Z</time><course>38.819999</course><speed>27.249094</speed></trkpt>
<trkpt lat="-40.503784" lon="175.792541"><ele>141.800003</ele><time>2022-01-07T04:17:41Z</time><course>39.900001</course><speed>25.843631</speed></trkpt>
<trkpt lat="-40.498664" lon="175.798934"><ele>136.699996</ele><time>2022-01-07T04:18:11Z</time><course>43.349998</course><speed>27.108137</speed></trkpt>
<trkpt lat="-40.493865" lon="175.806320"><ele>134.199996</ele><time>2022-01-07T04:18:41Z</time><course>36.669998</course><speed>27.315971</speed></trkpt>
<trkpt lat="-40.488018" lon="175.811447"><ele>127.900001</ele><time>2022-01-07T04:19:11Z</time><course>37.759998</course><speed>26.577230</speed></trkpt>
<trkpt lat="-40.481643" lon="175.816528"><ele>125.000000</ele><time>2022-01-07T04:19:41Z</time><course>14.220001</course><speed>28.354635</speed></trkpt>
<trkpt lat="-40.474666" lon="175.820327"><ele>120.300003</ele><time>2022-01-07T04:20:11Z</time><course>28.299999</course><speed>27.871057</speed></trkpt>
<trkpt lat="-40.468341" lon="175.825515"><ele>116.300003</ele><time>2022-01-07T04:20:41Z</time><course>41.560001</course><speed>27.189933</speed></trkpt>
<trkpt lat="-40.462883" lon="175.831817"><ele>114.199996</ele><time>2022-01-07T04:21:11Z</time><course>38.220001</course><speed>26.946086</speed></trkpt>
<trkpt lat="-40.458358" lon="175.836013"><ele>111.699996</ele><time>2022-01-07T04:21:41Z</time><course>33.810001</course><speed>13.848332</speed></trkpt>
<trkpt lat="-40.455524" lon="175.838363"><ele>110.300003</ele><time>2022-01-07T04:22:11Z</time><course>31.079999</course><speed>12.739704</speed></trkpt>
<trkpt lat="-40.452667" lon="175.841033"><ele>110.400001</ele><time>2022-01-07T04:22:41Z</time><course>31.530000</course><speed>11.113030</speed></trkpt>
<trkpt lat="-40.452281" lon="175.841186"><ele>104.400001</ele><time>2022-01-07T04:23:11Z</time><course>0.000000</course><speed>0.209379</speed></trkpt>
<trkpt lat="-40.452209" lon="175.841262"><ele>121.300003</ele><time>2022-01-07T04:23:41Z</time><course>0.000000</course><speed>0.358568</speed></trkpt>
<trkpt lat="-40.450359" lon="175.842758"><ele>111.500000</ele><time>2022-01-07T04:24:11Z</time><course>30.100000</course><speed>12.990238</speed></trkpt>
<trkpt lat="-40.446933" lon="175.845260"><ele>107.099998</ele><time>2022-01-07T04:24:41Z</time><course>25.090000</course><speed>18.640380</speed></trkpt>
<trkpt lat="-40.441043" lon="175.848739"><ele>103.099998</ele><time>2022-01-07T04:25:11Z</time><course>24.159999</course><speed>25.764408</speed></trkpt>
<trkpt lat="-40.436206" lon="175.852844"><ele>101.599998</ele><time>2022-01-07T04:25:41Z</time><course>35.340000</course><speed>22.691118</speed></trkpt>
<trkpt lat="-40.431163" lon="175.857757"><ele>99.900001</ele><time>2022-01-07T04:26:11Z</time><course>37.939998</course><speed>24.357915</speed></trkpt>
<trkpt lat="-40.426696" lon="175.862182"><ele>97.300003</ele><time>2022-01-07T04:26:41Z</time><course>37.270000</course><speed>14.000607</speed></trkpt>
<trkpt lat="-40.425380" lon="175.863327"><ele>94.500000</ele><time>2022-01-07T04:27:11Z</time><course>0.000000</course><speed>0.197032</speed></trkpt>
<trkpt lat="-40.426673" lon="175.862258"><ele>95.500000</ele><time>2022-01-07T04:27:41Z</time><course>215.889999</course><speed>17.194791</speed></trkpt>
<trkpt lat="-40.431602" lon="175.857391"><ele>102.800003</ele><time>2022-01-07T04:28:11Z</time><course>216.960006</course><speed>24.976793</speed></trkpt>
<trkpt lat="-40.437213" lon="175.851882"><ele>100.500000</ele><time>2022-01-07T04:28:41Z</time><course>216.679992</course><speed>26.548419</speed></trkpt>
<trkpt lat="-40.443321" lon="175.847427"><ele>105.199996</ele><time>2022-01-07T04:29:11Z</time><course>204.690002</course><speed>25.499469</speed></trkpt>
<trkpt lat="-40.448207" lon="175.844512"><ele>106.900001</ele><time>2022-01-07T04:29:41Z</time><course>203.979995</course><speed>14.034046</speed></trkpt>
<trkpt lat="-40.450908" lon="175.842788"><ele>110.000000</ele><time>2022-01-07T04:30:11Z</time><course>211.029998</course><speed>10.998309</speed></trkpt>
<trkpt lat="-40.453189" lon="175.841018"><ele>110.400001</ele><time>2022-01-07T04:30:41Z</time><course>210.669998</course><speed>9.474010</speed></trkpt>
<trkpt lat="-40.453414" lon="175.840621"><ele>114.900001</ele><time>2022-01-07T04:31:11Z</time><course>0.000000</course><speed>0.525248</speed></trkpt>
<trkpt lat="-40.453403" lon="175.840621"><ele>118.000000</ele><time>2022-01-07T04:31:41Z</time><course>0.000000</course><speed>0.085912</speed></trkpt>
<trkpt lat="-40.452304" lon="175.838424"><ele>113.199996</ele><time>2022-01-07T04:32:11Z</time><course>303.350006</course><speed>14.113784</speed></trkpt>
<trkpt lat="-40.450035" lon="175.834045"><ele>113.000000</ele><time>2022-01-07T04:32:41Z</time><course>307.899993</course><speed>15.668951</speed></trkpt>
<trkpt lat="-40.447372" lon="175.828994"><ele>108.699996</ele><time>2022-01-07T04:33:11Z</time><course>290.519989</course><speed>21.912763</speed></trkpt>
<trkpt lat="-40.447017" lon="175.821060"><ele>112.099998</ele><time>2022-01-07T04:33:41Z</time><course>269.859985</course><speed>22.269271</speed></trkpt>
<trkpt lat="-40.445938" lon="175.814056"><ele>112.300003</ele><time>2022-01-07T04:34:11Z</time><course>253.229995</course><speed>13.696055</speed></trkpt>
<trkpt lat="-40.443660" lon="175.815811"><ele>135.000000</ele><time>2022-01-07T04:34:41Z</time><course>37.220001</course><speed>14.550034</speed></trkpt>
<trkpt lat="-40.440967" lon="175.816833"><ele>148.899993</ele><time>2022-01-07T04:35:11Z</time><course>334.929992</course><speed>15.058818</speed></trkpt>
<trkpt lat="-40.437736" lon="175.811737"><ele>140.399993</ele><time>2022-01-07T04:35:41Z</time><course>303.029998</course><speed>13.861706</speed></trkpt>
<trkpt lat="-40.435268" lon="175.809463"><ele>141.000000</ele><time>2022-01-07T04:36:11Z</time><course>3.750000</course><speed>3.987459</speed></trkpt>
<trkpt lat="-40.435184" lon="175.809494"><ele>141.500000</ele><time>2022-01-07T04:36:41Z</time><course>10.310001</course><speed>4.643890</speed></trkpt>
<trkpt lat="-40.432250" lon="175.809310"><ele>131.600006</ele><time>2022-01-07T04:37:11Z</time><course>210.850006</course><speed>10.566690</speed></trkpt>
<trkpt lat="-40.435089" lon="175.805480"><ele>95.599998</ele><time>2022-01-07T04:37:41Z</time><course>282.489990</course><speed>16.499778</speed></trkpt>
<trkpt lat="-40.433879" lon="175.798584"><ele>89.699996</ele><time>2022-01-07T04:38:11Z</time><course>242.759994</course><speed>18.800888</speed></trkpt>
<trkpt lat="-40.436763" lon="175.792297"><ele>95.300003</ele><time>2022-01-07T04:38:41Z</time><course>261.989990</course><speed>17.875402</speed></trkpt>
<trkpt lat="-40.437946" lon="175.788970"><ele>91.900001</ele><time>2022-01-07T04:39:11Z</time><course>201.619995</course><speed>20.146160</speed></trkpt>
<trkpt lat="-40.443561" lon="175.786544"><ele>103.900001</ele><time>2022-01-07T04:39:41Z</time><course>190.729995</course><speed>23.990602</speed></trkpt>
<trkpt lat="-40.449390" lon="175.782699"><ele>101.900001</ele><time>2022-01-07T04:40:11Z</time><course>219.619995</course><speed>26.035520</speed></trkpt>
<trkpt lat="-40.452449" lon="175.777603"><ele>98.300003</ele><time>2022-01-07T04:40:41Z</time><course>281.320007</course><speed>17.941251</speed></trkpt>
<trkpt lat="-40.454460" lon="175.774261"><ele>100.500000</ele><time>2022-01-07T04:41:11Z</time><course>197.860000</course><speed>20.903936</speed></trkpt>
<trkpt lat="-40.458805" lon="175.770309"><ele>106.500000</ele><time>2022-01-07T04:41:41Z</time><course>244.429992</course><speed>19.253597</speed></trkpt>
<trkpt lat="-40.459072" lon="175.762832"><ele>120.300003</ele><time>2022-01-07T04:42:11Z</time><course>296.059997</course><speed>22.990522</speed></trkpt>
<trkpt lat="-40.458915" lon="175.754592"><ele>127.500000</ele><time>2022-01-07T04:42:41Z</time><course>263.220001</course><speed>24.924835</speed></trkpt>
<trkpt lat="-40.458801" lon="175.746353"><ele>133.600006</ele><time>2022-01-07T04:43:11Z</time><course>283.390014</course><speed>23.464326</speed></trkpt>
<trkpt lat="-40.458354" lon="175.739105"><ele>142.500000</ele><time>2022-01-07T04:43:41Z</time><course>288.679992</course><speed>14.818059</speed></trkpt>
<trkpt lat="-40.456180" lon="175.733261"><ele>144.500000</ele><time>2022-01-07T04:44:11Z</time><course>299.420013</course><speed>21.500692</speed></trkpt>
<trkpt lat="-40.450717" lon="175.731018"><ele>150.500000</ele><time>2022-01-07T04:44:41Z</time><course>9.410000</course><speed>24.679958</speed></trkpt>
<trkpt lat="-40.444515" lon="175.734512"><ele>158.800003</ele><time>2022-01-07T04:45:11Z</time><course>32.930000</course><speed>26.538648</speed></trkpt>
<trkpt lat="-40.437747" lon="175.737518"><ele>167.100006</ele><time>2022-01-07T04:45:41Z</time><course>9.520001</course><speed>26.114744</speed></trkpt>
<trkpt lat="-40.431285" lon="175.739288"><ele>172.699996</ele><time>2022-01-07T04:46:11Z</time><course>6.100000</course><speed>22.757993</speed></trkpt>
<trkpt lat="-40.425781" lon="175.741058"><ele>189.800003</ele><time>2022-01-07T04:46:41Z</time><course>19.750000</course><speed>21.623130</speed></trkpt>
<trkpt lat="-40.422397" lon="175.739563"><ele>200.000000</ele><time>2022-01-07T04:47:11Z</time><course>356.309997</course><speed>16.872749</speed></trkpt>
<trkpt lat="-40.418376" lon="175.738601"><ele>242.000000</ele><time>2022-01-07T04:47:41Z</time><course>301.130004</course><speed>16.048608</speed></trkpt>
<trkpt lat="-40.416305" lon="175.734939"><ele>272.500000</ele><time>2022-01-07T04:48:11Z</time><course>275.609985</course><speed>13.666732</speed></trkpt>
<trkpt lat="-40.417942" lon="175.731369"><ele>294.700012</ele><time>2022-01-07T04:48:41Z</time><course>215.500000</course><speed>13.059173</speed></trkpt>
<trkpt lat="-40.416629" lon="175.731063"><ele>318.100006</ele><time>2022-01-07T04:49:11Z</time><course>14.030000</course><speed>8.914809</speed></trkpt>
<trkpt lat="-40.416366" lon="175.727264"><ele>344.600006</ele><time>2022-01-07T04:49:41Z</time><course>234.720001</course><speed>14.433255</speed></trkpt>
<trkpt lat="-40.415466" lon="175.726470"><ele>366.700012</ele><time>2022-01-07T04:50:11Z</time><course>17.959999</course><speed>10.743660</speed></trkpt>
<trkpt lat="-40.413124" lon="175.721267"><ele>349.299987</ele><time>2022-01-07T04:50:41Z</time><course>308.820007</course><speed>22.295509</speed></trkpt>
<trkpt lat="-40.409374" lon="175.717544"><ele>334.200012</ele><time>2022-01-07T04:51:11Z</time><course>344.899993</course><speed>16.727161</speed></trkpt>
<trkpt lat="-40.404907" lon="175.714416"><ele>288.799987</ele><time>2022-01-07T04:51:41Z</time><course>340.540008</course><speed>19.615253</speed></trkpt>
<trkpt lat="-40.400535" lon="175.712677"><ele>283.700012</ele><time>2022-01-07T04:52:11Z</time><course>345.540008</course><speed>14.741407</speed></trkpt>
<trkpt lat="-40.398647" lon="175.709381"><ele>270.100006</ele><time>2022-01-07T04:52:41Z</time><course>277.690002</course><speed>21.075759</speed></trkpt>
<trkpt lat="-40.400264" lon="175.704086"><ele>216.000000</ele><time>2022-01-07T04:53:11Z</time><course>237.059997</course><speed>16.718931</speed></trkpt>
<trkpt lat="-40.401592" lon="175.701675"><ele>175.899993</ele><time>2022-01-07T04:53:41Z</time><course>219.600006</course><speed>9.711684</speed></trkpt>
<trkpt lat="-40.398658" lon="175.698120"><ele>139.000000</ele><time>2022-01-07T04:54:11Z</time><course>347.670013</course><speed>17.174728</speed></trkpt>
<trkpt lat="-40.395591" lon="175.692535"><ele>104.099998</ele><time>2022-01-07T04:54:41Z</time><course>282.799987</course><speed>21.610269</speed></trkpt>
<trkpt lat="-40.391372" lon="175.687530"><ele>86.599998</ele><time>2022-01-07T04:55:11Z</time><course>330.089996</course><speed>21.826334</speed></trkpt>
<trkpt lat="-40.386852" lon="175.683425"><ele>75.599998</ele><time>2022-01-07T04:55:41Z</time><course>345.880004</course><speed>19.069427</speed></trkpt>
<trkpt lat="-40.382972" lon="175.677764"><ele>67.400001</ele><time>2022-01-07T04:56:11Z</time><course>312.540008</course><speed>22.214225</speed></trkpt>
<trkpt lat="-40.378444" lon="175.672363"><ele>60.700000</ele><time>2022-01-07T04:56:41Z</time><course>299.670013</course><speed>24.054393</speed></trkpt>
<trkpt lat="-40.375041" lon="175.665710"><ele>46.500000</ele><time>2022-01-07T04:57:11Z</time><course>328.010009</course><speed>22.201881</speed></trkpt>
<trkpt lat="-40.369949" lon="175.662536"><ele>37.900001</ele><time>2022-01-07T04:57:41Z</time><course>320.070007</course><speed>17.631555</speed></trkpt>
<trkpt lat="-40.369102" lon="175.658157"><ele>22.000000</ele><time>2022-01-07T04:58:11Z</time><course>254.500000</course><speed>21.440502</speed></trkpt>
<trkpt lat="-40.373180" lon="175.651687"><ele>31.000000</ele><time>2022-01-07T04:58:41Z</time><course>218.429992</course><speed>22.200336</speed></trkpt>
<trkpt lat="-40.377464" lon="175.648635"><ele>38.099998</ele><time>2022-01-07T04:59:11Z</time><course>197.460006</course><speed>18.839469</speed></trkpt>
<trkpt lat="-40.381999" lon="175.646911"><ele>83.400001</ele><time>2022-01-07T04:59:41Z</time><course>182.429992</course><speed>18.373384</speed></trkpt>
<trkpt lat="-40.386333" lon="175.644729"><ele>80.199996</ele><time>2022-01-07T05:00:11Z</time><course>251.550003</course><speed>20.511930</speed></trkpt>
<trkpt lat="-40.387947" lon="175.638809"><ele>77.800003</ele><time>2022-01-07T05:00:41Z</time><course>261.510009</course><speed>2.978119</speed></trkpt>
<trkpt lat="-40.387352" lon="175.638916"><ele>83.699996</ele><time>2022-01-07T05:01:11Z</time><course>56.369998</course><speed>3.059916</speed></trkpt>
</trkseg></trk></gpx>
