<?xml version="1.0"?>
<gpx creator="GPS Tracker http://www.geoffg.net/tracker.html/" version="1.0" xmlns="http://www.topografix.com/GPX/1/0" xmlns:xsi="http://www.w3.org/2001/XMLSchema-instance" xsi:schemaLocation="http://www.topografix.com/GPX/1/0 http://www.topografix.com/GPX/1/0/gpx.xsd">
<trk>
<name>Tracker log 2022-01-07 10:22 #03</name>
<trkseg>
<trkpt lat="-41.286376" lon="174.004348"><ele>-1.600000</ele><time>2022-01-06T21:21:58Z</time><course>13.240000</course><speed>3.333086</speed></trkpt>
<trkpt lat="-41.285961" lon="174.004333"><ele>5.400000</ele><time>2022-01-06T21:22:28Z</time><course>0.000000</course><speed>0.079224</speed></trkpt>
<trkpt lat="-41.285938" lon="174.004348"><ele>7.300000</ele><time>2022-01-06T21:22:58Z</time><course>0.000000</course><speed>0.029838</speed></trkpt>
<trkpt lat="-41.285930" lon="174.004333"><ele>7.400000</ele><time>2022-01-06T21:23:28Z</time><course>0.000000</course><speed>0.015433</speed></trkpt>
<trkpt lat="-41.285923" lon="174.004333"><ele>6.200000</ele><time>2022-01-06T21:23:58Z</time><course>0.000000</course><speed>0.005144</speed></trkpt>
<trkpt lat="-41.285919" lon="174.004333"><ele>5.200000</ele><time>2022-01-06T21:24:28Z</time><course>0.000000</course><speed>0.085398</speed></trkpt>
<trkpt lat="-41.285915" lon="174.004333"><ele>3.900000</ele><time>2022-01-06T21:24:58Z</time><course>0.000000</course><speed>0.029323</speed></trkpt>
<trkpt lat="-41.285919" lon="174.004333"><ele>3.100000</ele><time>2022-01-06T21:25:28Z</time><course>0.000000</course><speed>0.003601</speed></trkpt>
<trkpt lat="-41.285511" lon="174.004409"><ele>3.300000</ele><time>2022-01-06T21:25:58Z</time><course>6.610000</course><speed>4.285322</speed></trkpt>
<trkpt lat="-41.285125" lon="174.003845"><ele>1.900000</ele><time>2022-01-06T21:26:28Z</time><course>200.929992</course><speed>4.468464</speed></trkpt>
<trkpt lat="-41.285785" lon="174.003570"><ele>-0.600000</ele><time>2022-01-06T21:26:58Z</time><course>0.000000</course><speed>0.158963</speed></trkpt>
<trkpt lat="-41.285789" lon="174.003555"><ele>0.400000</ele><time>2022-01-06T21:27:28Z</time><course>0.000000</course><speed>0.065849</speed></trkpt>
<trkpt lat="-41.285789" lon="174.003555"><ele>-0.200000</ele><time>2022-01-06T21:27:58Z</time><course>0.000000</course><speed>0.033953</speed></trkpt>
</trkseg></trk></gpx>
