<?xml version="1.0"?>
<gpx creator="GPS Tracker http://www.geoffg.net/tracker.html/" version="1.0" xmlns="http://www.topografix.com/GPX/1/0" xmlns:xsi="http://www.w3.org/2001/XMLSchema-instance" xsi:schemaLocation="http://www.topografix.com/GPX/1/0 http://www.topografix.com/GPX/1/0/gpx.xsd">
<trk>
<name>Tracker log 2022-01-09 11:50 #03</name>
<trkseg>
<trkpt lat="-36.773605" lon="174.742263"><ele>26.200000</ele><time>2022-01-08T22:50:17Z</time><course>0.000000</course><speed>0.059676</speed></trkpt>
<trkpt lat="-36.773571" lon="174.742248"><ele>20.899999</ele><time>2022-01-08T22:50:47Z</time><course>0.000000</course><speed>0.171824</speed></trkpt>
<trkpt lat="-36.773754" lon="174.742172"><ele>27.100000</ele><time>2022-01-08T22:51:17Z</time><course>231.399993</course><speed>1.155442</speed></trkpt>
<trkpt lat="-36.776409" lon="174.743774"><ele>24.200000</ele><time>2022-01-08T22:51:47Z</time><course>152.169998</course><speed>11.021459</speed></trkpt>
<trkpt lat="-36.779075" lon="174.745590"><ele>24.200000</ele><time>2022-01-08T22:52:17Z</time><course>144.509994</course><speed>1.922479</speed></trkpt>
<trkpt lat="-36.779087" lon="174.745620"><ele>29.299999</ele><time>2022-01-08T22:52:47Z</time><course>0.000000</course><speed>0.149189</speed></trkpt>
<trkpt lat="-36.781024" lon="174.743484"><ele>30.700000</ele><time>2022-01-08T22:53:17Z</time><course>226.029998</course><speed>12.300368</speed></trkpt>
<trkpt lat="-36.783378" lon="174.740478"><ele>31.000000</ele><time>2022-01-08T22:53:47Z</time><course>225.320007</course><speed>12.284420</speed></trkpt>
<trkpt lat="-36.784256" lon="174.739425"><ele>35.500000</ele><time>2022-01-08T22:54:17Z</time><course>226.550003</course><speed>5.791101</speed></trkpt>
<trkpt lat="-36.786216" lon="174.741302"><ele>36.400001</ele><time>2022-01-08T22:54:47Z</time><course>136.089996</course><speed>8.837127</speed></trkpt>
<trkpt lat="-36.786537" lon="174.741653"><ele>36.000000</ele><time>2022-01-08T22:55:17Z</time><course>136.050003</course><speed>6.416666</speed></trkpt>
<trkpt lat="-36.788829" lon="174.744049"><ele>38.200000</ele><time>2022-01-08T22:55:47Z</time><course>139.020004</course><speed>12.351298</speed></trkpt>
<trkpt lat="-36.791358" lon="174.747100"><ele>31.399999</ele><time>2022-01-08T22:56:17Z</time><course>136.229995</course><speed>12.453158</speed></trkpt>
<trkpt lat="-36.791824" lon="174.747665"><ele>27.000000</ele><time>2022-01-08T22:56:47Z</time><course>0.000000</course><speed>0.040641</speed></trkpt>
<trkpt lat="-36.792633" lon="174.747238"><ele>26.500000</ele><time>2022-01-08T22:57:17Z</time><course>229.020004</course><speed>14.556721</speed></trkpt>
<trkpt lat="-36.794483" lon="174.744918"><ele>27.899999</ele><time>2022-01-08T22:57:47Z</time><course>232.750000</course><speed>7.547929</speed></trkpt>
<trkpt lat="-36.796802" lon="174.741867"><ele>42.200000</ele><time>2022-01-08T22:58:17Z</time><course>225.880004</course><speed>13.362696</speed></trkpt>
<trkpt lat="-36.798358" lon="174.742080"><ele>47.299999</ele><time>2022-01-08T22:58:47Z</time><course>186.539993</course><speed>8.156517</speed></trkpt>
<trkpt lat="-36.799747" lon="174.741668"><ele>42.700000</ele><time>2022-01-08T22:59:17Z</time><course>273.630004</course><speed>3.848559</speed></trkpt>
</trkseg></trk></gpx>
